Temsah/Assigments/ASYNC_FIFO/ASYNC_FIFO.vcd
$date
	Fri Sep 05 23:14:01 2025
$end
$version
	Icarus Verilog
$end
$timescale
	1ps
$end
$scope module ASYNC_FIFO_tb $end
$var wire 1 ! Wfull_tb $end
$var wire 1 " Rempty_tb $end
$var wire 8 # Rdata_tb [7:0] $end
$var parameter 32 $ Address $end
$var parameter 32 % Data_width $end
$var parameter 32 & Depth $end
$var parameter 32 ' NUM_STAGES $end
$var parameter 32 ( Rperiod $end
$var parameter 32 ) Wperiod $end
$var reg 1 * Rclk_tb $end
$var reg 1 + Rinc_tb $end
$var reg 1 , Rrst_tb $end
$var reg 1 - Wclk_tb $end
$var reg 1 . Winc_tb $end
$var reg 8 / Wrdata_tb [7:0] $end
$var reg 1 0 Wrst_tb $end
$var reg 1 1 done $end
$var integer 32 2 Rindex [31:0] $end
$var integer 32 3 Windex [31:0] $end
$var integer 32 4 i [31:0] $end
$scope module FIFOASYNC $end
$var wire 1 * Rclk $end
$var wire 1 + Rinc $end
$var wire 1 , Rrst $end
$var wire 1 - Wclk $end
$var wire 1 . Winc $end
$var wire 8 5 Wrdata [7:0] $end
$var wire 1 0 Wrst $end
$var wire 4 6 Wq2_rptr_internal [3:0] $end
$var wire 4 7 Wptr_internal [3:0] $end
$var wire 1 ! Wfull $end
$var wire 1 8 Wclken_internal $end
$var wire 3 9 Wadder_internal [2:0] $end
$var wire 4 : Rptr_internal [3:0] $end
$var wire 1 " Rempty $end
$var wire 8 ; Rdata [7:0] $end
$var wire 3 < Radder_internal [2:0] $end
$var wire 4 = R2q_wptr_internal [3:0] $end
$var parameter 32 > Address $end
$var parameter 32 ? Data_width $end
$var parameter 32 @ Depth $end
$var parameter 32 A NUM_STAGES $end
$scope module BIT_W2q_rptr $end
$var wire 1 - CLK $end
$var wire 1 0 RST $end
$var wire 4 B ASYNC [3:0] $end
$var parameter 33 C BUS_WIDTH $end
$var parameter 32 D NUM_STAGES $end
$var reg 4 E SYNC [3:0] $end
$var integer 32 F i [31:0] $end
$upscope $end
$scope module BIT_r2q_wptr $end
$var wire 1 * CLK $end
$var wire 1 , RST $end
$var wire 4 G ASYNC [3:0] $end
$var parameter 33 H BUS_WIDTH $end
$var parameter 32 I NUM_STAGES $end
$var reg 4 J SYNC [3:0] $end
$var integer 32 K i [31:0] $end
$upscope $end
$scope module Clogic $end
$var wire 1 . Winc $end
$var wire 1 ! Wfull $end
$var reg 1 8 Wclken $end
$upscope $end
$scope module FIFO_MEM $end
$var wire 1 * Rclk $end
$var wire 1 - Wclk $end
$var wire 1 8 Wclken $end
$var wire 8 L Wrdata [7:0] $end
$var wire 3 M Wadder [2:0] $end
$var wire 3 N Radder [2:0] $end
$var parameter 32 O Address $end
$var parameter 32 P Data_width $end
$var parameter 32 Q Depth $end
$var reg 8 R Rdata [7:0] $end
$upscope $end
$scope module FIFO_RPTRREMPTY $end
$var wire 4 S R2q_wptr [3:0] $end
$var wire 1 * Rclk $end
$var wire 1 + Rinc $end
$var wire 1 , Rrst $end
$var wire 3 T Radder [2:0] $end
$var parameter 32 U Address $end
$var reg 4 V Radder_binary_current [3:0] $end
$var reg 4 W Radder_binary_next [3:0] $end
$var reg 4 X Radder_gray_next [3:0] $end
$var reg 1 " Rempty $end
$var reg 4 Y Rptr [3:0] $end
$upscope $end
$scope module FIFO_WPTRFULL $end
$var wire 1 - Wclk $end
$var wire 1 . Winc $end
$var wire 4 Z Wq2_rptr [3:0] $end
$var wire 1 0 Wrst $end
$var wire 3 [ Wadder [2:0] $end
$var parameter 32 \ Address $end
$var reg 4 ] Wadder_binary_current [3:0] $end
$var reg 4 ^ Wadder_binary_next [3:0] $end
$var reg 4 _ Wadder_gray_next [3:0] $end
$var reg 1 ! Wfull $end
$var reg 4 ` Wptr [3:0] $end
$upscope $end
$upscope $end
$scope task initialize $end
$upscope $end
$scope task read $end
$upscope $end
$scope task reset $end
$upscope $end
$scope task write $end
$var reg 8 a data [7:0] $end
$upscope $end
$upscope $end
$enddefinitions $end
$comment Show the parameter values. $end
$dumpall
b11 \
b11 U
b1000 Q
b1000 P
b11 O
b10 I
b100 H
b10 D
b100 C
b10 A
b1000 @
b1000 ?
b11 >
b1010 )
b11001 (
b10 '
b1000 &
b1000 %
b11 $
$end
#0
$dumpvars
bx a
b0 `
b0 _
b0 ^
b0 ]
b0 [
b0 Z
b0 Y
b0 X
b0 W
b0 V
b0 T
b0 S
bx R
b0 N
b0 M
b0 L
b100 K
b0 J
b0 G
b100 F
b0 E
b0 B
b0 =
b0 <
bx ;
b0 :
b0 9
08
b0 7
b0 6
b0 5
bx 4
bx 3
bx 2
01
00
b0 /
0.
0-
0,
0+
0*
bx #
1"
0!
$end
#5000
b100 F
1-
#10000
0-
#12500
b100 K
1,
10
1*
#15000
b100 F
1-
#20000
0-
#25000
b100 F
1-
0*
#30000
0-
#35000
b100 F
1-
#37500
b100 K
b1011 a
b1 4
b0 2
b0 3
1*
#40000
0-
#45000
18
b1 _
b1 ^
b100 F
1.
b1 3
b1011 /
b1011 5
b1011 L
1-
#50000
0-
0*
#55000
b1 9
b1 M
b1 [
b1 7
b1 G
b1 `
b1 ]
08
b1 _
b1 ^
b100 F
b1100 a
b10 4
0.
1-
#60000
0-
#62500
b1011 #
b1011 ;
b1011 R
b100 K
1*
#65000
18
b11 _
b10 ^
b100 F
1.
b10 3
b1100 /
b1100 5
b1100 L
1-
#70000
0-
#75000
b10 9
b10 M
b10 [
b11 7
b11 G
b11 `
b10 ]
08
b11 _
b10 ^
b100 F
b1101 a
b11 4
0.
1-
0*
#80000
0-
#85000
18
b10 _
b11 ^
b100 F
1.
b11 3
b1101 /
b1101 5
b1101 L
1-
#87500
b1 =
b1 J
b1 S
b100 K
1*
#90000
0-
#95000
b11 9
b11 M
b11 [
b10 7
b10 G
b10 `
b11 ]
08
b10 _
b11 ^
b100 F
b1110 a
b100 4
0.
1-
#100000
0-
0*
#105000
18
b110 _
b100 ^
b100 F
1.
b100 3
b1110 /
b1110 5
b1110 L
1-
#110000
0-
#112500
b11 =
b11 J
b11 S
0"
b100 K
1*
#115000
b100 9
b100 M
b100 [
b110 7
b110 G
b110 `
b100 ]
08
b110 _
b100 ^
b100 F
b1111 a
b101 4
0.
1-
#120000
0-
#125000
18
b111 _
b101 ^
b100 F
1.
b101 3
b1111 /
b1111 5
b1111 L
1-
0*
#130000
0-
#135000
b101 9
b101 M
b101 [
b111 7
b111 G
b111 `
b101 ]
08
b111 _
b101 ^
b100 F
b10000 a
b110 4
0.
1-
#137500
b10 =
b10 J
b10 S
b100 K
1*
#140000
0-
#145000
18
b101 _
b110 ^
b100 F
1.
b110 3
b10000 /
b10000 5
b10000 L
1-
#150000
0-
0*
#155000
b110 9
b110 M
b110 [
b101 7
b101 G
b101 `
b110 ]
08
b101 _
b110 ^
b100 F
b10001 a
b111 4
0.
1-
#160000
0-
#162500
b111 =
b111 J
b111 S
b100 K
1*
#165000
18
b100 _
b111 ^
b100 F
1.
b111 3
b10001 /
b10001 5
b10001 L
1-
#170000
0-
#175000
b111 9
b111 M
b111 [
b100 7
b100 G
b100 `
b111 ]
08
b100 _
b111 ^
b100 F
b10010 a
b1000 4
0.
1-
0*
#180000
0-
#185000
18
b1100 _
b1000 ^
b100 F
1.
b1000 3
b10010 /
b10010 5
b10010 L
1-
#187500
b101 =
b101 J
b101 S
b100 K
1*
#190000
0-
#195000
b0 9
b0 M
b0 [
b1100 7
b1100 G
b1100 `
b1000 ]
1!
08
b1100 _
b1000 ^
b100 F
b1001 4
0.
1-
#196000
b10100 a
#200000
0-
0*
#205000
b100 F
1-
#210000
0-
#212500
b100 =
b100 J
b100 S
b100 K
1*
#215000
b100 F
1-
#220000
0-
#225000
b100 F
1-
0*
#230000
0-
#235000
b100 F
1-
#237500
b1100 =
b1100 J
b1100 S
b100 K
1*
#240000
0-
#245000
b100 F
1-
#250000
0-
0*
#255000
b100 F
1-
#260000
0-
#262500
b100 K
1*
#265000
b100 F
1-
#270000
0-
#275000
b100 F
1-
0*
#280000
0-
#285000
b100 F
1-
#287500
b100 K
1*
#290000
0-
#295000
b100 F
1-
#300000
0-
0*
#305000
b100 F
1-
#310000
0-
#312500
b1 X
b1 W
b100 K
1+
1*
#315000
b100 F
1-
#320000
0-
#325000
b100 F
1-
0*
#330000
0-
#335000
b100 F
1-
#337500
b1 <
b1 N
b1 T
b1 :
b1 B
b1 Y
b1 V
b1 X
b1 W
b100 K
b1 2
0+
1*
#340000
0-
#345000
b100 F
1-
#350000
0-
0*
#355000
b1 6
b1 E
b1 Z
b100 F
1-
#360000
0-
#362500
b1100 #
b1100 ;
b1100 R
b11 X
b10 W
b100 K
1+
1*
#365000
0!
b100 F
1-
#370000
0-
#375000
b100 F
1-
0*
#380000
0-
#385000
b100 F
1-
#387500
b10 <
b10 N
b10 T
b11 :
b11 B
b11 Y
b10 V
b11 X
b10 W
b100 K
b10 2
0+
1*
#390000
0-
#395000
b100 F
1-
#400000
0-
0*
#405000
b11 6
b11 E
b11 Z
b100 F
1-
#410000
0-
#412500
b1101 #
b1101 ;
b1101 R
b10 X
b11 W
b100 K
1+
1*
#415000
b100 F
1-
#420000
0-
#425000
b100 F
1-
0*
#430000
0-
#435000
b100 F
1-
#437500
b11 <
b11 N
b11 T
b10 :
b10 B
b10 Y
b11 V
b10 X
b11 W
b100 K
b11 2
0+
1*
#440000
0-
#445000
b100 F
1-
#450000
0-
0*
#455000
b10 6
b10 E
b10 Z
b100 F
1-
#460000
0-
#462500
b1110 #
b1110 ;
b1110 R
b110 X
b100 W
b100 K
1+
1*
#465000
b100 F
1-
#470000
0-
#475000
b100 F
1-
0*
#480000
0-
#485000
b100 F
1-
#487500
b100 <
b100 N
b100 T
b110 :
b110 B
b110 Y
b100 V
b110 X
b100 W
b100 K
b100 2
0+
1*
#490000
0-
#495000
b100 F
1-
#500000
0-
0*
#505000
b110 6
b110 E
b110 Z
b100 F
1-
#510000
0-
#512500
b1111 #
b1111 ;
b1111 R
b111 X
b101 W
b100 K
1+
1*
#515000
b100 F
1-
#520000
0-
#525000
b100 F
1-
0*
#530000
0-
#535000
b100 F
1-
#537500
b101 <
b101 N
b101 T
b111 :
b111 B
b111 Y
b101 V
b111 X
b101 W
b100 K
b101 2
0+
1*
#540000
0-
#545000
b100 F
1-
#550000
0-
0*
#555000
b111 6
b111 E
b111 Z
b100 F
1-
#560000
0-
#562500
b10000 #
b10000 ;
b10000 R
b101 X
b110 W
b100 K
1+
1*
#565000
b100 F
1-
#570000
0-
#575000
b100 F
1-
0*
#580000
0-
#585000
b100 F
1-
#587500
b110 <
b110 N
b110 T
b101 :
b101 B
b101 Y
b110 V
b101 X
b110 W
b100 K
b110 2
0+
1*
#590000
0-
#595000
b100 F
1-
#600000
0-
0*
#605000
b101 6
b101 E
b101 Z
b100 F
1-
#610000
0-
#612500
b10001 #
b10001 ;
b10001 R
b100 X
b111 W
b100 K
1+
1*
#615000
b100 F
1-
#620000
0-
#625000
b100 F
1-
0*
#630000
0-
#635000
b100 F
1-
#637500
b111 <
b111 N
b111 T
b100 :
b100 B
b100 Y
b111 V
b100 X
b111 W
b100 K
b111 2
0+
1*
#640000
0-
#645000
b100 F
1-
#650000
0-
0*
#655000
b100 6
b100 E
b100 Z
b100 F
1-
#660000
0-
#662500
b10010 #
b10010 ;
b10010 R
b1100 X
b1000 W
b100 K
1+
1*
#665000
b100 F
1-
#670000
0-
#675000
b100 F
1-
0*
#680000
0-
#685000
b100 F
1-
#687500
b0 <
b0 N
b0 T
b1100 :
b1100 B
b1100 Y
b1000 V
1"
b1100 X
b1000 W
b100 K
b1000 2
0+
1*
#690000
0-
#695000
b100 F
1-
#700000
0-
0*
#705000
b1100 6
b1100 E
b1100 Z
b100 F
1-
#710000
0-
#712500
b1011 #
b1011 ;
b1011 R
b100 K
1*
#713500
b0 X
b0 W
b0 =
b0 J
b0 S
b0 _
b0 ^
b0 6
b0 E
b0 Z
b0 :
b0 B
b0 Y
b0 V
b0 7
b0 G
b0 `
b0 ]
b100 K
b100 F
0,
00
#715000
b100 F
1-
#720000
0-
#725000
b100 F
1-
0*
#730000
0-
#735000
b100 F
1-
#737500
b100 K
1,
10
1*
#740000
0-
#745000
b100 F
1-
#750000
0-
0*
#755000
b100 F
1-
#760000
0-
#762500
b100 K
b110011 a
b1 4
b0 2
b0 3
1*
#765000
18
b1 _
b1 ^
b100 F
1.
b1 3
b110011 /
b110011 5
b110011 L
1-
#770000
0-
#775000
b1 9
b1 M
b1 [
b1 7
b1 G
b1 `
b1 ]
08
b1 _
b1 ^
b100 F
b110100 a
b10 4
0.
1-
0*
#780000
0-
#785000
18
b11 _
b10 ^
b100 F
1.
b10 3
b110100 /
b110100 5
b110100 L
1-
#787500
b110011 #
b110011 ;
b110011 R
b100 K
1*
#790000
0-
#795000
b10 9
b10 M
b10 [
b11 7
b11 G
b11 `
b10 ]
08
b11 _
b10 ^
b100 F
b110101 a
b11 4
0.
1-
#800000
0-
0*
#805000
18
b10 _
b11 ^
b100 F
1.
b11 3
b110101 /
b110101 5
b110101 L
1-
#810000
0-
#812500
b1 =
b1 J
b1 S
b100 K
1*
#815000
b11 9
b11 M
b11 [
b10 7
b10 G
b10 `
b11 ]
08
b10 _
b11 ^
b100 F
b110110 a
b100 4
0.
1-
#820000
0-
#825000
18
b110 _
b100 ^
b100 F
1.
b100 3
b110110 /
b110110 5
b110110 L
1-
0*
#830000
0-
#835000
b100 9
b100 M
b100 [
b110 7
b110 G
b110 `
b100 ]
08
b110 _
b100 ^
b100 F
b110111 a
b101 4
0.
1-
#837500
b11 =
b11 J
b11 S
0"
b100 K
1*
#840000
0-
#845000
18
b111 _
b101 ^
b100 F
1.
b101 3
b110111 /
b110111 5
b110111 L
1-
#850000
0-
0*
#855000
b101 9
b101 M
b101 [
b111 7
b111 G
b111 `
b101 ]
08
b111 _
b101 ^
b100 F
b111000 a
b110 4
0.
1-
#860000
0-
#862500
b110 =
b110 J
b110 S
b1 X
b1 W
b100 K
1+
1*
#865000
18
b101 _
b110 ^
b100 F
1.
b110 3
b111000 /
b111000 5
b111000 L
1-
#870000
0-
#875000
b110 9
b110 M
b110 [
b101 7
b101 G
b101 `
b110 ]
08
b101 _
b110 ^
b100 F
b111001 a
b111 4
0.
1-
0*
#880000
0-
#885000
18
b100 _
b111 ^
b100 F
1.
b111 3
b111001 /
b111001 5
b111001 L
1-
#887500
b111 =
b111 J
b111 S
b1 <
b1 N
b1 T
b1 :
b1 B
b1 Y
b1 V
b1 X
b1 W
b100 K
b1 2
0+
1*
#890000
0-
#895000
b111 9
b111 M
b111 [
b100 7
b100 G
b100 `
b111 ]
08
b100 _
b111 ^
b100 F
b111010 a
b1000 4
0.
1-
#900000
0-
0*
#905000
b1 6
b1 E
b1 Z
18
b1100 _
b1000 ^
b100 F
1.
b1000 3
b111010 /
b111010 5
b111010 L
1-
#910000
0-
#912500
b101 =
b101 J
b101 S
b110100 #
b110100 ;
b110100 R
b11 X
b10 W
b100 K
1+
1*
#915000
b0 9
b0 M
b0 [
b1100 7
b1100 G
b1100 `
b1000 ]
08
b1100 _
b1000 ^
b100 F
b1001 4
0.
1-
#920000
0-
#925000
b100 F
1-
0*
#930000
0-
#935000
b100 F
1-
#937500
b100 =
b100 J
b100 S
b10 <
b10 N
b10 T
b11 :
b11 B
b11 Y
b10 V
b11 X
b10 W
b100 K
b10 2
0+
1*
#940000
0-
#945000
b100 F
1-
#950000
0-
0*
#955000
b11 6
b11 E
b11 Z
b100 F
1-
#960000
0-
#962500
b1100 =
b1100 J
b1100 S
b110101 #
b110101 ;
b110101 R
b10 X
b11 W
b100 K
1+
1*
#965000
b100 F
1-
#970000
0-
#975000
b100 F
1-
0*
#980000
0-
#985000
b100 F
1-
#987500
b11 <
b11 N
b11 T
b10 :
b10 B
b10 Y
b11 V
b10 X
b11 W
b100 K
b11 2
0+
1*
#990000
0-
#995000
b100 F
1-
#1000000
0-
0*
#1005000
b10 6
b10 E
b10 Z
b100 F
1-
#1010000
0-
#1012500
b110110 #
b110110 ;
b110110 R
b110 X
b100 W
b100 K
1+
1*
#1015000
b100 F
1-
#1020000
0-
#1025000
b100 F
1-
0*
#1030000
0-
#1035000
b100 F
1-
#1037500
b100 <
b100 N
b100 T
b110 :
b110 B
b110 Y
b100 V
b110 X
b100 W
b100 K
b100 2
0+
1*
#1040000
0-
#1045000
b100 F
1-
#1050000
0-
0*
#1055000
b110 6
b110 E
b110 Z
b100 F
1-
#1060000
0-
#1062500
b110111 #
b110111 ;
b110111 R
b111 X
b101 W
b100 K
1+
1*
#1065000
b100 F
1-
#1070000
0-
#1075000
b100 F
1-
0*
#1080000
0-
#1085000
b100 F
1-
#1087500
b101 <
b101 N
b101 T
b111 :
b111 B
b111 Y
b101 V
b111 X
b101 W
b100 K
b101 2
0+
1*
#1090000
0-
#1095000
b100 F
1-
#1100000
0-
0*
#1105000
b111 6
b111 E
b111 Z
b100 F
1-
#1110000
0-
#1112500
b111000 #
b111000 ;
b111000 R
b101 X
b110 W
b100 K
1+
1*
#1115000
b100 F
1-
#1120000
0-
#1125000
b100 F
1-
0*
#1130000
0-
#1135000
b100 F
1-
#1137500
b110 <
b110 N
b110 T
b101 :
b101 B
b101 Y
b110 V
b101 X
b110 W
b100 K
b110 2
0+
1*
#1140000
0-
#1145000
b100 F
1-
#1150000
0-
0*
#1155000
b101 6
b101 E
b101 Z
b100 F
1-
#1160000
0-
#1162500
b111001 #
b111001 ;
b111001 R
b100 X
b111 W
b100 K
1+
1*
#1165000
b100 F
1-
#1170000
0-
#1175000
b100 F
1-
0*
#1180000
0-
#1185000
b100 F
1-
#1187500
b111 <
b111 N
b111 T
b100 :
b100 B
b100 Y
b111 V
b100 X
b111 W
b100 K
b111 2
0+
1*
#1190000
0-
#1195000
b100 F
1-
#1200000
0-
0*
#1205000
b100 6
b100 E
b100 Z
b100 F
1-
#1210000
0-
#1212500
b111010 #
b111010 ;
b111010 R
b1100 X
b1000 W
b100 K
1+
1*
#1215000
b100 F
1-
#1220000
0-
#1225000
b100 F
1-
0*
#1230000
0-
#1235000
b100 F
1-
#1237500
b0 <
b0 N
b0 T
1"
b1100 :
b1100 B
b1100 Y
b1000 V
b1100 X
b1000 W
b100 K
11
b1000 2
0+
1*
#1240000
0-
#1245000
b100 F
1-
#1250000
0-
0*
#1255000
b1100 6
b1100 E
b1100 Z
b100 F
1-
#1260000
0-
#1262500
b110011 #
b110011 ;
b110011 R
b100 K
1*
#1265000
b100 F
1-
#1270000
0-
#1275000
b100 F
1-
0*
#1280000
0-
#1285000
b100 F
1-
#1287500
b100 K
1*
#1290000
0-
#1295000
b100 F
1-
#1300000
0-
0*
#1305000
b100 F
1-
#1310000
0-
#1312500
b100 K
1*
#1315000
b100 F
1-
#1320000
0-
#1325000
b100 F
1-
0*
#1330000
0-
#1335000
b100 F
1-
#1337500
b100 K
1*
#1340000
0-
#1345000
b100 F
1-
#1350000
0-
0*
#1355000
b100 F
1-
#1360000
0-
#1362500
b100 K
1*
