Temsah/Assigments/ASYNC_FIFO/async_fifo_tb.vcd
$date
	Thu Sep 04 20:31:04 2025
$end
$version
	Icarus Verilog
$end
$timescale
	1ps
$end
$scope module ASYNC_FIFO_tb $end
$var wire 1 ! Wfull $end
$var wire 1 " Rempty $end
$var wire 8 # Rdata [7:0] $end
$var parameter 32 $ Address $end
$var parameter 32 % Data_width $end
$var parameter 32 & Depth $end
$var parameter 32 ' NUM_STAGES $end
$var reg 1 ( Rclk $end
$var reg 1 ) Rinc $end
$var reg 1 * Rrst $end
$var reg 1 + Wclk $end
$var reg 1 , Winc $end
$var reg 8 - Wrdata [7:0] $end
$var reg 1 . Wrst $end
$var integer 32 / ref_count [31:0] $end
$var integer 32 0 rptr [31:0] $end
$var integer 32 1 wptr [31:0] $end
$scope module dut $end
$var wire 1 ( Rclk $end
$var wire 1 ) Rinc $end
$var wire 1 * Rrst $end
$var wire 1 + Wclk $end
$var wire 1 , Winc $end
$var wire 8 2 Wrdata [7:0] $end
$var wire 1 . Wrst $end
$var wire 4 3 Wq2_rptr_internal [3:0] $end
$var wire 4 4 Wptr_internal [3:0] $end
$var wire 1 ! Wfull $end
$var wire 1 5 Wclken_internal $end
$var wire 3 6 Wadder_internal [2:0] $end
$var wire 4 7 Rptr_internal [3:0] $end
$var wire 1 " Rempty $end
$var wire 8 8 Rdata [7:0] $end
$var wire 3 9 Radder_internal [2:0] $end
$var wire 4 : R2q_wptr_internal [3:0] $end
$var parameter 32 ; Address $end
$var parameter 32 < Data_width $end
$var parameter 32 = Depth $end
$var parameter 32 > NUM_STAGES $end
$scope module BIT_W2q_rptr $end
$var wire 1 + CLK $end
$var wire 1 . RST $end
$var wire 4 ? ASYNC [3:0] $end
$var parameter 33 @ BUS_WIDTH $end
$var parameter 32 A NUM_STAGES $end
$var reg 4 B SYNC [3:0] $end
$var integer 32 C i [31:0] $end
$upscope $end
$scope module BIT_r2q_wptr $end
$var wire 1 ( CLK $end
$var wire 1 * RST $end
$var wire 4 D ASYNC [3:0] $end
$var parameter 33 E BUS_WIDTH $end
$var parameter 32 F NUM_STAGES $end
$var reg 4 G SYNC [3:0] $end
$var integer 32 H i [31:0] $end
$upscope $end
$scope module Clogic $end
$var wire 1 , Winc $end
$var wire 1 ! Wfull $end
$var reg 1 5 Wclken $end
$upscope $end
$scope module FIFO_MEM $end
$var wire 1 ( Rclk $end
$var wire 1 + Wclk $end
$var wire 1 5 Wclken $end
$var wire 8 I Wrdata [7:0] $end
$var wire 3 J Wadder [2:0] $end
$var wire 3 K Radder [2:0] $end
$var parameter 32 L Address $end
$var parameter 32 M Data_width $end
$var parameter 32 N Depth $end
$var reg 8 O Rdata [7:0] $end
$upscope $end
$scope module FIFO_RPTRREMPTY $end
$var wire 4 P R2q_wptr [3:0] $end
$var wire 1 ( Rclk $end
$var wire 1 ) Rinc $end
$var wire 1 * Rrst $end
$var wire 3 Q Radder [2:0] $end
$var parameter 32 R Address $end
$var reg 4 S Radder_binary_current [3:0] $end
$var reg 4 T Radder_binary_next [3:0] $end
$var reg 4 U Radder_gray_next [3:0] $end
$var reg 1 " Rempty $end
$var reg 4 V Rptr [3:0] $end
$upscope $end
$scope module FIFO_WPTRFULL $end
$var wire 1 + Wclk $end
$var wire 1 , Winc $end
$var wire 4 W Wq2_rptr [3:0] $end
$var wire 1 . Wrst $end
$var wire 3 X Wadder [2:0] $end
$var parameter 32 Y Address $end
$var reg 4 Z Wadder_binary_current [3:0] $end
$var reg 4 [ Wadder_binary_next [3:0] $end
$var reg 4 \ Wadder_gray_next [3:0] $end
$var reg 1 ! Wfull $end
$var reg 4 ] Wptr [3:0] $end
$upscope $end
$upscope $end
$upscope $end
$enddefinitions $end
$comment Show the parameter values. $end
$dumpall
b11 Y
b11 R
b1000 N
b1000 M
b11 L
b10 F
b100 E
b10 A
b100 @
b10 >
b1000 =
b1000 <
b11 ;
b10 '
b1000 &
b1000 %
b11 $
$end
#0
$dumpvars
b0 ]
b0 \
b0 [
b0 Z
b0 X
b0 W
b0 V
b0 U
b0 T
b0 S
b0 Q
b0 P
bx O
b0 K
b0 J
b0 I
b100 H
b0 G
b0 D
b100 C
b0 B
b0 ?
b0 :
b0 9
bx 8
b0 7
b0 6
05
b0 4
b0 3
b0 2
b0 1
b0 0
b0 /
0.
b0 -
0,
0+
0*
0)
0(
bx #
1"
0!
$end
#5000
b100 C
1+
#7000
b100 H
1(
#10000
0+
#14000
0(
#15000
b100 C
1+
#20000
0+
1*
1.
#21000
b100 H
1(
#25000
15
b1 \
b1 [
1,
b100100 -
b100100 2
b100100 I
b100 C
b1 /
b1 1
1+
#28000
0(
#30000
0+
#35000
b11 \
b10 [
b1 6
b1 J
b1 X
b1 4
b1 D
b1 ]
b1 Z
b10000001 -
b10000001 2
b10000001 I
b100 C
b10 /
b10 1
b100 H
1+
1(
#40000
0+
#42000
0(
#45000
b10 \
b11 [
b10 6
b10 J
b10 X
b11 4
b11 D
b11 ]
b10 Z
b1001 -
b1001 2
b1001 I
b100 C
b11 /
b11 1
1+
#49000
b100100 #
b100100 8
b100100 O
b100 H
1(
#50000
0+
#55000
b110 \
b100 [
b11 6
b11 J
b11 X
b10 4
b10 D
b10 ]
b11 Z
b1100011 -
b1100011 2
b1100011 I
b100 C
b100 /
b100 1
1+
#56000
0(
#60000
0+
#63000
b11 :
b11 G
b11 P
b100 H
1(
#65000
b111 \
b101 [
b100 6
b100 J
b100 X
b110 4
b110 D
b110 ]
b100 Z
b1101 -
b1101 2
b1101 I
b100 C
b101 /
b101 1
1+
#70000
0+
0(
#75000
b101 \
b110 [
b101 6
b101 J
b101 X
b111 4
b111 D
b111 ]
b101 Z
b10001101 -
b10001101 2
b10001101 I
b100 C
b110 /
b110 1
1+
#77000
b10 :
b10 G
b10 P
0"
b100 H
1(
#80000
0+
#84000
0(
#85000
b100 \
b111 [
b110 6
b110 J
b110 X
b101 4
b101 D
b101 ]
b110 Z
b1100101 -
b1100101 2
b1100101 I
b100 C
b111 /
b111 1
1+
#90000
0+
#91000
b111 :
b111 G
b111 P
b1 U
b1 T
1)
b100 H
1(
#95000
b1100 \
b1000 [
b111 6
b111 J
b111 X
b100 4
b100 D
b100 ]
b111 Z
b10010 -
b10010 2
b10010 I
b100 C
b1000 /
b1000 1
1+
#98000
0(
#100000
0+
#105000
05
b0 6
b0 J
b0 X
b1 9
b1 K
b1 Q
b101 :
b101 G
b101 P
1!
b1100 4
b1100 D
b1100 ]
b1000 Z
b1 -
b1 2
b1 I
b1 7
b1 ?
b1 V
b1 S
0)
b100 C
b1001 1
b100 H
b1000 /
b1 0
1+
1(
#110000
0+
#112000
0(
#115000
0,
b100 C
1+
#119000
b100 :
b100 G
b100 P
b11 U
b10 T
1)
b10000001 #
b10000001 8
b10000001 O
b100 H
1(
#120000
0+
#125000
b1 3
b1 B
b1 W
b100 C
1+
#126000
0(
#130000
0+
#133000
b10 9
b10 K
b10 Q
b1100 :
b1100 G
b1100 P
b11 7
b11 ?
b11 V
b10 S
0)
b100 H
b111 /
b10 0
1(
#135000
0!
b100 C
1+
#140000
0+
0(
#145000
b11 3
b11 B
b11 W
15
b1101 \
b1001 [
1,
b1101 -
b1101 2
b1101 I
b100 C
b1000 /
b1010 1
1+
#147000
b10 U
b11 T
1)
b1001 #
b1001 8
b1001 O
b100 H
1(
#150000
0+
#154000
0(
#155000
b1111 \
b1010 [
b1 6
b1 J
b1 X
b1101 4
b1101 D
b1101 ]
b1001 Z
b1110110 -
b1110110 2
b1110110 I
b100 C
b1001 /
b1011 1
1+
#160000
0+
#161000
b11 9
b11 K
b11 Q
b10 7
b10 ?
b10 V
b11 S
0)
b100 H
b1000 /
b11 0
1(
#165000
05
b10 6
b10 J
b10 X
1!
b1111 4
b1111 D
b1111 ]
b1010 Z
b111101 -
b111101 2
b111101 I
b100 C
b1001 /
b1100 1
1+
#168000
0(
#170000
0+
#175000
b10 3
b10 B
b10 W
b1101 :
b1101 G
b1101 P
b110 U
b100 T
0,
1)
b1100011 #
b1100011 8
b1100011 O
b100 C
b100 H
1+
1(
#180000
0+
#182000
0(
#185000
0!
b100 C
1+
#189000
b100 9
b100 K
b100 Q
b1111 :
b1111 G
b1111 P
b110 7
b110 ?
b110 V
b100 S
0)
b100 H
b1000 /
b100 0
1(
#190000
0+
#195000
15
b1110 \
b1011 [
1,
b11101101 -
b11101101 2
b11101101 I
b100 C
b1001 /
b1101 1
1+
#196000
0(
#200000
0+
#203000
b111 U
b101 T
1)
b1101 #
b1101 8
b1101 O
b100 H
1(
#205000
b110 3
b110 B
b110 W
05
b11 6
b11 J
b11 X
1!
b1110 4
b1110 D
b1110 ]
b1011 Z
b10001100 -
b10001100 2
b10001100 I
b100 C
b1010 /
b1110 1
1+
#210000
0+
0(
#215000
0!
0,
b100 C
1+
#217000
b101 9
b101 K
b101 Q
b111 7
b111 ?
b111 V
b101 S
0)
b100 H
b1001 /
b101 0
1(
#220000
0+
#224000
0(
#225000
15
b1010 \
b1100 [
1,
b11111001 -
b11111001 2
b11111001 I
b100 C
b1010 /
b1111 1
1+
#230000
0+
#231000
b1110 :
b1110 G
b1110 P
b101 U
b110 T
1)
b10001101 #
b10001101 8
b10001101 O
b100 H
1(
#235000
b100 6
b100 J
b100 X
05
b111 3
b111 B
b111 W
b1010 4
b1010 D
b1010 ]
b1100 Z
1!
b11000110 -
b11000110 2
b11000110 I
b100 C
b1011 /
b10000 1
1+
#238000
0(
#240000
0+
#245000
b110 9
b110 K
b110 Q
0!
0,
b101 7
b101 ?
b101 V
b110 S
0)
b100 C
b100 H
b1010 /
b110 0
1+
1(
#250000
0+
#252000
0(
#255000
15
b1011 \
b1101 [
1,
b11000101 -
b11000101 2
b11000101 I
b100 C
b1011 /
b10001 1
1+
#259000
b1010 :
b1010 G
b1010 P
b100 U
b111 T
1)
b1100101 #
b1100101 8
b1100101 O
b100 H
1(
#260000
0+
#265000
b101 3
b101 B
b101 W
05
b101 6
b101 J
b101 X
1!
b1011 4
b1011 D
b1011 ]
b1101 Z
b10101010 -
b10101010 2
b10101010 I
b100 C
b1100 /
b10010 1
1+
#266000
0(
#270000
0+
#273000
b111 9
b111 K
b111 Q
b100 7
b100 ?
b100 V
b111 S
0)
b100 H
b1011 /
b111 0
1(
#275000
0!
0,
b100 C
1+
#280000
0+
0(
#285000
b100 3
b100 B
b100 W
15
b1001 \
b1110 [
1,
b11100101 -
b11100101 2
b11100101 I
b100 C
b1100 /
b10011 1
1+
#287000
b1011 :
b1011 G
b1011 P
b1100 U
b1000 T
1)
b10010 #
b10010 8
b10010 O
b100 H
1(
#290000
0+
#294000
0(
#295000
b1000 \
b1111 [
b110 6
b110 J
b110 X
b1001 4
b1001 D
b1001 ]
b1110 Z
b1110111 -
b1110111 2
b1110111 I
b100 C
b1101 /
b10100 1
1+
#300000
0+
#301000
b0 9
b0 K
b0 Q
b1100 7
b1100 ?
b1100 V
b1000 S
0)
b100 H
b1100 /
b1000 0
1(
#305000
05
b111 6
b111 J
b111 X
1!
b1000 4
b1000 D
b1000 ]
b1111 Z
b10010 -
b10010 2
b10010 I
b100 C
b1101 /
b10101 1
1+
#308000
0(
#310000
0+
#315000
b1100 3
b1100 B
b1100 W
b1001 :
b1001 G
b1001 P
b1101 U
b1001 T
0,
1)
b1101 #
b1101 8
b1101 O
b100 C
b100 H
1+
1(
#320000
0+
#322000
0(
#325000
0!
b100 C
1+
#329000
b1 9
b1 K
b1 Q
b1000 :
b1000 G
b1000 P
b1101 7
b1101 ?
b1101 V
b1001 S
0)
b100 H
b1100 /
b1001 0
1(
#330000
0+
#335000
b100 C
1+
#336000
0(
#340000
0+
#343000
b1111 U
b1010 T
1)
b1110110 #
b1110110 8
b1110110 O
b100 H
1(
#345000
b1101 3
b1101 B
b1101 W
b100 C
1+
#350000
0+
0(
#355000
b100 C
1+
#357000
b10 9
b10 K
b10 Q
b1111 7
b1111 ?
b1111 V
b1010 S
0)
b100 H
b1011 /
b1010 0
1(
#360000
0+
#364000
0(
#365000
b100 C
1+
#370000
0+
#371000
b1110 U
b1011 T
1)
b11101101 #
b11101101 8
b11101101 O
b100 H
1(
#375000
b1111 3
b1111 B
b1111 W
b100 C
1+
#378000
0(
#380000
0+
#385000
b11 9
b11 K
b11 Q
b1110 7
b1110 ?
b1110 V
b1011 S
0)
b100 C
b100 H
b1010 /
b1011 0
1+
1(
#390000
0+
#392000
0(
#395000
b100 C
1+
#399000
b1010 U
b1100 T
1)
b11111001 #
b11111001 8
b11111001 O
b100 H
1(
#400000
0+
#405000
b1110 3
b1110 B
b1110 W
b100 C
1+
#406000
0(
#410000
0+
#413000
b100 9
b100 K
b100 Q
b1010 7
b1010 ?
b1010 V
b1100 S
0)
b100 H
b1001 /
b1100 0
1(
#415000
b100 C
1+
#420000
0+
0(
#425000
b1010 3
b1010 B
b1010 W
b100 C
1+
#427000
b1011 U
b1101 T
1)
b11000101 #
b11000101 8
b11000101 O
b100 H
1(
#430000
0+
#434000
0(
#435000
b100 C
1+
#440000
0+
#441000
b101 9
b101 K
b101 Q
b1011 7
b1011 ?
b1011 V
b1101 S
0)
b100 H
b1000 /
b1101 0
1(
#445000
b100 C
1+
#448000
0(
#450000
0+
#455000
b1011 3
b1011 B
b1011 W
b1001 U
b1110 T
1)
b11100101 #
b11100101 8
b11100101 O
b100 C
b100 H
1+
1(
#460000
0+
#462000
0(
#465000
b100 C
1+
#469000
b110 9
b110 K
b110 Q
b1001 7
b1001 ?
b1001 V
b1110 S
0)
b100 H
b111 /
b1110 0
1(
#470000
0+
#475000
b100 C
1+
#476000
0(
#480000
0+
#483000
b1000 U
b1111 T
1)
b1110111 #
b1110111 8
b1110111 O
b100 H
1(
#485000
b1001 3
b1001 B
b1001 W
b100 C
1+
#490000
0+
0(
#495000
b100 C
1+
#497000
b111 9
b111 K
b111 Q
b1000 7
b1000 ?
b1000 V
b1111 S
1"
0)
b100 H
b110 /
b1111 0
1(
#500000
0+
#504000
0(
#505000
b100 C
1+
#510000
0+
#511000
b10010 #
b10010 8
b10010 O
b100 H
1(
#515000
b1000 3
b1000 B
b1000 W
b100 C
1+
#518000
0(
#520000
0+
#525000
b100 C
b100 H
1+
1(
#530000
0+
#532000
0(
#535000
b100 C
1+
#539000
b100 H
1(
#540000
0+
#545000
b100 C
1+
#546000
0(
#550000
0+
#553000
b100 H
1(
#555000
b100 C
1+
#560000
0+
0(
#565000
b100 C
1+
#567000
b100 H
1(
#570000
0+
#574000
0(
#575000
b100 C
1+
#580000
0+
#581000
b100 H
1(
#585000
b100 C
1+
#588000
0(
#590000
0+
#595000
b100 C
b100 H
1+
1(
#600000
0+
#602000
0(
#605000
b100 C
1+
#609000
b100 H
1(
#610000
0+
#615000
b100 C
1+
#616000
0(
#620000
0+
#623000
b100 H
1(
#625000
b100 C
1+
#630000
0+
0(
#635000
b100 C
1+
#637000
b100 H
1(
#640000
0+
#644000
0(
#645000
b100 C
1+
#650000
0+
#651000
b100 H
1(
#655000
b100 C
1+
#658000
0(
#660000
0+
#665000
b100 C
b100 H
1+
1(
#670000
0+
#672000
0(
#675000
b100 C
1+
#679000
b100 H
1(
#680000
0+
#685000
b100 C
1+
#686000
0(
#690000
0+
#693000
b100 H
1(
#695000
b100 C
1+
#700000
0+
0(
#705000
b100 C
1+
#707000
b100 H
1(
#710000
0+
#714000
0(
#715000
b100 C
1+
#720000
0+
#721000
b100 H
1(
#725000
b100 C
1+
#728000
0(
#730000
0+
#735000
b100 C
b100 H
1+
1(
#740000
0+
#742000
0(
#745000
b100 C
1+
#749000
b100 H
1(
#750000
0+
#755000
b100 C
1+
#756000
0(
#760000
0+
#763000
b100 H
1(
#765000
b100 C
1+
#770000
0+
0(
#775000
b100 C
1+
#777000
b100 H
1(
#780000
0+
#784000
0(
#785000
b100 C
1+
#790000
0+
#791000
b100 H
1(
#795000
b100 C
1+
#798000
0(
#800000
0+
#805000
b100 C
b100 H
1+
1(
#810000
0+
#812000
0(
#815000
b100 C
1+
#819000
b100 H
1(
#820000
0+
#825000
b100 C
1+
#826000
0(
#830000
0+
#833000
b100 H
1(
#835000
b100 C
1+
#840000
0+
0(
#845000
b100 C
1+
#847000
b100 H
1(
#850000
0+
#854000
0(
#855000
b100 C
1+
#860000
0+
#861000
b100 H
1(
#865000
b100 C
1+
#868000
0(
#870000
0+
#875000
b100 C
b100 H
1+
1(
#880000
0+
#882000
0(
#885000
b100 C
1+
#889000
b100 H
1(
#890000
0+
#895000
b100 C
1+
#896000
0(
#900000
0+
#903000
b100 H
1(
#905000
b100 C
1+
#910000
0+
0(
#915000
b100 C
1+
#917000
b100 H
1(
#920000
0+
#924000
0(
#925000
b100 C
1+
#930000
0+
#931000
b100 H
1(
#935000
b100 C
1+
#938000
0(
#940000
0+
#945000
b100 C
b100 H
1+
1(
#950000
0+
#952000
0(
#955000
b100 C
1+
#959000
b100 H
1(
#960000
0+
#965000
b100 C
1+
#966000
0(
#970000
0+
#973000
b100 H
1(
#975000
b100 C
1+
#980000
0+
0(
#985000
b100 C
1+
#987000
b100 H
1(
#990000
0+
#994000
0(
#995000
b100 C
1+
#1000000
0+
#1001000
b100 H
1(
#1005000
b100 C
1+
#1008000
0(
#1010000
0+
#1015000
b100 C
b100 H
1+
1(
#1020000
0+
#1022000
0(
#1025000
b100 C
1+
#1029000
b100 H
1(
#1030000
0+
#1035000
b100 C
1+
#1036000
0(
#1040000
0+
#1043000
b100 H
1(
#1045000
b100 C
1+
#1050000
0+
0(
#1055000
b100 C
1+
#1057000
b100 H
1(
#1060000
0+
#1064000
0(
#1065000
b100 C
1+
#1070000
0+
#1071000
b100 H
1(
#1075000
b100 C
1+
#1078000
0(
#1080000
0+
#1085000
b100 C
b100 H
1+
1(
#1090000
0+
#1092000
0(
#1095000
b100 C
1+
#1099000
b100 H
1(
#1100000
0+
#1105000
b100 C
1+
#1106000
0(
#1110000
0+
#1113000
b100 H
1(
#1115000
b100 C
1+
#1120000
0+
0(
#1125000
b100 C
1+
#1127000
b100 H
1(
#1130000
0+
#1134000
0(
#1135000
b100 C
1+
#1140000
0+
#1141000
b100 H
1(
#1145000
b100 C
1+
#1148000
0(
#1150000
0+
#1155000
b100 C
b100 H
1+
1(
#1160000
0+
#1162000
0(
#1165000
b100 C
1+
#1169000
b100 H
1(
#1170000
0+
#1175000
b100 C
1+
#1176000
0(
#1180000
0+
#1183000
b100 H
1(
#1185000
b100 C
1+
#1190000
0+
0(
#1195000
b100 C
1+
#1197000
b100 H
1(
#1200000
0+
#1204000
0(
#1205000
b100 C
1+
#1210000
0+
#1211000
b100 H
1(
#1215000
b100 C
1+
#1218000
0(
#1220000
0+
#1225000
b100 C
b100 H
1+
1(
#1230000
0+
#1232000
0(
#1235000
b100 C
1+
#1239000
b100 H
1(
#1240000
0+
#1245000
b100 C
1+
#1246000
0(
#1250000
0+
#1253000
b100 H
1(
#1255000
b100 C
1+
#1260000
0+
0(
#1265000
b100 C
1+
#1267000
b100 H
1(
#1270000
0+
#1274000
0(
#1275000
b100 C
1+
#1280000
0+
#1281000
b100 H
1(
#1285000
b100 C
1+
#1288000
0(
#1290000
0+
#1295000
b100 C
b100 H
1+
1(
#1300000
0+
#1302000
0(
#1305000
b100 C
1+
#1309000
b100 H
1(
#1310000
0+
#1315000
b100 C
1+
#1316000
0(
#1320000
0+
#1323000
b100 H
1(
#1325000
b100 C
1+
#1330000
0+
0(
#1335000
b100 C
1+
#1337000
b100 H
1(
#1340000
0+
#1344000
0(
#1345000
b100 C
1+
#1350000
0+
#1351000
b100 H
1(
#1355000
b100 C
1+
#1358000
0(
#1360000
0+
#1365000
b100 C
b100 H
1+
1(
#1370000
0+
#1372000
0(
#1375000
b100 C
1+
#1379000
b100 H
1(
#1380000
0+
#1385000
b100 C
1+
#1386000
0(
#1390000
0+
#1393000
b100 H
1(
#1395000
b100 C
1+
#1400000
0+
0(
#1405000
b100 C
1+
#1407000
b100 H
1(
#1410000
0+
#1414000
0(
#1415000
b100 C
1+
#1420000
0+
#1421000
b100 H
1(
#1425000
b100 C
1+
#1428000
0(
#1430000
0+
#1435000
b100 C
b100 H
1+
1(
#1440000
0+
#1442000
0(
#1445000
b100 C
1+
#1449000
b100 H
1(
#1450000
0+
#1455000
b100 C
1+
#1456000
0(
#1460000
0+
#1463000
b100 H
1(
#1465000
b100 C
1+
#1470000
0+
0(
#1475000
b100 C
1+
#1477000
b100 H
1(
#1480000
0+
#1484000
0(
#1485000
b100 C
1+
#1490000
0+
#1491000
b100 H
1(
#1495000
b100 C
1+
#1498000
0(
#1500000
0+
#1505000
b100 C
b100 H
1+
1(
#1510000
0+
#1512000
0(
#1515000
b100 C
1+
#1519000
b100 H
1(
#1520000
0+
#1525000
b100 C
1+
#1526000
0(
#1530000
0+
#1533000
b100 H
1(
#1535000
b100 C
1+
#1540000
0+
0(
#1545000
b100 C
1+
#1547000
b100 H
1(
#1550000
0+
#1554000
0(
#1555000
b100 C
1+
#1560000
0+
#1561000
b100 H
1(
#1565000
b100 C
1+
#1568000
0(
#1570000
0+
#1575000
b100 C
b100 H
1+
1(
#1580000
0+
#1582000
0(
#1585000
b100 C
1+
#1589000
b100 H
1(
#1590000
0+
#1595000
b100 C
1+
#1596000
0(
#1600000
0+
#1603000
b100 H
1(
#1605000
b100 C
1+
#1610000
0+
0(
#1615000
b100 C
1+
#1617000
b100 H
1(
#1620000
0+
#1624000
0(
#1625000
b100 C
1+
#1630000
0+
#1631000
b100 H
1(
#1635000
b100 C
1+
#1638000
0(
#1640000
0+
#1645000
b100 C
b100 H
1+
1(
#1650000
0+
#1652000
0(
#1655000
b100 C
1+
#1659000
b100 H
1(
#1660000
0+
#1665000
b100 C
1+
#1666000
0(
#1670000
0+
#1673000
b100 H
1(
#1675000
b100 C
1+
#1680000
0+
0(
#1685000
b100 C
1+
#1687000
b100 H
1(
#1690000
0+
#1694000
0(
#1695000
b100 C
1+
#1700000
0+
#1701000
b100 H
1(
#1705000
b100 C
1+
#1708000
0(
#1710000
0+
#1715000
b100 C
b100 H
1+
1(
#1720000
0+
#1722000
0(
#1725000
b100 C
1+
#1729000
b100 H
1(
#1730000
0+
#1735000
b100 C
1+
#1736000
0(
#1740000
0+
#1743000
b100 H
1(
#1745000
b100 C
1+
#1750000
0+
0(
#1755000
b100 C
1+
#1757000
b100 H
1(
#1760000
0+
#1764000
0(
#1765000
b100 C
1+
#1770000
0+
#1771000
b100 H
1(
#1775000
b100 C
1+
#1778000
0(
#1780000
0+
#1785000
b100 C
b100 H
1+
1(
#1790000
0+
#1792000
0(
#1795000
b100 C
1+
#1799000
b100 H
1(
#1800000
0+
#1805000
b100 C
1+
#1806000
0(
#1810000
0+
#1813000
b100 H
1(
#1815000
b100 C
1+
#1820000
0+
0(
#1825000
b100 C
1+
#1827000
b100 H
1(
#1830000
0+
#1834000
0(
#1835000
b100 C
1+
#1840000
0+
#1841000
b100 H
1(
#1845000
b100 C
1+
#1848000
0(
#1850000
0+
#1855000
b100 C
b100 H
1+
1(
#1860000
0+
#1862000
0(
#1865000
b100 C
1+
#1869000
b100 H
1(
#1870000
0+
#1875000
b100 C
1+
#1876000
0(
#1880000
0+
#1883000
b100 H
1(
#1885000
b100 C
1+
#1890000
0+
0(
#1895000
b100 C
1+
#1897000
b100 H
1(
#1900000
0+
#1904000
0(
#1905000
b100 C
1+
#1910000
0+
#1911000
b100 H
1(
#1915000
b100 C
1+
#1918000
0(
#1920000
0+
#1925000
b100 C
b100 H
1+
1(
#1930000
0+
#1932000
0(
#1935000
b100 C
1+
#1939000
b100 H
1(
#1940000
0+
#1945000
b100 C
1+
#1946000
0(
#1950000
0+
#1953000
b100 H
1(
#1955000
b100 C
1+
#1960000
0+
0(
#1965000
b100 C
1+
#1967000
b100 H
1(
#1970000
0+
#1974000
0(
#1975000
b100 C
1+
#1980000
0+
#1981000
b100 H
1(
#1985000
b100 C
1+
#1988000
0(
#1990000
0+
#1995000
b100 C
b100 H
1+
1(
