Temsah/Assigments/ASYNC_FIFO/dump.vcd
$date
	Thu Sep 04 04:59:25 2025
$end
$version
	Icarus Verilog
$end
$timescale
	1ps
$end
$scope module ASYNC_FIFO_tb $end
$var wire 1 ! Wfull $end
$var wire 1 " Rempty $end
$var wire 8 # Rdata [7:0] $end
$var parameter 32 $ Address $end
$var parameter 32 % Data_width $end
$var parameter 32 & Depth $end
$var parameter 32 ' NUM_STAGES $end
$var reg 1 ( Rclk $end
$var reg 1 ) Rinc $end
$var reg 1 * Rrst $end
$var reg 1 + Wclk $end
$var reg 1 , Winc $end
$var reg 8 - Wrdata [7:0] $end
$var reg 1 . Wrst $end
$var integer 32 / i [31:0] $end
$var integer 32 0 read_idx [31:0] $end
$var integer 32 1 write_idx [31:0] $end
$scope module DUT $end
$var wire 1 ( Rclk $end
$var wire 1 ) Rinc $end
$var wire 1 * Rrst $end
$var wire 1 + Wclk $end
$var wire 1 , Winc $end
$var wire 8 2 Wrdata [7:0] $end
$var wire 1 . Wrst $end
$var wire 4 3 Wq2_rptr_internal [3:0] $end
$var wire 4 4 Wptr_internal [3:0] $end
$var wire 1 ! Wfull $end
$var wire 1 5 Wclken_internal $end
$var wire 3 6 Wadder_internal [2:0] $end
$var wire 4 7 Rptr_internal [3:0] $end
$var wire 1 " Rempty $end
$var wire 8 8 Rdata [7:0] $end
$var wire 3 9 Radder_internal [2:0] $end
$var wire 4 : R2q_wptr_internal [3:0] $end
$var parameter 32 ; Address $end
$var parameter 32 < Data_width $end
$var parameter 32 = Depth $end
$var parameter 32 > NUM_STAGES $end
$scope module BIT_W2q_rptr $end
$var wire 1 + CLK $end
$var wire 1 . RST $end
$var wire 4 ? ASYNC [3:0] $end
$var parameter 33 @ BUS_WIDTH $end
$var parameter 32 A NUM_STAGES $end
$var reg 4 B SYNC [3:0] $end
$var integer 32 C i [31:0] $end
$upscope $end
$scope module BIT_r2q_wptr $end
$var wire 1 ( CLK $end
$var wire 1 * RST $end
$var wire 4 D ASYNC [3:0] $end
$var parameter 33 E BUS_WIDTH $end
$var parameter 32 F NUM_STAGES $end
$var reg 4 G SYNC [3:0] $end
$var integer 32 H i [31:0] $end
$upscope $end
$scope module Clogic $end
$var wire 1 , Winc $end
$var wire 1 ! Wfull $end
$var reg 1 5 Wclken $end
$upscope $end
$scope module FIFO_MEM $end
$var wire 1 ( Rclk $end
$var wire 1 + Wclk $end
$var wire 1 5 Wclken $end
$var wire 8 I Wrdata [7:0] $end
$var wire 3 J Wadder [2:0] $end
$var wire 3 K Radder [2:0] $end
$var parameter 32 L Address $end
$var parameter 32 M Data_width $end
$var parameter 32 N Depth $end
$var reg 8 O Rdata [7:0] $end
$upscope $end
$scope module FIFO_RPTRREMPTY $end
$var wire 4 P R2q_wptr [3:0] $end
$var wire 1 ( Rclk $end
$var wire 1 ) Rinc $end
$var wire 1 * Rrst $end
$var wire 3 Q Radder [2:0] $end
$var parameter 32 R Address $end
$var reg 4 S Radder_binary_current [3:0] $end
$var reg 4 T Radder_binary_next [3:0] $end
$var reg 4 U Radder_gray_next [3:0] $end
$var reg 1 " Rempty $end
$var reg 4 V Rptr [3:0] $end
$upscope $end
$scope module FIFO_WPTRFULL $end
$var wire 1 + Wclk $end
$var wire 1 , Winc $end
$var wire 4 W Wq2_rptr [3:0] $end
$var wire 1 . Wrst $end
$var wire 3 X Wadder [2:0] $end
$var parameter 32 Y Address $end
$var reg 4 Z Wadder_binary_current [3:0] $end
$var reg 4 [ Wadder_binary_next [3:0] $end
$var reg 4 \ Wadder_gray_next [3:0] $end
$var reg 1 ! Wfull $end
$var reg 4 ] Wptr [3:0] $end
$upscope $end
$upscope $end
$scope task read_data $end
$upscope $end
$scope task reset_fifo $end
$upscope $end
$scope task write_data $end
$var reg 8 ^ data [7:0] $end
$upscope $end
$upscope $end
$enddefinitions $end
$comment Show the parameter values. $end
$dumpall
b11 Y
b11 R
b1000 N
b1000 M
b11 L
b10 F
b100 E
b10 A
b100 @
b10 >
b1000 =
b1000 <
b11 ;
b10 '
b1000 &
b1000 %
b11 $
$end
#0
$dumpvars
bx ^
b0 ]
b0 \
b0 [
b0 Z
b0 X
b0 W
b0 V
b0 U
b0 T
b0 S
b0 Q
b0 P
bx O
b0 K
b0 J
b0 I
b100 H
b0 G
b0 D
b100 C
b0 B
b0 ?
b0 :
b0 9
bx 8
b0 7
b0 6
05
b0 4
b0 3
b0 2
bx 1
bx 0
bx /
0.
b0 -
0,
0+
0*
0)
0(
bx #
1"
0!
$end
#4000
b100 H
1(
#5000
b100 C
1+
#8000
0(
#10000
0+
#12000
b100 H
1(
#15000
b100 C
1+
#16000
0(
#20000
b100 H
1(
0+
#24000
0(
#25000
b100 C
1+
#28000
b100 H
1(
#30000
0+
#32000
0(
#35000
b100 C
1+
#36000
b100 H
1(
#40000
0(
0+
#44000
b100 H
1(
#45000
b100 C
1+
#48000
0(
#50000
0+
#52000
b100 H
1(
#55000
b100 C
1+
#56000
0(
#60000
b100 H
1(
0+
#64000
0(
#65000
b100 C
1+
#68000
b100 H
1*
1.
1(
#70000
0+
#72000
0(
#75000
b100 C
1+
#76000
b100 H
1(
#80000
0(
0+
#84000
b100 H
1(
#85000
b100 C
1+
#88000
0(
#90000
0+
#92000
b100 H
1(
#95000
b100 C
1+
#96000
0(
#100000
b100 H
1(
0+
#104000
0(
#105000
b100 C
1+
#108000
b100 H
b10001 ^
b1 /
b0 0
b0 1
1(
#110000
0+
#112000
0(
#115000
15
b1 \
b1 [
b100 C
b1 1
1,
b10001 -
b10001 2
b10001 I
1+
#116000
b100 H
1(
#120000
0(
0+
#124000
b100 H
1(
#125000
b1 6
b1 J
b1 X
b1 4
b1 D
b1 ]
b1 Z
05
b1 \
b1 [
b100 C
b10010 ^
b10 /
0,
1+
#128000
0(
#130000
0+
#132000
b10001 #
b10001 8
b10001 O
b100 H
1(
#135000
15
b11 \
b10 [
b100 C
b10 1
1,
b10010 -
b10010 2
b10010 I
1+
#136000
0(
#140000
b1 :
b1 G
b1 P
b100 H
1(
0+
#144000
0(
#145000
b10 6
b10 J
b10 X
b11 4
b11 D
b11 ]
b10 Z
05
b11 \
b10 [
b100 C
b10011 ^
b11 /
0,
1+
#148000
0"
b100 H
1(
#150000
0+
#152000
0(
#155000
15
b10 \
b11 [
b100 C
b11 1
1,
b10011 -
b10011 2
b10011 I
1+
#156000
b11 :
b11 G
b11 P
b100 H
1(
#160000
0(
0+
#164000
b100 H
1(
#165000
b11 6
b11 J
b11 X
b10 4
b10 D
b10 ]
b11 Z
05
b10 \
b11 [
b100 C
b10100 ^
b100 /
0,
1+
#168000
0(
#170000
0+
#172000
b100 H
1(
#175000
15
b110 \
b100 [
b100 C
b100 1
1,
b10100 -
b10100 2
b10100 I
1+
#176000
0(
#180000
b10 :
b10 G
b10 P
b100 H
1(
0+
#184000
0(
#185000
b100 6
b100 J
b100 X
b110 4
b110 D
b110 ]
b100 Z
05
b110 \
b100 [
b100 C
b10101 ^
b101 /
0,
1+
#188000
b100 H
1(
#190000
0+
#192000
0(
#195000
15
b111 \
b101 [
b100 C
b101 1
1,
b10101 -
b10101 2
b10101 I
1+
#196000
b110 :
b110 G
b110 P
b100 H
1(
#200000
0(
0+
#204000
b100 H
1(
#205000
b101 6
b101 J
b101 X
b111 4
b111 D
b111 ]
b101 Z
05
b111 \
b101 [
b100 C
b10110 ^
b110 /
0,
1+
#208000
0(
#210000
0+
#212000
b100 H
1(
#215000
15
b101 \
b110 [
b100 C
b110 1
1,
b10110 -
b10110 2
b10110 I
1+
#216000
0(
#220000
b111 :
b111 G
b111 P
b100 H
1(
0+
#224000
0(
#225000
b110 6
b110 J
b110 X
b101 4
b101 D
b101 ]
b110 Z
05
b101 \
b110 [
b100 C
b10111 ^
b111 /
0,
1+
#228000
b100 H
1(
#230000
0+
#232000
0(
#235000
15
b100 \
b111 [
b100 C
b111 1
1,
b10111 -
b10111 2
b10111 I
1+
#236000
b101 :
b101 G
b101 P
b100 H
1(
#240000
0(
0+
#244000
b100 H
1(
#245000
b111 6
b111 J
b111 X
b100 4
b100 D
b100 ]
b111 Z
05
b100 \
b111 [
b100 C
b11000 ^
b1000 /
0,
1+
#248000
0(
#250000
0+
#252000
b100 H
1(
#255000
15
b1100 \
b1000 [
b100 C
b1000 1
1,
b11000 -
b11000 2
b11000 I
1+
#256000
0(
#260000
b100 :
b100 G
b100 P
b100 H
1(
0+
#264000
0(
#265000
b0 6
b0 J
b0 X
1!
b1100 4
b1100 D
b1100 ]
b1000 Z
05
b1100 \
b1000 [
b100 C
b11001 ^
b1001 /
0,
1+
#268000
b100 H
1(
#270000
0+
#272000
0(
#275000
b100 C
b11010 ^
b1010 /
1+
#276000
b1100 :
b1100 G
b1100 P
b100 H
1(
#280000
0(
0+
#284000
b100 H
1(
#285000
b100 C
b11111111 ^
b1011 /
1+
#288000
0(
#290000
0+
#292000
b100 H
1(
#295000
b100 C
1+
#296000
0(
#300000
b1 U
b1 T
b100 H
1)
1(
0+
#304000
0(
#305000
b100 C
1+
#308000
b1 9
b1 K
b1 Q
b1 7
b1 ?
b1 V
b1 S
b1 U
b1 T
b100 H
0)
1(
#310000
0+
#312000
0(
#315000
b100 C
1+
#316000
b10010 #
b10010 8
b10010 O
b100 H
b1 0
1(
#320000
0(
0+
#324000
b11 U
b10 T
b100 H
1)
1(
#325000
b1 3
b1 B
b1 W
b100 C
1+
#328000
0(
#330000
0+
#332000
b10 9
b10 K
b10 Q
b11 7
b11 ?
b11 V
b10 S
b11 U
b10 T
b100 H
0)
1(
#335000
0!
b100 C
1+
#336000
0(
#340000
b10011 #
b10011 8
b10011 O
b100 H
b10 0
1(
0+
#344000
0(
#345000
b11 3
b11 B
b11 W
b100 C
1+
#348000
b10 U
b11 T
b100 H
1)
1(
#350000
0+
#352000
0(
#355000
b100 C
1+
#356000
b11 9
b11 K
b11 Q
b10 7
b10 ?
b10 V
b11 S
b10 U
b11 T
b100 H
0)
1(
#360000
0(
0+
#364000
b10100 #
b10100 8
b10100 O
b100 H
b11 0
1(
#365000
b100 C
1+
#368000
0(
#370000
0+
#372000
b110 U
b100 T
b100 H
1)
1(
#375000
b10 3
b10 B
b10 W
b100 C
1+
#376000
0(
#380000
b100 9
b100 K
b100 Q
b110 7
b110 ?
b110 V
b100 S
b110 U
b100 T
b100 H
0)
1(
0+
#384000
0(
#385000
b100 C
1+
#388000
b10101 #
b10101 8
b10101 O
b100 H
b100 0
1(
#390000
0+
#392000
0(
#395000
b110 3
b110 B
b110 W
b100 C
1+
#396000
b111 U
b101 T
b100 H
1)
1(
#400000
0(
0+
#404000
b101 9
b101 K
b101 Q
b111 7
b111 ?
b111 V
b101 S
b111 U
b101 T
b100 H
0)
1(
#405000
b100 C
1+
#408000
0(
#410000
0+
#412000
b10110 #
b10110 8
b10110 O
b100 H
b101 0
1(
#415000
b111 3
b111 B
b111 W
b100 C
1+
#416000
0(
#420000
b101 U
b110 T
b100 H
1)
1(
0+
#424000
0(
#425000
b100 C
1+
#428000
b110 9
b110 K
b110 Q
b101 7
b101 ?
b101 V
b110 S
b101 U
b110 T
b100 H
0)
1(
#430000
0+
#432000
0(
#435000
b100 C
1+
#436000
b10111 #
b10111 8
b10111 O
b100 H
b110 0
1(
#440000
0(
0+
#444000
b100 U
b111 T
b100 H
1)
1(
#445000
b101 3
b101 B
b101 W
b100 C
1+
#448000
0(
#450000
0+
#452000
b111 9
b111 K
b111 Q
b100 7
b100 ?
b100 V
b111 S
b100 U
b111 T
b100 H
0)
1(
#455000
b100 C
1+
#456000
0(
#460000
b11000 #
b11000 8
b11000 O
b100 H
b111 0
1(
0+
#464000
0(
#465000
b100 3
b100 B
b100 W
b100 C
1+
#468000
b1100 U
b1000 T
b100 H
1)
1(
#470000
0+
#472000
0(
#475000
b100 C
1+
#476000
b0 9
b0 K
b0 Q
b1100 7
b1100 ?
b1100 V
b1000 S
1"
b1100 U
b1000 T
b100 H
0)
1(
#480000
0(
0+
#484000
b10001 #
b10001 8
b10001 O
b100 H
b1000 0
1(
#485000
b100 C
1+
#488000
0(
#490000
0+
#492000
b100 H
1(
#495000
b1100 3
b1100 B
b1100 W
b100 C
1+
#496000
0(
#500000
b100 H
1(
0+
#504000
0(
#505000
b100 C
1+
#508000
b100 H
1(
#510000
0+
#512000
0(
#515000
b100 C
1+
#516000
b100 H
1(
#520000
0(
0+
#524000
b100 H
1(
#525000
b100 C
1+
#528000
0(
#530000
0+
#532000
b100 H
b100001 ^
b1 /
1(
#535000
15
b1101 \
b1001 [
b100 C
b1001 1
1,
b100001 -
b100001 2
b100001 I
1+
#536000
0(
#540000
b100 H
1(
0+
#544000
0(
#545000
b1 6
b1 J
b1 X
b1101 4
b1101 D
b1101 ]
b1001 Z
05
b1101 \
b1001 [
b100 C
b100010 ^
b10 /
0,
1+
#548000
b100001 #
b100001 8
b100001 O
b100 H
1(
#550000
0+
#552000
0(
#555000
15
b1111 \
b1010 [
b100 C
b1010 1
1,
b100010 -
b100010 2
b100010 I
1+
#556000
b1101 :
b1101 G
b1101 P
b100 H
1(
#560000
0(
0+
#564000
0"
b100 H
1(
#565000
b10 6
b10 J
b10 X
b1111 4
b1111 D
b1111 ]
b1010 Z
05
b1111 \
b1010 [
b100 C
b100011 ^
b11 /
0,
1+
#568000
0(
#570000
0+
#572000
b100 H
1(
#575000
15
b1110 \
b1011 [
b100 C
b1011 1
1,
b100011 -
b100011 2
b100011 I
1+
#576000
0(
#580000
b1111 :
b1111 G
b1111 P
b100 H
1(
0+
#584000
0(
#585000
b11 6
b11 J
b11 X
b1110 4
b1110 D
b1110 ]
b1011 Z
05
b1110 \
b1011 [
b100 C
b100100 ^
b100 /
0,
1+
#588000
b100 H
1(
#590000
0+
#592000
0(
#595000
15
b1010 \
b1100 [
b100 C
b1100 1
1,
b100100 -
b100100 2
b100100 I
1+
#596000
b1110 :
b1110 G
b1110 P
b100 H
1(
#600000
0(
0+
#604000
b100 H
1(
#605000
b100 6
b100 J
b100 X
b1010 4
b1010 D
b1010 ]
b1100 Z
05
b1010 \
b1100 [
b100 C
b100101 ^
b101 /
0,
1+
#608000
0(
#610000
0+
#612000
b100 H
1(
#615000
15
b1011 \
b1101 [
b100 C
b1101 1
1,
b100101 -
b100101 2
b100101 I
1+
#616000
0(
#620000
b1010 :
b1010 G
b1010 P
b100 H
1(
0+
#624000
0(
#625000
b101 6
b101 J
b101 X
b1011 4
b1011 D
b1011 ]
b1101 Z
05
b1011 \
b1101 [
b100 C
b100110 ^
b110 /
0,
1+
#628000
b1101 U
b1001 T
b100 H
1)
1(
#630000
0+
#632000
0(
#635000
15
b1001 \
b1110 [
b100 C
b1110 1
1,
b100110 -
b100110 2
b100110 I
1+
#636000
b1 9
b1 K
b1 Q
b1011 :
b1011 G
b1011 P
b1101 7
b1101 ?
b1101 V
b1001 S
b1101 U
b1001 T
b100 H
0)
1(
#640000
0(
0+
#644000
b100010 #
b100010 8
b100010 O
b100 H
b1001 0
1(
#645000
b110 6
b110 J
b110 X
b1001 4
b1001 D
b1001 ]
b1110 Z
05
b1001 \
b1110 [
b100 C
b100111 ^
b111 /
0,
1+
#648000
0(
#650000
0+
#652000
b1111 U
b1010 T
b100 H
1)
1(
#655000
b1101 3
b1101 B
b1101 W
15
b1000 \
b1111 [
b100 C
b1111 1
1,
b100111 -
b100111 2
b100111 I
1+
#656000
0(
#660000
b1001 :
b1001 G
b1001 P
b10 9
b10 K
b10 Q
b1111 7
b1111 ?
b1111 V
b1010 S
b1111 U
b1010 T
b100 H
0)
1(
0+
#664000
0(
#665000
b111 6
b111 J
b111 X
b1000 4
b1000 D
b1000 ]
b1111 Z
05
b1000 \
b1111 [
b100 C
b101000 ^
b1000 /
0,
1+
#668000
b100011 #
b100011 8
b100011 O
b100 H
b1010 0
1(
#670000
0+
#672000
0(
#675000
b1111 3
b1111 B
b1111 W
15
b0 \
b0 [
b100 C
b10000 1
1,
b101000 -
b101000 2
b101000 I
1+
#676000
b1000 :
b1000 G
b1000 P
b1110 U
b1011 T
b100 H
1)
1(
#680000
0(
0+
#684000
b11 9
b11 K
b11 Q
b1110 7
b1110 ?
b1110 V
b1011 S
b1110 U
b1011 T
b100 H
0)
1(
#685000
b0 6
b0 J
b0 X
b0 4
b0 D
b0 ]
b0 Z
05
b0 \
b0 [
b100 C
b1001 /
0,
1+
#688000
0(
#690000
0+
#692000
b100100 #
b100100 8
b100100 O
b100 H
b1011 0
1(
#695000
b1110 3
b1110 B
b1110 W
b100 C
1+
#696000
0(
#700000
b0 :
b0 G
b0 P
b1010 U
b1100 T
b100 H
1)
1(
0+
#704000
0(
#705000
b100 C
1+
#708000
b100 9
b100 K
b100 Q
b1010 7
b1010 ?
b1010 V
b1100 S
b1010 U
b1100 T
b100 H
0)
1(
#710000
0+
#712000
0(
#715000
b100 C
1+
#716000
b100101 #
b100101 8
b100101 O
b100 H
b1100 0
1(
#720000
0(
0+
#724000
b1011 U
b1101 T
b100 H
1)
1(
#725000
b1010 3
b1010 B
b1010 W
b100 C
1+
#728000
0(
#730000
0+
#732000
b101 9
b101 K
b101 Q
b1011 7
b1011 ?
b1011 V
b1101 S
b1011 U
b1101 T
b100 H
0)
1(
#735000
b100 C
1+
#736000
0(
#740000
b100110 #
b100110 8
b100110 O
b100 H
b1101 0
1(
0+
#744000
0(
#745000
b1011 3
b1011 B
b1011 W
b100 C
1+
#748000
b1001 U
b1110 T
b100 H
1)
1(
#750000
0+
#752000
0(
#755000
b100 C
1+
#756000
b110 9
b110 K
b110 Q
b1001 7
b1001 ?
b1001 V
b1110 S
b1001 U
b1110 T
b100 H
0)
1(
#760000
0(
0+
#764000
b100111 #
b100111 8
b100111 O
b100 H
b1110 0
1(
#765000
b100 C
1+
#768000
0(
#770000
0+
#772000
b100 H
1(
#775000
b1001 3
b1001 B
b1001 W
b100 C
1+
#776000
0(
#780000
b100 H
1(
0+
#784000
0(
#785000
b100 C
1+
#788000
b100 H
1(
#790000
0+
#792000
0(
#795000
b100 C
1+
#796000
b100 H
1(
#800000
0(
0+
#804000
b100 H
1(
#805000
b100 C
1+
#808000
0(
#810000
0+
#812000
b100 H
1(
#815000
b100 C
1+
#816000
0(
#820000
b100 H
1(
0+
#824000
0(
#825000
b100 C
1+
#828000
b100 H
1(
#830000
0+
#832000
0(
#835000
b100 C
1+
#836000
b100 H
1(
#840000
0(
0+
#844000
b100 H
1(
#845000
b100 C
1+
#848000
0(
#850000
0+
#852000
b100 H
1(
#855000
b100 C
1+
#856000
0(
#860000
b100 H
1(
0+
#864000
0(
#865000
b100 C
1+
#868000
b100 H
1(
#870000
0+
#872000
0(
#875000
b100 C
1+
#876000
b100 H
1(
#880000
0(
0+
#884000
b100 H
1(
#885000
b100 C
1+
#888000
0(
#890000
0+
#892000
b100 H
1(
#895000
b100 C
1+
#896000
0(
#900000
b100 H
1(
0+
#904000
0(
#905000
b100 C
1+
#908000
b100 H
1(
#910000
0+
#912000
0(
#915000
b100 C
1+
#916000
b100 H
1(
#920000
0(
0+
#924000
b100 H
1(
#925000
b100 C
1+
#928000
0(
#930000
0+
#932000
b100 H
1(
#935000
b100 C
1+
#936000
0(
#940000
b100 H
1(
0+
#944000
0(
#945000
b100 C
1+
#948000
b100 H
1(
#950000
0+
#952000
0(
#955000
b100 C
1+
#956000
b100 H
1(
#960000
0(
0+
#964000
b100 H
1(
