Temsah/Assigments/ASYNC_FIFO/dump.vcd
$date
	Thu Sep 04 03:18:04 2025
$end
$version
	Icarus Verilog
$end
$timescale
	1ps
$end
$scope module ASYNC_FIFO_tb $end
$var wire 1 ! Wfull $end
$var wire 1 " Rempty $end
$var wire 8 # Rdata [7:0] $end
$var parameter 32 $ Address $end
$var parameter 32 % Data_width $end
$var parameter 32 & Depth $end
$var parameter 32 ' NUM_STAGES $end
$var reg 1 ( Rclk $end
$var reg 1 ) Rinc $end
$var reg 1 * Rrst $end
$var reg 1 + Wclk $end
$var reg 1 , Winc $end
$var reg 8 - Wrdata [7:0] $end
$var reg 1 . Wrst $end
$var integer 32 / i [31:0] $end
$var integer 32 0 read_idx [31:0] $end
$var integer 32 1 write_idx [31:0] $end
$scope module DUT $end
$var wire 1 ( Rclk $end
$var wire 1 ) Rinc $end
$var wire 1 * Rrst $end
$var wire 1 + Wclk $end
$var wire 1 ! Wfull $end
$var wire 1 , Winc $end
$var wire 8 2 Wrdata [7:0] $end
$var wire 1 . Wrst $end
$var wire 4 3 Wq2_rptr_internal [3:0] $end
$var wire 4 4 Wptr_internal [3:0] $end
$var wire 1 5 Wfull_internal $end
$var wire 1 6 Wclken_internal $end
$var wire 3 7 Wadder_internal [2:0] $end
$var wire 4 8 Rptr_internal [3:0] $end
$var wire 1 " Rempty $end
$var wire 8 9 Rdata [7:0] $end
$var wire 3 : Radder_internal [2:0] $end
$var wire 4 ; R2q_wptr_internal [3:0] $end
$var parameter 32 < Address $end
$var parameter 32 = Data_width $end
$var parameter 32 > Depth $end
$var parameter 32 ? NUM_STAGES $end
$scope module BIT_W2q_rptr $end
$var wire 1 + CLK $end
$var wire 1 . RST $end
$var wire 4 @ ASYNC [3:0] $end
$var parameter 33 A BUS_WIDTH $end
$var parameter 32 B NUM_STAGES $end
$var reg 4 C SYNC [3:0] $end
$var integer 32 D i [31:0] $end
$upscope $end
$scope module BIT_r2q_wptr $end
$var wire 1 ( CLK $end
$var wire 1 * RST $end
$var wire 4 E ASYNC [3:0] $end
$var parameter 33 F BUS_WIDTH $end
$var parameter 32 G NUM_STAGES $end
$var reg 4 H SYNC [3:0] $end
$var integer 32 I i [31:0] $end
$upscope $end
$scope module Clogic $end
$var wire 1 , Winc $end
$var wire 1 5 Wfull $end
$var reg 1 6 Wclken $end
$upscope $end
$scope module FIFO_MEM $end
$var wire 1 ( Rclk $end
$var wire 1 + Wclk $end
$var wire 1 6 Wclken $end
$var wire 8 J Wrdata [7:0] $end
$var wire 3 K Wadder [2:0] $end
$var wire 3 L Radder [2:0] $end
$var parameter 32 M Address $end
$var parameter 32 N Data_width $end
$var parameter 32 O Depth $end
$var reg 8 P Rdata [7:0] $end
$upscope $end
$scope module FIFO_RPTRREMPTY $end
$var wire 4 Q R2q_wptr [3:0] $end
$var wire 3 R Radder [2:0] $end
$var wire 1 ( Rclk $end
$var wire 1 ) Rinc $end
$var wire 1 * Rrst $end
$var parameter 32 S Address $end
$var reg 3 T Radder_binary_current [2:0] $end
$var reg 3 U Radder_binary_next [2:0] $end
$var reg 4 V Radder_gray_next [3:0] $end
$var reg 1 " Rempty $end
$var reg 4 W Rptr [3:0] $end
$upscope $end
$scope module FIFO_WPTRFULL $end
$var wire 3 X Wadder [2:0] $end
$var wire 1 + Wclk $end
$var wire 1 , Winc $end
$var wire 4 Y Wq2_rptr [3:0] $end
$var wire 1 . Wrst $end
$var parameter 32 Z Address $end
$var reg 3 [ Wadder_binary_current [2:0] $end
$var reg 3 \ Wadder_binary_next [2:0] $end
$var reg 4 ] Wadder_gray_next [3:0] $end
$var reg 1 5 Wfull $end
$var reg 4 ^ Wfull_val [3:0] $end
$var reg 4 _ Wptr [3:0] $end
$upscope $end
$upscope $end
$scope task read_data $end
$upscope $end
$scope task reset_fifo $end
$upscope $end
$scope task write_data $end
$var reg 8 ` data [7:0] $end
$upscope $end
$upscope $end
$enddefinitions $end
$comment Show the parameter values. $end
$dumpall
b11 Z
b11 S
b1000 O
b1000 N
b11 M
b10 G
b100 F
b10 B
b100 A
b10 ?
b1000 >
b1000 =
b11 <
b10 '
b1000 &
b1000 %
b11 $
$end
#0
$dumpvars
bx `
b0 _
b0 ^
b0 ]
b0 \
b0 [
b0 Y
b0 X
b0 W
b0 V
b0 U
b0 T
b0 R
b0 Q
bx P
b0 L
b0 K
b0 J
b100 I
b0 H
b0 E
b100 D
b0 C
b0 @
b0 ;
b0 :
bx 9
b0 8
b0 7
06
05
b0 4
b0 3
b0 2
b0 1
b0 0
bx /
0.
b0 -
0,
0+
0*
0)
0(
bx #
1"
0!
$end
#5000
b100 D
1+
#7000
b100 I
1(
#10000
0+
#14000
0(
#15000
b100 D
1+
#20000
0+
#21000
b100 I
1(
#25000
b100 D
1+
#28000
0(
#30000
0+
#35000
b100 D
b100 I
1+
1(
#40000
0+
#42000
0(
#45000
b100 D
1+
#49000
b100 I
1(
#50000
0+
#55000
b100 D
1+
#56000
0(
#60000
0+
#63000
b100 I
1(
#65000
b100 D
1+
#70000
0+
0(
#75000
b100 D
1+
#77000
b100 I
1(
#80000
0+
#84000
1*
1.
0(
#85000
b100 D
1+
#90000
0+
#91000
b100 I
1(
#95000
b100 D
1+
#98000
0(
#100000
0+
#105000
b100 D
b100 I
1+
1(
#110000
0+
#112000
0(
#115000
b100 D
1+
#119000
b100 I
1(
#120000
0+
#125000
b100 D
1+
#126000
b10001 `
b1 /
0(
#130000
16
b1 ]
b1 \
b1 1
1,
b10001 -
b10001 2
b10001 J
0+
#133000
b100 I
1(
#135000
b11 ]
b10 \
b1 4
b1 E
b1 _
b1 7
b1 K
b1 X
b1 [
b100 D
1+
#140000
06
b1 ]
b1 \
b10010 `
b10 /
0,
0+
0(
#145000
b100 D
1+
#147000
b10001 #
b10001 9
b10001 P
b100 I
1(
#150000
16
b11 ]
b10 \
b10 1
1,
b10010 -
b10010 2
b10010 J
0+
#154000
0(
#155000
b10 ]
b11 \
b11 4
b11 E
b11 _
b10 7
b10 K
b10 X
b10 [
b100 D
1+
#160000
06
b11 ]
b10 \
b10011 `
b11 /
0,
0+
#161000
b1 ;
b1 H
b1 Q
b100 I
1(
#165000
b100 D
1+
#168000
0(
#170000
16
b10 ]
b11 \
b11 1
1,
b10011 -
b10011 2
b10011 J
0+
#175000
b110 ]
b100 \
b11 ;
b11 H
b11 Q
b10 4
b10 E
b10 _
b11 7
b11 K
b11 X
b11 [
0"
b100 D
b100 I
1+
1(
#180000
06
b10 ]
b11 \
b10100 `
b100 /
0,
0+
#182000
0(
#185000
b100 D
1+
#189000
b100 I
1(
#190000
16
b110 ]
b100 \
b100 1
1,
b10100 -
b10100 2
b10100 J
0+
#195000
b111 ]
b101 \
b110 4
b110 E
b110 _
b100 7
b100 K
b100 X
b100 [
b100 D
1+
#196000
0(
#200000
06
b110 ]
b100 \
b10101 `
b101 /
0,
0+
#203000
b10 ;
b10 H
b10 Q
b100 I
1(
#205000
b100 D
1+
#210000
16
b111 ]
b101 \
b101 1
1,
b10101 -
b10101 2
b10101 J
0+
0(
#215000
b101 ]
b110 \
b111 4
b111 E
b111 _
b101 7
b101 K
b101 X
b101 [
b100 D
1+
#217000
b110 ;
b110 H
b110 Q
b100 I
1(
#220000
06
b111 ]
b101 \
b10110 `
b110 /
0,
0+
#224000
0(
#225000
b100 D
1+
#230000
16
b101 ]
b110 \
b110 1
1,
b10110 -
b10110 2
b10110 J
0+
#231000
b111 ;
b111 H
b111 Q
b100 I
1(
#235000
b100 ]
b111 \
b101 4
b101 E
b101 _
b110 7
b110 K
b110 X
b110 [
b100 D
1+
#238000
0(
#240000
06
b101 ]
b110 \
b10111 `
b111 /
0,
0+
#245000
b100 D
b100 I
1+
1(
#250000
16
b100 ]
b111 \
b111 1
1,
b10111 -
b10111 2
b10111 J
0+
#252000
0(
#255000
b0 ]
b0 \
b100 4
b100 E
b100 _
b111 7
b111 K
b111 X
b111 [
b100 D
1+
#259000
b101 ;
b101 H
b101 Q
b100 I
1(
#260000
06
b100 ]
b111 \
b11000 `
b1000 /
0,
0+
#265000
b100 D
1+
#266000
0(
#270000
16
b0 ]
b0 \
b1000 1
1,
b11000 -
b11000 2
b11000 J
0+
#273000
b100 ;
b100 H
b100 Q
b100 I
1(
#275000
b1 ]
b1 \
b0 4
b0 E
b0 _
b0 7
b0 K
b0 X
b0 [
b100 D
1+
#280000
06
b0 ]
b0 \
b11001 `
b1001 /
0,
0+
0(
#285000
b100 D
1+
#287000
b100 I
1(
#290000
16
b1 ]
b1 \
b1001 1
1,
b11001 -
b11001 2
b11001 J
0+
#294000
0(
#295000
b11 ]
b10 \
b1 4
b1 E
b1 _
b1 7
b1 K
b1 X
b1 [
b100 D
1+
#300000
06
b1 ]
b1 \
b11010 `
b1010 /
0,
0+
#301000
b0 ;
b0 H
b0 Q
b11001 #
b11001 9
b11001 P
b100 I
1(
#305000
b100 D
1+
#308000
0(
#310000
16
b11 ]
b10 \
b1010 1
1,
b11010 -
b11010 2
b11010 J
0+
#315000
b10 ]
b11 \
b1 ;
b1 H
b1 Q
b11 4
b11 E
b11 _
b10 7
b10 K
b10 X
b10 [
1"
b100 D
b100 I
1+
1(
#320000
06
b11 ]
b10 \
b11111111 `
b1011 /
0,
0+
#322000
0(
#325000
b100 D
1+
#329000
0"
b100 I
1(
#330000
16
b10 ]
b11 \
b1011 1
1,
b11111111 -
b11111111 2
b11111111 J
0+
#335000
b110 ]
b100 \
b10 4
b10 E
b10 _
b11 7
b11 K
b11 X
b11 [
b100 D
1+
#336000
0(
#340000
06
b10 ]
b11 \
0,
0+
#343000
b11 ;
b11 H
b11 Q
b100 I
1(
#345000
b100 D
1+
#350000
b1 V
b1 U
1)
0+
0(
#355000
b100 D
1+
#357000
b11 V
b10 U
b10 ;
b10 H
b10 Q
b1 8
b1 @
b1 W
b1 :
b1 L
b1 R
b1 T
b100 I
1(
#360000
0+
#364000
b1 V
b1 U
0)
0(
#365000
b100 D
1+
#370000
0+
#371000
b11010 #
b11010 9
b11010 P
b100 I
1(
#375000
b1 3
b1 C
b1 Y
b100 D
1+
#378000
b1 0
0(
#380000
0+
#385000
b100 D
b100 I
1+
1(
#390000
0+
#392000
b11 V
b10 U
1)
0(
#395000
b100 D
1+
#399000
b10 V
b11 U
b11 8
b11 @
b11 W
b10 :
b10 L
b10 R
b10 T
b100 I
1(
#400000
0+
#405000
b100 D
1+
#406000
b11 V
b10 U
0)
0(
#410000
0+
#413000
b11111111 #
b11111111 9
b11111111 P
b100 I
1(
#415000
b11 3
b11 C
b11 Y
b100 D
1+
#420000
b10 0
0+
0(
#425000
b100 D
1+
#427000
b100 I
1(
#430000
0+
#434000
b10 V
b11 U
1)
0(
#435000
b100 D
1+
#440000
0+
#441000
b10 8
b10 @
b10 W
b11 :
b11 L
b11 R
b11 T
1"
b100 I
1(
#445000
b100 D
1+
#448000
0)
0(
#450000
0+
#455000
b10 3
b10 C
b10 Y
b10100 #
b10100 9
b10100 P
b100 D
b100 I
1+
1(
#460000
0+
#462000
b11 0
0(
#465000
b100 D
1+
#469000
b100 I
1(
#470000
0+
#475000
b100 D
1+
#476000
0(
#480000
0+
#483000
b100 I
1(
#485000
b100 D
1+
#490000
0+
0(
#495000
b100 D
1+
#497000
b100 I
1(
#500000
0+
#504000
0(
#505000
b100 D
1+
#510000
0+
#511000
b100 I
1(
#515000
b100 D
1+
#518000
0(
#520000
0+
#525000
b100 D
b100 I
1+
1(
#530000
0+
#532000
0(
#535000
b100 D
1+
#539000
b100 I
1(
#540000
0+
#545000
b100 D
1+
#546000
b0 V
b0 U
b0 ;
b0 H
b0 Q
b0 ]
b0 \
b0 3
b0 C
b0 Y
b0 8
b0 @
b0 W
b0 :
b0 L
b0 R
b0 T
b0 4
b0 E
b0 _
b0 7
b0 K
b0 X
b0 [
b100 I
b100 D
0*
0.
0(
#550000
0+
#553000
b11001 #
b11001 9
b11001 P
b100 I
1(
#555000
b100 D
1+
#560000
0+
0(
#565000
b100 D
1+
#567000
b100 I
1(
#570000
0+
#574000
0(
#575000
b100 D
1+
#580000
0+
#581000
b100 I
1(
#585000
b100 D
1+
#588000
0(
#590000
0+
#595000
b100 D
b100 I
1+
1(
#600000
0+
#602000
0(
#605000
b100 D
1+
#609000
b100 I
1(
#610000
0+
#615000
b100 D
1+
#616000
0(
#620000
0+
#623000
b100 I
1(
#625000
b100 D
1+
#630000
1*
1.
0+
0(
#635000
b100 D
1+
#637000
b100 I
1(
#640000
0+
#644000
0(
#645000
b100 D
1+
#650000
0+
#651000
b100 I
1(
#655000
b100 D
1+
#658000
0(
#660000
0+
#665000
b100 D
b100 I
1+
1(
#670000
0+
#672000
0(
#675000
b100 D
1+
#679000
b100 I
1(
#680000
0+
#685000
b100 D
1+
#686000
b100001 `
b1 /
b0 0
b0 1
0(
#690000
16
b1 ]
b1 \
b1 1
1,
b100001 -
b100001 2
b100001 J
0+
#693000
b100 I
1(
#695000
b11 ]
b10 \
b1 4
b1 E
b1 _
b1 7
b1 K
b1 X
b1 [
b100 D
1+
#700000
06
b1 ]
b1 \
b100010 `
b10 /
0,
0+
0(
#705000
b100 D
1+
#707000
b100001 #
b100001 9
b100001 P
b100 I
1(
#710000
16
b11 ]
b10 \
b10 1
1,
b100010 -
b100010 2
b100010 J
0+
#714000
0(
#715000
b10 ]
b11 \
b11 4
b11 E
b11 _
b10 7
b10 K
b10 X
b10 [
b100 D
1+
#720000
06
b11 ]
b10 \
b100011 `
b11 /
0,
0+
#721000
b1 ;
b1 H
b1 Q
b100 I
1(
#725000
b100 D
1+
#728000
0(
#730000
16
b10 ]
b11 \
b11 1
1,
b100011 -
b100011 2
b100011 J
0+
#735000
b110 ]
b100 \
b11 ;
b11 H
b11 Q
b10 4
b10 E
b10 _
b11 7
b11 K
b11 X
b11 [
0"
b100 D
b100 I
1+
1(
#740000
06
b10 ]
b11 \
b100100 `
b100 /
0,
0+
#742000
0(
#745000
b100 D
1+
#749000
b100 I
1(
#750000
16
b110 ]
b100 \
b100 1
1,
b100100 -
b100100 2
b100100 J
0+
#755000
b111 ]
b101 \
b110 4
b110 E
b110 _
b100 7
b100 K
b100 X
b100 [
b100 D
1+
#756000
0(
#760000
06
b110 ]
b100 \
b100101 `
b101 /
0,
0+
#763000
b10 ;
b10 H
b10 Q
b100 I
1(
#765000
b100 D
1+
#770000
16
b111 ]
b101 \
b101 1
1,
b100101 -
b100101 2
b100101 J
0+
0(
#775000
b101 ]
b110 \
b111 4
b111 E
b111 _
b101 7
b101 K
b101 X
b101 [
b100 D
1+
#777000
b110 ;
b110 H
b110 Q
b100 I
1(
#780000
06
b111 ]
b101 \
b100110 `
b110 /
0,
0+
#784000
0(
#785000
b100 D
1+
#790000
16
b101 ]
b110 \
b110 1
1,
b100110 -
b100110 2
b100110 J
0+
#791000
b111 ;
b111 H
b111 Q
b100 I
1(
#795000
b100 ]
b111 \
b101 4
b101 E
b101 _
b110 7
b110 K
b110 X
b110 [
b100 D
1+
#798000
b1 V
b1 U
1)
0(
#800000
06
b101 ]
b110 \
b100111 `
b111 /
0,
0+
#805000
b11 V
b10 U
b1 8
b1 @
b1 W
b1 :
b1 L
b1 R
b1 T
b100 D
b100 I
1+
1(
#810000
16
b100 ]
b111 \
b111 1
1,
b100111 -
b100111 2
b100111 J
0+
#812000
b1 V
b1 U
0)
0(
#815000
b0 ]
b0 \
b100 4
b100 E
b100 _
b111 7
b111 K
b111 X
b111 [
b100 D
1+
#819000
b101 ;
b101 H
b101 Q
b100010 #
b100010 9
b100010 P
b100 I
1(
#820000
06
b100 ]
b111 \
b101000 `
b1000 /
0,
0+
#825000
b1 3
b1 C
b1 Y
b100 D
1+
#826000
b1 0
0(
#830000
16
b0 ]
b0 \
b1000 1
1,
b101000 -
b101000 2
b101000 J
0+
#833000
b100 ;
b100 H
b100 Q
b100 I
1(
#835000
b1 ]
b1 \
b0 4
b0 E
b0 _
b0 7
b0 K
b0 X
b0 [
b100 D
1+
#840000
06
b0 ]
b0 \
b11 V
b10 U
b1001 /
0,
1)
0+
0(
#845000
b100 D
1+
#847000
b10 V
b11 U
b11 8
b11 @
b11 W
b10 :
b10 L
b10 R
b10 T
b100 I
1(
#850000
0+
#854000
b11 V
b10 U
0)
0(
#855000
b100 D
1+
#860000
0+
#861000
b0 ;
b0 H
b0 Q
b100011 #
b100011 9
b100011 P
b100 I
1(
#865000
b11 3
b11 C
b11 Y
b100 D
1+
#868000
b10 0
0(
#870000
0+
#875000
b100 D
b100 I
1+
1(
#880000
0+
#882000
b10 V
b11 U
1)
0(
#885000
b100 D
1+
#889000
b110 V
b100 U
b10 8
b10 @
b10 W
b11 :
b11 L
b11 R
b11 T
b100 I
1(
#890000
0+
#895000
b100 D
1+
#896000
b10 V
b11 U
0)
0(
#900000
0+
#903000
b100100 #
b100100 9
b100100 P
b100 I
1(
#905000
b10 3
b10 C
b10 Y
b100 D
1+
#910000
b11 0
0+
0(
#915000
b100 D
1+
#917000
b100 I
1(
#920000
0+
#924000
b110 V
b100 U
1)
0(
#925000
b100 D
1+
#930000
0+
#931000
b111 V
b101 U
b110 8
b110 @
b110 W
b100 :
b100 L
b100 R
b100 T
b100 I
1(
#935000
b100 D
1+
#938000
b110 V
b100 U
0)
0(
#940000
0+
#945000
b110 3
b110 C
b110 Y
b100101 #
b100101 9
b100101 P
b100 D
b100 I
1+
1(
#950000
0+
#952000
b100 0
0(
#955000
b100 D
1+
#959000
b100 I
1(
#960000
0+
#965000
b100 D
1+
#966000
b111 V
b101 U
1)
0(
#970000
0+
#973000
b101 V
b110 U
b111 8
b111 @
b111 W
b101 :
b101 L
b101 R
b101 T
b100 I
1(
#975000
b100 D
1+
#980000
b111 V
b101 U
0)
0+
0(
#985000
b111 3
b111 C
b111 Y
b100 D
1+
#987000
b100110 #
b100110 9
b100110 P
b100 I
1(
#990000
0+
#994000
b101 0
0(
#995000
b100 D
1+
#1000000
0+
#1001000
b100 I
1(
#1005000
b100 D
1+
#1008000
b101 V
b110 U
1)
0(
#1010000
0+
#1015000
b100 V
b111 U
b101 8
b101 @
b101 W
b110 :
b110 L
b110 R
b110 T
b100 D
b100 I
1+
1(
#1020000
0+
#1022000
b101 V
b110 U
0)
0(
#1025000
b100 D
1+
#1029000
b100111 #
b100111 9
b100111 P
b100 I
1(
#1030000
0+
#1035000
b101 3
b101 C
b101 Y
b100 D
1+
#1036000
b110 0
0(
#1040000
0+
#1043000
b100 I
1(
#1045000
b100 D
1+
#1050000
0+
0(
#1055000
b100 D
1+
#1057000
b100 I
1(
#1060000
0+
#1064000
0(
#1065000
b100 D
1+
#1070000
0+
#1071000
b100 I
1(
#1075000
b100 D
1+
#1078000
0(
#1080000
0+
#1085000
b100 D
b100 I
1+
1(
#1090000
0+
#1092000
0(
#1095000
b100 D
1+
#1099000
b100 I
1(
#1100000
0+
#1105000
b100 D
1+
#1106000
0(
#1110000
0+
#1113000
b100 I
1(
#1115000
b100 D
1+
#1120000
0+
0(
#1125000
b100 D
1+
#1127000
b100 I
1(
#1130000
0+
#1134000
0(
#1135000
b100 D
1+
#1140000
0+
#1141000
b100 I
1(
#1145000
b100 D
1+
#1148000
0(
#1150000
0+
#1155000
b100 D
b100 I
1+
1(
#1160000
0+
#1162000
0(
#1165000
b100 D
1+
#1169000
b100 I
1(
#1170000
0+
#1175000
b100 D
1+
#1176000
0(
#1180000
0+
#1183000
b100 I
1(
#1185000
b100 D
1+
#1190000
0+
0(
#1195000
b100 D
1+
#1197000
b100 I
1(
#1200000
0+
#1204000
0(
#1205000
b100 D
1+
#1210000
0+
#1211000
b100 I
1(
#1215000
b100 D
1+
#1218000
0(
#1220000
0+
#1225000
b100 D
b100 I
1+
1(
#1230000
0+
#1232000
0(
#1235000
b100 D
1+
