Temsah/Final_System/Run copy/ASYNC_FIFO_dbg.vcd
$date
	Fri Sep 19 17:18:20 2025
$end
$version
	Icarus Verilog
$end
$timescale
	1ps
$end
$scope module ASYNC_FIFO_tb_dbg $end
$var wire 1 ! Wfull_tb $end
$var wire 1 " Rempty_tb $end
$var wire 8 # Rdata_tb [7:0] $end
$var parameter 32 $ Address_width $end
$var parameter 32 % Data_width $end
$var parameter 32 & Depth $end
$var parameter 32 ' NUM_STAGES $end
$var parameter 32 ( Rperiod $end
$var parameter 32 ) Wperiod $end
$var reg 1 * Rclk_tb $end
$var reg 1 + Rinc_tb $end
$var reg 1 , Rrst_tb $end
$var reg 1 - Wclk_tb $end
$var reg 1 . Winc_tb $end
$var reg 8 / Wrdata_tb [7:0] $end
$var reg 1 0 Wrst_tb $end
$var integer 32 1 Rindex [31:0] $end
$var integer 32 2 Windex [31:0] $end
$var integer 32 3 i [31:0] $end
$scope module fifo_inst $end
$var wire 1 * Rclk $end
$var wire 1 + Rinc $end
$var wire 1 , Rrst $end
$var wire 1 - Wclk $end
$var wire 1 . Winc $end
$var wire 8 4 Wrdata [7:0] $end
$var wire 1 0 Wrst $end
$var wire 4 5 Wq2_rptr_internal [3:0] $end
$var wire 4 6 Wptr_internal [3:0] $end
$var wire 1 ! Wfull $end
$var wire 1 7 Wclken_internal $end
$var wire 3 8 Wadder_internal [2:0] $end
$var wire 4 9 Rptr_internal [3:0] $end
$var wire 1 : Rempty_flag_internal $end
$var wire 1 " Rempty $end
$var wire 8 ; Rdata [7:0] $end
$var wire 3 < Radder_internal [2:0] $end
$var wire 4 = R2q_wptr_internal [3:0] $end
$var parameter 32 > Address_width $end
$var parameter 32 ? Data_width $end
$var parameter 32 @ Depth $end
$var parameter 32 A NUM_STAGES $end
$scope module BIT_W2q_rptr $end
$var wire 1 - CLK $end
$var wire 1 0 RST $end
$var wire 4 B ASYNC [3:0] $end
$var parameter 33 C BUS_WIDTH $end
$var parameter 32 D NUM_STAGES $end
$var reg 4 E SYNC [3:0] $end
$var integer 32 F i [31:0] $end
$upscope $end
$scope module BIT_r2q_wptr $end
$var wire 1 * CLK $end
$var wire 1 , RST $end
$var wire 4 G ASYNC [3:0] $end
$var parameter 33 H BUS_WIDTH $end
$var parameter 32 I NUM_STAGES $end
$var reg 4 J SYNC [3:0] $end
$var integer 32 K i [31:0] $end
$upscope $end
$scope module Clogic $end
$var wire 1 . Winc $end
$var wire 1 ! Wfull $end
$var reg 1 7 Wclken $end
$upscope $end
$scope module FIFO_MEM $end
$var wire 1 * Rclk $end
$var wire 1 - Wclk $end
$var wire 1 7 Wclken $end
$var wire 8 L Wrdata [7:0] $end
$var wire 3 M Wadder [2:0] $end
$var wire 1 : Rempty_flag $end
$var wire 3 N Radder [2:0] $end
$var parameter 32 O Address_width $end
$var parameter 32 P Data_width $end
$var parameter 32 Q Depth $end
$var reg 8 R Rdata [7:0] $end
$upscope $end
$scope module FIFO_RPTRREMPTY $end
$var wire 4 S R2q_wptr [3:0] $end
$var wire 1 * Rclk $end
$var wire 1 + Rinc $end
$var wire 1 , Rrst $end
$var wire 3 T Radder [2:0] $end
$var parameter 32 U Address_width $end
$var reg 4 V Radder_binary_current [3:0] $end
$var reg 4 W Radder_binary_next [3:0] $end
$var reg 4 X Radder_gray_next [3:0] $end
$var reg 1 " Rempty $end
$var reg 1 : Rempty_flag $end
$var reg 4 Y Rptr [3:0] $end
$upscope $end
$scope module FIFO_WPTRFULL $end
$var wire 1 - Wclk $end
$var wire 1 . Winc $end
$var wire 4 Z Wq2_rptr [3:0] $end
$var wire 1 0 Wrst $end
$var wire 3 [ Wadder [2:0] $end
$var parameter 32 \ Address_width $end
$var reg 4 ] Wadder_binary_current [3:0] $end
$var reg 4 ^ Wadder_binary_next [3:0] $end
$var reg 4 _ Wadder_gray_next [3:0] $end
$var reg 1 ! Wfull $end
$var reg 4 ` Wptr [3:0] $end
$upscope $end
$upscope $end
$scope task read $end
$upscope $end
$scope task reset_fifo $end
$upscope $end
$scope task write $end
$var reg 8 a data [7:0] $end
$upscope $end
$upscope $end
$enddefinitions $end
$comment Show the parameter values. $end
$dumpall
b11 \
b11 U
b1000 Q
b1000 P
b11 O
b10 I
b100 H
b10 D
b100 C
b10 A
b1000 @
b1000 ?
b11 >
b1010 )
b11001 (
b10 '
b1000 &
b1000 %
b11 $
$end
#0
$dumpvars
bx a
b0 `
b0 _
b0 ^
b0 ]
b0 [
b0 Z
b0 Y
b0 X
b0 W
b0 V
b0 T
b0 S
bx R
b0 N
b0 M
b0 L
b100 K
b0 J
b0 G
b100 F
b0 E
b0 B
b0 =
b0 <
bx ;
1:
b0 9
b0 8
07
b0 6
b0 5
b0 4
bx 3
b0 2
b0 1
00
b0 /
0.
0-
0,
0+
0*
bx #
1"
0!
$end
#5000
b100 F
1-
#10000
0-
#12000
b100 K
1,
10
1*
#15000
b100 F
1-
#20000
0-
#24000
0*
#25000
b100 F
1-
#30000
0-
#35000
b100 F
1-
#36000
b100 K
b1011 a
b1 3
1*
#40000
0-
#45000
17
b1 _
b1 ^
b100 F
1.
b1 2
b1011 /
b1011 4
b1011 L
1-
#48000
0*
#50000
0-
#55000
b1 8
b1 M
b1 [
b1 6
b1 G
b1 `
b1 ]
07
b1 _
b1 ^
b100 F
b1100 a
b10 3
0.
1-
#60000
b100 K
0-
1*
#65000
17
b11 _
b10 ^
b100 F
1.
b10 2
b1100 /
b1100 4
b1100 L
1-
#70000
0-
#72000
0*
#75000
b10 8
b10 M
b10 [
b11 6
b11 G
b11 `
b10 ]
07
b11 _
b10 ^
b100 F
b1101 a
b11 3
0.
1-
#80000
0-
#84000
b1 =
b1 J
b1 S
b100 K
1*
#85000
17
b10 _
b11 ^
b100 F
1.
b11 2
b1101 /
b1101 4
b1101 L
1-
#90000
0-
#95000
b11 8
b11 M
b11 [
b10 6
b10 G
b10 `
b11 ]
07
b10 _
b11 ^
b100 F
b1110 a
b100 3
0.
1-
#96000
0*
#100000
0-
#105000
17
b110 _
b100 ^
b100 F
1.
b100 2
b1110 /
b1110 4
b1110 L
1-
#108000
b11 =
b11 J
b11 S
0:
0"
b100 K
1*
#110000
0-
#115000
b100 8
b100 M
b100 [
b110 6
b110 G
b110 `
b100 ]
07
b110 _
b100 ^
b100 F
b1111 a
b101 3
0.
1-
#120000
0-
0*
#125000
17
b111 _
b101 ^
b100 F
1.
b101 2
b1111 /
b1111 4
b1111 L
1-
#130000
0-
#132000
b10 =
b10 J
b10 S
b1011 #
b1011 ;
b1011 R
b100 K
1*
#135000
b101 8
b101 M
b101 [
b111 6
b111 G
b111 `
b101 ]
07
b111 _
b101 ^
b100 F
b10000 a
b110 3
0.
1-
#140000
0-
#144000
0*
#145000
17
b101 _
b110 ^
b100 F
1.
b110 2
b10000 /
b10000 4
b10000 L
1-
#150000
0-
#155000
b110 8
b110 M
b110 [
b101 6
b101 G
b101 `
b110 ]
07
b101 _
b110 ^
b100 F
b10001 a
b111 3
0.
1-
#156000
b110 =
b110 J
b110 S
b100 K
1*
#160000
0-
#165000
17
b100 _
b111 ^
b100 F
1.
b111 2
b10001 /
b10001 4
b10001 L
1-
#168000
0*
#170000
0-
#175000
b111 8
b111 M
b111 [
b100 6
b100 G
b100 `
b111 ]
07
b100 _
b111 ^
b100 F
b10010 a
b1000 3
0.
1-
#180000
b101 =
b101 J
b101 S
b100 K
0-
1*
#185000
17
b0 _
b0 ^
b100 F
1.
b1000 2
b10010 /
b10010 4
b10010 L
1-
#190000
0-
#192000
0*
#195000
b0 8
b0 M
b0 [
b0 6
b0 G
b0 `
b0 ]
07
b0 _
b0 ^
b100 F
b1 3
0.
1-
#200000
0-
#204000
b100 =
b100 J
b100 S
b1 X
b1 W
b100 K
1+
1*
#205000
b100 F
1-
#210000
0-
#215000
b100 F
1-
#216000
0*
#220000
0-
#225000
b100 F
1-
#228000
b1 <
b1 N
b1 T
b0 =
b0 J
b0 S
b1 9
b1 B
b1 Y
b1 V
b1 X
b1 W
b100 K
b10 3
b1 1
0+
1*
#230000
0-
#235000
b100 F
1-
#240000
0-
0*
#245000
b1 5
b1 E
b1 Z
b100 F
1-
#250000
0-
#252000
b1100 #
b1100 ;
b1100 R
b11 X
b10 W
b100 K
1+
1*
#255000
b100 F
1-
#260000
0-
#264000
0*
#265000
b100 F
1-
#270000
0-
#275000
b100 F
1-
#276000
b10 <
b10 N
b10 T
b11 9
b11 B
b11 Y
b10 V
b11 X
b10 W
b100 K
b11 3
b10 1
0+
1*
#280000
0-
#285000
b100 F
1-
#288000
0*
#290000
0-
#295000
b11 5
b11 E
b11 Z
b100 F
1-
#300000
b1101 #
b1101 ;
b1101 R
b10 X
b11 W
b100 K
1+
0-
1*
#305000
b100 F
1-
#310000
0-
#312000
0*
#315000
b100 F
1-
#320000
0-
#324000
b11 <
b11 N
b11 T
b10 9
b10 B
b10 Y
b11 V
b10 X
b11 W
b100 K
b100 3
b11 1
0+
1*
#325000
b100 F
1-
#330000
0-
#335000
b10 5
b10 E
b10 Z
b100 F
1-
#336000
0*
#340000
0-
#345000
b100 F
1-
#348000
b1110 #
b1110 ;
b1110 R
b110 X
b100 W
b100 K
1+
1*
#350000
0-
#355000
b100 F
1-
#360000
0-
0*
#365000
b100 F
1-
#370000
0-
#372000
b100 <
b100 N
b100 T
b110 9
b110 B
b110 Y
b100 V
b110 X
b100 W
b100 K
b101 3
b100 1
0+
1*
#375000
b100 F
1-
#380000
0-
#384000
0*
#385000
b110 5
b110 E
b110 Z
b100 F
1-
#390000
0-
#395000
b100 F
1-
#396000
b1111 #
b1111 ;
b1111 R
b111 X
b101 W
b100 K
1+
1*
#400000
0-
#405000
b100 F
1-
#408000
0*
#410000
0-
#415000
b100 F
1-
#420000
b101 <
b101 N
b101 T
b111 9
b111 B
b111 Y
b101 V
b111 X
b101 W
b100 K
b10101 a
b1 3
b101 1
0+
0-
1*
#425000
17
b1 _
b1 ^
b100 F
1.
b1001 2
b10101 /
b10101 4
b10101 L
1-
#430000
0-
#432000
0*
#435000
b1 8
b1 M
b1 [
b111 5
b111 E
b111 Z
b1 6
b1 G
b1 `
b1 ]
07
b1 _
b1 ^
b100 F
b10110 a
b10 3
0.
1-
#440000
0-
#444000
b10000 #
b10000 ;
b10000 R
b100 K
1*
#445000
17
b11 _
b10 ^
b100 F
1.
b1010 2
b10110 /
b10110 4
b10110 L
1-
#450000
0-
#455000
b10 8
b10 M
b10 [
b11 6
b11 G
b11 `
b10 ]
07
b11 _
b10 ^
b100 F
b10111 a
b11 3
0.
1-
#456000
0*
#460000
0-
#465000
17
b10 _
b11 ^
b100 F
1.
b1011 2
b10111 /
b10111 4
b10111 L
1-
#468000
b1 =
b1 J
b1 S
b100 K
1*
#470000
0-
#475000
b11 8
b11 M
b11 [
b10 6
b10 G
b10 `
b11 ]
07
b10 _
b11 ^
b100 F
b11000 a
b100 3
0.
1-
#480000
0-
0*
#485000
17
b110 _
b100 ^
b100 F
1.
b1100 2
b11000 /
b11000 4
b11000 L
1-
#490000
0-
#492000
b11 =
b11 J
b11 S
b100 K
1*
#495000
b100 8
b100 M
b100 [
b110 6
b110 G
b110 `
b100 ]
07
b110 _
b100 ^
b100 F
b11001 a
b101 3
0.
1-
#500000
0-
#504000
0*
#505000
17
b111 _
b101 ^
b100 F
1.
b1101 2
b11001 /
b11001 4
b11001 L
1-
#510000
0-
#515000
b101 8
b101 M
b101 [
b111 6
b111 G
b111 `
b101 ]
07
b111 _
b101 ^
b100 F
b110 3
0.
1-
#516000
b10 =
b10 J
b10 S
b101 X
b110 W
b100 K
1+
1*
#520000
0-
#525000
b100 F
1-
#528000
0*
#530000
0-
#535000
b100 F
1-
#540000
b111 =
b111 J
b111 S
b110 <
b110 N
b110 T
b101 9
b101 B
b101 Y
b110 V
b101 X
b110 W
b100 K
b110 1
0+
0-
1*
#545000
b100 F
1-
#550000
0-
#552000
0*
#555000
b101 5
b101 E
b101 Z
b100 F
1-
#560000
0-
#564000
b10001 #
b10001 ;
b10001 R
b100 X
b111 W
b100 K
1+
1*
#565000
b100 F
1-
#570000
0-
#575000
b100 F
1-
#576000
0*
#580000
0-
#585000
b100 F
1-
#588000
b111 <
b111 N
b111 T
b100 9
b100 B
b100 Y
b111 V
b100 X
b111 W
b100 K
b111 1
0+
1*
#590000
0-
#595000
b100 F
1-
#600000
0-
0*
#605000
b100 5
b100 E
b100 Z
b100 F
1-
#610000
0-
#612000
b10010 #
b10010 ;
b10010 R
b0 X
b0 W
b100 K
1+
1*
#615000
b100 F
1-
#620000
0-
#624000
0*
#625000
b100 F
1-
#630000
0-
#635000
b100 F
1-
#636000
b0 <
b0 N
b0 T
b0 9
b0 B
b0 Y
b0 V
b0 X
b0 W
b100 K
b1000 1
0+
1*
#640000
0-
#645000
b100 F
1-
#648000
0*
#650000
0-
#655000
b0 5
b0 E
b0 Z
b100 F
1-
#660000
b10101 #
b10101 ;
b10101 R
b1 X
b1 W
b100 K
1+
0-
1*
#665000
b100 F
1-
#670000
0-
#672000
0*
#675000
b100 F
1-
#680000
0-
#684000
b1 <
b1 N
b1 T
b1 9
b1 B
b1 Y
b1 V
b1 X
b1 W
b100 K
b1001 1
0+
1*
#685000
b100 F
1-
#690000
0-
#695000
b1 5
b1 E
b1 Z
b100 F
1-
#696000
0*
#700000
0-
#705000
b100 F
1-
#708000
b10110 #
b10110 ;
b10110 R
b11 X
b10 W
b100 K
1+
1*
#710000
0-
#715000
b100 F
1-
#720000
0-
0*
#725000
b100 F
1-
#730000
0-
#732000
b10 <
b10 N
b10 T
b11 9
b11 B
b11 Y
b10 V
b11 X
b10 W
b100 K
b1010 1
0+
1*
#735000
b100 F
1-
#740000
0-
#744000
0*
#745000
b11 5
b11 E
b11 Z
b100 F
1-
#750000
0-
#755000
b100 F
1-
#756000
b10111 #
b10111 ;
b10111 R
b10 X
b11 W
b100 K
1+
1*
#760000
0-
#765000
b100 F
1-
#768000
0*
#770000
0-
#775000
b100 F
1-
#780000
b11 <
b11 N
b11 T
b10 9
b10 B
b10 Y
b11 V
b10 X
b11 W
b100 K
b1011 1
0+
0-
1*
#785000
b100 F
1-
#790000
0-
#792000
0*
#795000
b10 5
b10 E
b10 Z
b100 F
1-
#800000
0-
#804000
b11000 #
b11000 ;
b11000 R
b110 X
b100 W
b100 K
1+
1*
#805000
b100 F
1-
#810000
0-
#815000
b100 F
1-
#816000
0*
#820000
0-
#825000
b100 F
1-
#828000
b100 <
b100 N
b100 T
b110 9
b110 B
b110 Y
b100 V
b110 X
b100 W
b100 K
b1100 1
0+
1*
#830000
0-
#835000
b100 F
1-
#840000
0-
0*
#845000
b110 5
b110 E
b110 Z
b100 F
1-
#850000
0-
#852000
b11001 #
b11001 ;
b11001 R
b111 X
b101 W
b100 K
1+
1*
#855000
b100 F
1-
#860000
0-
#864000
0*
#865000
b100 F
1-
#870000
0-
#875000
b100 F
1-
#876000
b101 <
b101 N
b101 T
1:
1"
b111 9
b111 B
b111 Y
b101 V
b111 X
b101 W
b100 K
b1101 1
0+
1*
#880000
0-
#885000
b100 F
1-
#888000
0*
#890000
0-
#895000
b111 5
b111 E
b111 Z
b100 F
1-
#900000
b100 K
0-
1*
