Temsah/Final_System/Run copy/sys_top_single_rx.vcd
$date
	Thu Sep 18 22:58:23 2025
$end
$version
	Icarus Verilog
$end
$timescale
	1ps
$end
$scope module SYS_TOP_single_rx_tb $end
$var wire 1 ! TX_OUT $end
$var parameter 32 " Address_width $end
$var parameter 64 # BIT_PERIOD $end
$var parameter 32 $ CLK_PERIOD $end
$var parameter 32 % Data_width $end
$var reg 1 & RST $end
$var reg 1 ' RX_IN $end
$var reg 1 ( Ref_clk $end
$var reg 1 ) UART_clk $end
$scope module dut $end
$var wire 8 * REG2_internal [7:0] $end
$var wire 8 + REG3_internal [7:0] $end
$var wire 1 & RST $end
$var wire 1 ' RX_IN $end
$var wire 1 ( Ref_clk $end
$var wire 1 ) UART_clk $end
$var wire 1 , clk_div_en_internal $end
$var wire 1 - busy_internal $end
$var wire 1 . WrEN_internal $end
$var wire 8 / WrData_internal [7:0] $end
$var wire 1 0 Wfull_internal $end
$var wire 1 1 UART_TX_clk_internal $end
$var wire 1 2 UART_RX_clk_internal $end
$var wire 8 3 TX_p_data_inetrnal [7:0] $end
$var wire 1 4 TX_d_valid_internal $end
$var wire 1 ! TX_OUT $end
$var wire 1 5 SYNC_RST_domain_2 $end
$var wire 1 6 SYNC_RST_domain_1 $end
$var wire 1 7 Rinc_internal $end
$var wire 1 8 Rempty_internal $end
$var wire 8 9 Rdata_internal [7:0] $end
$var wire 8 : Rd_data_internal [7:0] $end
$var wire 1 ; RdEN_internal $end
$var wire 1 < RdData_valid_internal $end
$var wire 8 = RX_p_data_SYNC_internal [7:0] $end
$var wire 1 > RX_data_valid_internal $end
$var wire 1 ? RX_d_valid_SYNC_internal $end
$var wire 3 @ RX_clock_div_ratio_internal [2:0] $end
$var wire 8 A RX_P_DATA_internal [7:0] $end
$var wire 8 B REG1_internal [7:0] $end
$var wire 8 C REG0_internal [7:0] $end
$var wire 1 D OUT_VALID_internal $end
$var wire 1 E CLK_EN_internal $end
$var wire 4 F Address_internal [3:0] $end
$var wire 1 G ALU_clk_internal $end
$var wire 8 H ALU_OUT_internal [7:0] $end
$var wire 4 I ALU_FUN_internal [3:0] $end
$var wire 1 J ALU_EN_internal $end
$var parameter 32 K Address_width $end
$var parameter 32 L Data_width $end
$var parameter 32 M Depth $end
$var parameter 32 N NUM_STAGES $end
$scope module ALU1 $end
$var wire 8 O Shift_out_internal [7:0] $end
$var wire 1 P Shift_Flag_internal $end
$var wire 1 Q Shift_Enable_internal $end
$var wire 1 6 RST $end
$var wire 1 D OUT_VALID $end
$var wire 8 R Logic_out_internal [7:0] $end
$var wire 1 S Logic_Flag_internal $end
$var wire 1 T Logic_Enable_internal $end
$var wire 8 U CMP_out_internal [7:0] $end
$var wire 1 V CMP_Flag_internal $end
$var wire 1 W CMP_Enable_internal $end
$var wire 1 G CLK $end
$var wire 8 X B [7:0] $end
$var wire 8 Y Arith_out_internal [7:0] $end
$var wire 1 Z Arith_Flag_internal $end
$var wire 1 [ Arith_Enable_internal $end
$var wire 8 \ ALU_OUT [7:0] $end
$var wire 4 ] ALU_FUN [3:0] $end
$var wire 1 J ALU_EN $end
$var wire 8 ^ A [7:0] $end
$var parameter 32 _ Input_data_width $end
$var parameter 32 ` Output_data_width $end
$scope module ALU_OUT_MUX $end
$var wire 2 a Sel [1:0] $end
$var wire 8 b In3 [7:0] $end
$var wire 8 c In2 [7:0] $end
$var wire 8 d In1 [7:0] $end
$var wire 8 e In0 [7:0] $end
$var parameter 32 f Output_data_width $end
$var reg 8 g Out [7:0] $end
$upscope $end
$scope module ARU1 $end
$var wire 2 h ALU_FUN [1:0] $end
$var wire 1 6 RST $end
$var wire 1 G CLK $end
$var wire 8 i B [7:0] $end
$var wire 1 [ Arith_Enable $end
$var wire 8 j A [7:0] $end
$var parameter 2 k ADD $end
$var parameter 2 l DIV $end
$var parameter 32 m Input_data_width $end
$var parameter 2 n MUL $end
$var parameter 32 o Output_data_width $end
$var parameter 2 p SUB $end
$var reg 1 Z Arith_Flag $end
$var reg 8 q Arith_OUT [7:0] $end
$upscope $end
$scope module CMPU1 $end
$var wire 2 r ALU_FUN [1:0] $end
$var wire 1 6 RST $end
$var wire 1 W CMP_Enable $end
$var wire 1 G CLK $end
$var wire 8 s B [7:0] $end
$var wire 8 t A [7:0] $end
$var parameter 2 u CMPEQ $end
$var parameter 2 v CMPG $end
$var parameter 2 w CMPL $end
$var parameter 32 x Input_data_width $end
$var parameter 2 y NOP $end
$var parameter 32 z Output_data_width $end
$var reg 1 V CMP_Flag $end
$var reg 8 { CMP_OUT [7:0] $end
$upscope $end
$scope module D1 $end
$var wire 2 | ALU_FUN [1:0] $end
$var wire 1 J ALU_EN $end
$var parameter 2 } Arith $end
$var parameter 2 ~ CMP $end
$var parameter 2 !" Logic $end
$var parameter 2 "" Shift $end
$var reg 1 [ Arith_Enable $end
$var reg 1 W CMP_Enable $end
$var reg 1 T Logic_Enable $end
$var reg 1 Q Shift_Enable $end
$upscope $end
$scope module LU1 $end
$var wire 2 #" ALU_FUN [1:0] $end
$var wire 1 T Logic_Enable $end
$var wire 1 6 RST $end
$var wire 1 G CLK $end
$var wire 8 $" B [7:0] $end
$var wire 8 %" A [7:0] $end
$var parameter 2 &" AND $end
$var parameter 32 '" Input_data_width $end
$var parameter 2 (" NAND $end
$var parameter 2 )" NOR $end
$var parameter 2 *" OR $end
$var parameter 32 +" Output_data_width $end
$var reg 1 S Logic_Flag $end
$var reg 8 ," Logic_OUT [7:0] $end
$upscope $end
$scope module OUT_VALID_MUX $end
$var wire 1 Z In0 $end
$var wire 1 S In1 $end
$var wire 1 V In2 $end
$var wire 2 -" Sel [1:0] $end
$var wire 1 P In3 $end
$var parameter 32 ." Output_data_width $end
$var reg 1 D Out $end
$upscope $end
$scope module SHU1 $end
$var wire 2 /" ALU_FUN [1:0] $end
$var wire 1 Q Shift_Enable $end
$var wire 1 6 RST $end
$var wire 1 G CLK $end
$var wire 8 0" B [7:0] $end
$var wire 8 1" A [7:0] $end
$var parameter 32 2" Input_data_width $end
$var parameter 32 3" Output_data_width $end
$var parameter 2 4" SHLA $end
$var parameter 2 5" SHLB $end
$var parameter 2 6" SHRA $end
$var parameter 2 7" SHRB $end
$var reg 1 P Shift_Flag $end
$var reg 8 8" Shift_OUT [7:0] $end
$upscope $end
$upscope $end
$scope module Data_syncrhonizer $end
$var wire 1 ( CLK $end
$var wire 1 9" pulse_gen $end
$var wire 8 :" unsync_bus [7:0] $end
$var wire 8 ;" mux [7:0] $end
$var wire 1 > bus_enable $end
$var wire 1 6 RST $end
$var parameter 32 <" BUS_WIDTH $end
$var parameter 32 =" NUM_STAGES $end
$var reg 1 ? enable_pulse $end
$var reg 2 >" syn_reg [1:0] $end
$var reg 8 ?" sync_bus [7:0] $end
$var reg 8 @" unsync_reg [7:0] $end
$upscope $end
$scope module FIFO $end
$var wire 1 ( Wclk $end
$var wire 1 6 Wrst $end
$var wire 8 A" Wrdata [7:0] $end
$var wire 5 B" Wq2_rptr_internal [4:0] $end
$var wire 5 C" Wptr_internal [4:0] $end
$var wire 1 4 Winc $end
$var wire 1 0 Wfull $end
$var wire 1 D" Wclken_internal $end
$var wire 4 E" Wadder_internal [3:0] $end
$var wire 1 5 Rrst $end
$var wire 5 F" Rptr_internal [4:0] $end
$var wire 1 7 Rinc $end
$var wire 1 G" Rempty_flag_internal $end
$var wire 1 8 Rempty $end
$var wire 8 H" Rdata [7:0] $end
$var wire 1 1 Rclk $end
$var wire 4 I" Radder_internal [3:0] $end
$var wire 5 J" R2q_wptr_internal [4:0] $end
$var parameter 32 K" Address_width $end
$var parameter 32 L" Data_width $end
$var parameter 32 M" Depth $end
$var parameter 32 N" NUM_STAGES $end
$scope module BIT_W2q_rptr $end
$var wire 1 ( CLK $end
$var wire 1 6 RST $end
$var wire 5 O" ASYNC [4:0] $end
$var parameter 33 P" BUS_WIDTH $end
$var parameter 32 Q" NUM_STAGES $end
$var reg 5 R" SYNC [4:0] $end
$var integer 32 S" i [31:0] $end
$upscope $end
$scope module BIT_r2q_wptr $end
$var wire 1 5 RST $end
$var wire 1 1 CLK $end
$var wire 5 T" ASYNC [4:0] $end
$var parameter 33 U" BUS_WIDTH $end
$var parameter 32 V" NUM_STAGES $end
$var reg 5 W" SYNC [4:0] $end
$var integer 32 X" i [31:0] $end
$upscope $end
$scope module Clogic $end
$var wire 1 4 Winc $end
$var wire 1 0 Wfull $end
$var reg 1 D" Wclken $end
$upscope $end
$scope module FIFO_MEM $end
$var wire 1 ( Wclk $end
$var wire 1 D" Wclken $end
$var wire 8 Y" Wrdata [7:0] $end
$var wire 4 Z" Wadder [3:0] $end
$var wire 1 G" Rempty_flag $end
$var wire 1 1 Rclk $end
$var wire 4 [" Radder [3:0] $end
$var parameter 32 \" Address_width $end
$var parameter 32 ]" Data_width $end
$var parameter 32 ^" Depth $end
$var reg 8 _" Rdata [7:0] $end
$upscope $end
$scope module FIFO_RPTRREMPTY $end
$var wire 5 `" R2q_wptr [4:0] $end
$var wire 1 5 Rrst $end
$var wire 1 7 Rinc $end
$var wire 1 1 Rclk $end
$var wire 4 a" Radder [3:0] $end
$var parameter 32 b" Address_width $end
$var reg 5 c" Radder_binary_current [4:0] $end
$var reg 5 d" Radder_binary_next [4:0] $end
$var reg 5 e" Radder_gray_next [4:0] $end
$var reg 1 8 Rempty $end
$var reg 1 G" Rempty_flag $end
$var reg 5 f" Rptr [4:0] $end
$upscope $end
$scope module FIFO_WPTRFULL $end
$var wire 1 ( Wclk $end
$var wire 5 g" Wq2_rptr [4:0] $end
$var wire 1 6 Wrst $end
$var wire 1 4 Winc $end
$var wire 4 h" Wadder [3:0] $end
$var parameter 32 i" Address_width $end
$var reg 5 j" Wadder_binary_current [4:0] $end
$var reg 5 k" Wadder_binary_next [4:0] $end
$var reg 5 l" Wadder_gray_next [4:0] $end
$var reg 1 0 Wfull $end
$var reg 5 m" Wptr [4:0] $end
$upscope $end
$upscope $end
$scope module Prescale_MUX $end
$var wire 6 n" prescale [5:0] $end
$var reg 3 o" OUT [2:0] $end
$upscope $end
$scope module Pulse_gen $end
$var wire 1 5 RST $end
$var wire 1 - LVL_SIG $end
$var wire 1 1 CLK $end
$var reg 1 p" PREV $end
$var reg 1 7 PULSE_SIG $end
$upscope $end
$scope module Regfile $end
$var wire 1 ( CLK $end
$var wire 8 q" REG0 [7:0] $end
$var wire 8 r" REG1 [7:0] $end
$var wire 8 s" REG2 [7:0] $end
$var wire 8 t" REG3 [7:0] $end
$var wire 1 u" RdEn $end
$var wire 1 . WrEn $end
$var wire 8 v" WrData [7:0] $end
$var wire 1 6 RST $end
$var wire 4 w" Address [3:0] $end
$var parameter 32 x" Address_width $end
$var parameter 32 y" DATA_width $end
$var reg 8 z" RdData [7:0] $end
$var reg 1 < RdData_valid $end
$var integer 32 {" i [31:0] $end
$upscope $end
$scope module Reset_synchronizer1 $end
$var wire 1 ( CLK $end
$var wire 1 & RST $end
$var parameter 32 |" NUM_STAGES $end
$var reg 1 6 SYNC_RST $end
$var reg 2 }" sync_reg [1:0] $end
$upscope $end
$scope module Reset_synchronizer2 $end
$var wire 1 ) CLK $end
$var wire 1 & RST $end
$var parameter 32 ~" NUM_STAGES $end
$var reg 1 5 SYNC_RST $end
$var reg 2 !# sync_reg [1:0] $end
$upscope $end
$scope module System_control $end
$var wire 8 "# ALU_OUT [7:0] $end
$var wire 1 ( CLK $end
$var wire 1 0 FIFO_full $end
$var wire 1 D OUT_VALID $end
$var wire 1 6 RST $end
$var wire 1 ? RX_d_valid $end
$var wire 8 ## RX_p_data [7:0] $end
$var wire 1 < RdData_valid $end
$var wire 8 $# Rd_data [7:0] $end
$var wire 1 , clk_div_en $end
$var parameter 4 %# ALU_OP_code $end
$var parameter 4 &# ALU_operand_A $end
$var parameter 4 '# ALU_operand_B $end
$var parameter 4 (# ALU_operation $end
$var parameter 32 )# Address_width $end
$var parameter 32 *# Data_width $end
$var parameter 4 +# Idle $end
$var parameter 4 ,# Read_operation $end
$var parameter 4 -# Receive_Command $end
$var parameter 4 .# Register_file_address $end
$var parameter 4 /# Register_file_data $end
$var parameter 4 0# Send_data_TX $end
$var parameter 4 1# Write_operation $end
$var reg 1 J ALU_EN $end
$var reg 4 2# ALU_FUN [3:0] $end
$var reg 4 3# Address [3:0] $end
$var reg 1 E CLK_EN $end
$var reg 4 4# Current_state [3:0] $end
$var reg 4 5# Next_state [3:0] $end
$var reg 4 6# RF_Address [3:0] $end
$var reg 8 7# RF_Data [7:0] $end
$var reg 1 ; RdEN $end
$var reg 1 4 TX_d_valid $end
$var reg 8 8# TX_data [7:0] $end
$var reg 8 9# TX_p_data [7:0] $end
$var reg 8 :# WrData [7:0] $end
$var reg 1 . WrEN $end
$var reg 8 ;# command [7:0] $end
$var reg 8 <# command_reg [7:0] $end
$upscope $end
$scope module UARTRX $end
$var wire 1 =# PAR_EN $end
$var wire 1 ># PAR_TYP $end
$var wire 1 5 RST $end
$var wire 1 ' RX_IN $end
$var wire 1 ?# parity_checker_enable $end
$var wire 6 @# prescale [5:0] $end
$var wire 1 A# stop_error_internal $end
$var wire 1 B# stop_checker_enable_internal $end
$var wire 1 C# start_glitch_internal $end
$var wire 1 D# start_checker_enable_internal $end
$var wire 1 E# sampled_bit_internal $end
$var wire 1 F# reset_counters_internal $end
$var wire 1 G# parity_error_internal $end
$var wire 1 H# parity_checker_enable_internal $end
$var wire 1 I# enable_internal $end
$var wire 6 J# edge_cnt_counter_internal [5:0] $end
$var wire 1 K# deserializer_enable_internal $end
$var wire 1 L# data_sample_enable_internal $end
$var wire 4 M# bit_cnt_internal [3:0] $end
$var wire 1 > RX_data_valid $end
$var wire 8 N# RX_P_DATA [7:0] $end
$var wire 1 2 CLK $end
$var parameter 32 O# Data_width $end
$scope module FSM1 $end
$var wire 1 =# PAR_EN $end
$var wire 1 5 RST $end
$var wire 1 ' RX_IN $end
$var wire 6 P# prescale [5:0] $end
$var wire 1 A# stop_error $end
$var wire 1 C# start_glitch $end
$var wire 1 G# parity_error $end
$var wire 6 Q# edge_cnt [5:0] $end
$var wire 4 R# bit_cnt [3:0] $end
$var wire 1 2 CLK $end
$var parameter 6 S# Data_bits $end
$var parameter 6 T# Data_valid $end
$var parameter 32 U# Data_width $end
$var parameter 6 V# Idle $end
$var parameter 6 W# Parity_bit_check $end
$var parameter 6 X# Start_bit_check $end
$var parameter 6 Y# Stop_bit_check $end
$var reg 6 Z# Current_state [5:0] $end
$var reg 6 [# Next_state [5:0] $end
$var reg 1 L# data_sample_enable $end
$var reg 1 > data_valid $end
$var reg 1 K# deserializer_enable $end
$var reg 1 I# enable $end
$var reg 1 H# parity_checker_enable $end
$var reg 1 F# reset_counters $end
$var reg 1 D# start_checker_enable $end
$var reg 1 B# stop_checker_enable $end
$upscope $end
$scope module d $end
$var wire 1 5 RST $end
$var wire 1 K# deserializer_enable $end
$var wire 1 E# sampled_bit $end
$var wire 4 \# bit_cnt [3:0] $end
$var wire 1 2 CLK $end
$var parameter 32 ]# Data_width $end
$var reg 8 ^# P_DATA [7:0] $end
$upscope $end
$scope module ds $end
$var wire 1 5 RST $end
$var wire 1 ' RX_IN $end
$var wire 1 L# data_sample_enable $end
$var wire 6 _# prescale [5:0] $end
$var wire 6 `# edge_cnt [5:0] $end
$var wire 1 2 CLK $end
$var reg 1 a# sample1 $end
$var reg 1 b# sample2 $end
$var reg 1 c# sample3 $end
$var reg 1 E# sampled_bit $end
$upscope $end
$scope module ebc $end
$var wire 1 5 RST $end
$var wire 1 I# enable $end
$var wire 6 d# prescale [5:0] $end
$var wire 1 F# reset_counters $end
$var wire 1 2 CLK $end
$var reg 4 e# bit_cnt [3:0] $end
$var reg 6 f# edge_cnt [5:0] $end
$upscope $end
$scope module pc $end
$var wire 1 ># PAR_TYP $end
$var wire 1 5 RST $end
$var wire 4 g# bit_cnt [3:0] $end
$var wire 1 ?# parity_checker_enable $end
$var wire 1 E# sampled_bit $end
$var wire 1 2 CLK $end
$var parameter 32 h# Data_width $end
$var reg 1 i# P_flag $end
$var reg 8 j# data [7:0] $end
$var reg 1 G# parity_error $end
$upscope $end
$scope module start $end
$var wire 1 5 RST $end
$var wire 1 E# sampled_bit $end
$var wire 1 D# start_checker_enable $end
$var wire 1 2 CLK $end
$var reg 1 C# start_glitch $end
$upscope $end
$scope module stop $end
$var wire 1 5 RST $end
$var wire 1 E# sampled_bit $end
$var wire 1 B# stop_checker_enable $end
$var wire 1 2 CLK $end
$var reg 1 A# stop_error $end
$upscope $end
$upscope $end
$scope module UARTTX $end
$var wire 1 k# PAR_EN $end
$var wire 1 l# PAR_TYP $end
$var wire 1 5 RST $end
$var wire 1 m# TX_Data_valid $end
$var wire 8 n# TX_P_DATA [7:0] $end
$var wire 1 o# ser_en_internal $end
$var wire 1 p# ser_done_internal $end
$var wire 1 q# ser_data_internal $end
$var wire 1 r# par_bit_internal $end
$var wire 2 s# mux_sel_internal [1:0] $end
$var wire 1 - busy $end
$var wire 1 ! TX_OUT $end
$var wire 1 1 CLK $end
$var parameter 32 t# Data_width $end
$scope module FSM1 $end
$var wire 1 m# Data_valid $end
$var wire 1 k# PAR_EN $end
$var wire 1 5 RST $end
$var wire 1 p# ser_done $end
$var wire 1 1 CLK $end
$var parameter 5 u# Idle $end
$var parameter 5 v# Parity_Bit $end
$var parameter 5 w# Send_data $end
$var parameter 5 x# Start_bit $end
$var parameter 5 y# Stop_bit $end
$var reg 5 z# Current_state [4:0] $end
$var reg 5 {# Next_state [4:0] $end
$var reg 1 - busy $end
$var reg 2 |# mux_sel [1:0] $end
$var reg 1 o# ser_en $end
$upscope $end
$scope module M1 $end
$var wire 2 }# mux_sel [1:0] $end
$var wire 1 q# ser_data $end
$var wire 1 r# par_bit $end
$var reg 1 ! MUX_OUT $end
$upscope $end
$scope module P1 $end
$var wire 1 l# PAR_TYP $end
$var wire 8 ~# P_DATA [7:0] $end
$var wire 8 !$ P_DATA_ioslated [7:0] $end
$var wire 1 "$ P_flag $end
$var parameter 32 #$ Data_width $end
$var reg 1 r# par_bit $end
$upscope $end
$scope module S1 $end
$var wire 8 $$ P_DATA [7:0] $end
$var wire 1 5 RST $end
$var wire 1 o# ser_en $end
$var wire 1 1 CLK $end
$var parameter 32 %$ Data_width $end
$var reg 8 &$ P_DATA_ioslated [7:0] $end
$var reg 4 '$ counter [3:0] $end
$var reg 1 ($ ready $end
$var reg 1 q# ser_data $end
$var reg 1 p# ser_done $end
$upscope $end
$upscope $end
$scope module clock_divider_UART_RX $end
$var wire 1 )$ clk_divider_en $end
$var wire 1 *$ clock_divider_off $end
$var wire 1 , i_clk_en $end
$var wire 8 +$ i_div_ratio [7:0] $end
$var wire 1 ) i_ref_clk $end
$var wire 1 5 i_rst_n $end
$var wire 1 ,$ odd $end
$var wire 1 2 o_div_clk $end
$var wire 8 -$ half_period_plus_1 [7:0] $end
$var wire 8 .$ half_period [7:0] $end
$var wire 1 /$ flag $end
$var reg 1 0$ clock_divider_on $end
$var reg 8 1$ counter_even [7:0] $end
$var reg 8 2$ counter_odd_down [7:0] $end
$var reg 8 3$ counter_odd_up [7:0] $end
$upscope $end
$scope module clock_divider_UART_TX $end
$var wire 1 4$ clk_divider_en $end
$var wire 1 5$ clock_divider_off $end
$var wire 1 , i_clk_en $end
$var wire 8 6$ i_div_ratio [7:0] $end
$var wire 1 ) i_ref_clk $end
$var wire 1 5 i_rst_n $end
$var wire 1 7$ odd $end
$var wire 1 1 o_div_clk $end
$var wire 8 8$ half_period_plus_1 [7:0] $end
$var wire 8 9$ half_period [7:0] $end
$var wire 1 :$ flag $end
$var reg 1 ;$ clock_divider_on $end
$var reg 8 <$ counter_even [7:0] $end
$var reg 8 =$ counter_odd_down [7:0] $end
$var reg 8 >$ counter_odd_up [7:0] $end
$upscope $end
$scope module clock_gating_ALU $end
$var wire 1 ( CLK $end
$var wire 1 E CLK_EN $end
$var wire 1 G GATED_CLK $end
$var reg 1 ?$ latch $end
$upscope $end
$upscope $end
$scope task send_byte $end
$var reg 8 @$ data [7:0] $end
$var integer 32 A$ i [31:0] $end
$upscope $end
$upscope $end
$enddefinitions $end
$comment Show the parameter values. $end
$dumpall
b1000 %$
b1000 #$
b10000 y#
b10 x#
b100 w#
b1000 v#
b1 u#
b1000 t#
b1000 h#
b1000 ]#
b10000 Y#
b10 X#
b1000 W#
b1 V#
b1000 U#
b100000 T#
b100 S#
b1000 O#
b101 1#
b1010 0#
b11 /#
b10 .#
b1 -#
b100 ,#
b0 +#
b1000 *#
b100 )#
b1001 (#
b111 '#
b110 &#
b1000 %#
b10 ~"
b10 |"
b1000 y"
b100 x"
b100 i"
b100 b"
b1000 ^"
b1000 ]"
b100 \"
b10 V"
b101 U"
b10 Q"
b101 P"
b10 N"
b1000 M"
b1000 L"
b100 K"
b10 ="
b1000 <"
b10 7"
b0 6"
b11 5"
b1 4"
b1000 3"
b1000 2"
b1 ."
b1000 +"
b1 *"
b11 )"
b10 ("
b1000 '"
b0 &"
b11 ""
b1 !"
b10 ~
b0 }
b1000 z
b0 y
b1000 x
b11 w
b10 v
b1 u
b1 p
b1000 o
b10 n
b1000 m
b11 l
b0 k
b1000 f
b1000 `
b1000 _
b10 N
b1000 M
b1000 L
b100 K
b1000 %
b10100 $
b1010000000 #
b100 "
$end
#0
$dumpvars
bx A$
bx @$
0?$
b0 >$
b0 =$
b0 <$
0;$
0:$
b10000 9$
b10001 8$
07$
b100000 6$
05$
14$
b0 3$
b0 2$
b0 1$
00$
0/$
b0 .$
b1 -$
1,$
b1 +$
0*$
0)$
0($
b0 '$
b0 &$
bx $$
x"$
bx !$
bx ~#
b1 }#
b1 |#
b1 {#
b1 z#
b1 s#
xr#
0q#
0p#
0o#
bx n#
0m#
0l#
1k#
b0 j#
0i#
b0 g#
b0 f#
b0 e#
b100000 d#
1c#
1b#
1a#
b0 `#
b100000 _#
b0 ^#
b0 \#
b1 [#
b1 Z#
b0 R#
b0 Q#
b100000 P#
b0 N#
b0 M#
0L#
0K#
b0 J#
0I#
0H#
0G#
1F#
1E#
0D#
0C#
0B#
0A#
b100000 @#
z?#
0>#
1=#
bx <#
b0 ;#
bx :#
b0 9#
b0 8#
bx 7#
b0 6#
b0 5#
b0 4#
b0 3#
b0 2#
b0 $#
b0 ##
b0 "#
b0 !#
b0 }"
b10000 {"
b0 z"
b0 w"
bx v"
zu"
b100000 t"
b10000001 s"
b0 r"
b0 q"
0p"
b1 o"
b100000 n"
b0 m"
b0 l"
b0 k"
b0 j"
b0 h"
b0 g"
b0 f"
b0 e"
b0 d"
b0 c"
b0 a"
b0 `"
bx _"
b0 ["
b0 Z"
b0 Y"
b101 X"
b0 W"
b0 T"
b101 S"
b0 R"
b0 O"
b0 J"
b0 I"
bx H"
xG"
b0 F"
b0 E"
0D"
b0 C"
b0 B"
b0 A"
b0 @"
b0 ?"
b0 >"
b0 ;"
b0 :"
09"
b0 8"
b0 1"
b0 0"
b0 /"
b0 -"
b0 ,"
b0 %"
b0 $"
b0 #"
b0 |
b0 {
b0 t
b0 s
b0 r
b0 q
b0 j
b0 i
b0 h
b0 g
b0 e
b0 d
b0 c
b0 b
b0 a
b0 ^
b0 ]
b0 \
0[
0Z
b0 Y
b0 X
0W
0V
b0 U
0T
0S
b0 R
0Q
0P
b0 O
0J
b0 I
b0 H
0G
b0 F
0E
0D
b0 C
b0 B
b0 A
b1 @
0?
0>
b0 =
0<
0;
b0 :
bx 9
18
07
06
05
04
b0 3
02
01
00
bx /
0.
0-
1,
b100000 +
b10000001 *
0)
0(
1'
0&
1!
$end
#10000
1/$
12
b10000 {"
b101 S"
1*$
15$
1)
1(
#20000
0/$
02
0*$
05$
0)
0(
#30000
1/$
12
b101 S"
b10000 {"
1*$
15$
1)
1(
#40000
0/$
02
0*$
05$
0)
0(
#50000
1/$
12
b10000 {"
b101 S"
1*$
15$
1)
1(
#60000
0/$
02
0*$
05$
0)
0(
#70000
1/$
12
b101 S"
b10000 {"
1*$
15$
1)
1(
#80000
0/$
02
0*$
05$
0)
0(
#90000
1/$
12
b10000 {"
b101 S"
1*$
15$
1)
1(
#100000
0/$
02
0*$
05$
0)
0(
#110000
1/$
12
b101 S"
b10000 {"
1*$
15$
1)
1(
#120000
0/$
02
0*$
05$
0)
0(
#130000
1/$
12
b10000 {"
b101 S"
1*$
15$
1)
1(
#140000
0/$
02
0*$
05$
0)
0(
#150000
1/$
12
b101 S"
b10000 {"
1*$
15$
1)
1(
#160000
0/$
02
0*$
05$
0)
0(
#170000
1/$
12
b10000 {"
b101 S"
1*$
15$
1)
1(
#180000
0/$
02
0*$
05$
0)
0(
#190000
1/$
12
b101 S"
b10000 {"
1*$
15$
1)
1(
#200000
0/$
02
0*$
05$
0)
0(
1&
#210000
b10 !#
b10 }"
1/$
12
b10000 {"
b101 S"
1*$
15$
1)
1(
#220000
0/$
02
0*$
05$
0)
0(
#230000
b11 !#
b11 }"
1/$
12
b101 S"
b10000 {"
1*$
15$
1)
1(
#240000
0/$
02
0*$
05$
0)
0(
#250000
15
16
1/$
12
b10000 {"
b101 S"
1*$
15$
1)
1(
#260000
0/$
02
0*$
05$
0)
0(
#270000
b1 <$
1/$
12
b101 S"
1*$
15$
1)
1(
#280000
0/$
02
0*$
05$
0)
0(
#290000
b10 <$
1/$
12
b101 S"
1*$
15$
1)
1(
#300000
0/$
02
0*$
05$
0)
0(
#310000
b11 <$
1/$
12
b101 S"
1*$
15$
1)
1(
#320000
0/$
02
0*$
05$
0)
0(
#330000
b100 <$
1/$
12
b101 S"
1*$
15$
1)
1(
#340000
0/$
02
0*$
05$
0)
0(
#350000
b101 <$
1/$
12
b101 S"
1*$
15$
1)
1(
#360000
0/$
02
0*$
05$
0)
0(
#370000
b110 <$
1/$
12
b101 S"
1*$
15$
1)
1(
#380000
0/$
02
0*$
05$
0)
0(
#390000
b111 <$
1/$
12
b101 S"
1*$
15$
1)
1(
#400000
0/$
02
0*$
05$
0)
0(
#410000
b1000 <$
1/$
12
b101 S"
1*$
15$
1)
1(
#420000
0/$
02
0*$
05$
0)
0(
#430000
b1001 <$
1/$
12
b101 S"
1*$
15$
1)
1(
#440000
0/$
02
0*$
05$
0)
0(
#450000
b1010 <$
1/$
12
b101 S"
1*$
15$
1)
1(
#460000
0/$
02
0*$
05$
0)
0(
#470000
b1011 <$
1/$
12
b101 S"
1*$
15$
1)
1(
#480000
0/$
02
0*$
05$
0)
0(
#490000
b1100 <$
1/$
12
b101 S"
1*$
15$
1)
1(
#500000
0/$
02
0*$
05$
0)
0(
#510000
b1101 <$
1/$
12
b101 S"
1*$
15$
1)
1(
#520000
0/$
02
0*$
05$
0)
0(
#530000
b1110 <$
1/$
12
b101 S"
1*$
15$
1)
1(
#540000
0/$
02
0*$
05$
0)
0(
#550000
b1111 <$
1/$
12
b101 S"
1*$
15$
1)
1(
#560000
0/$
02
0*$
05$
0)
0(
#570000
1G"
b101 X"
1:$
11
1;$
b0 <$
1/$
12
b101 S"
1*$
15$
1)
1(
#580000
0/$
02
0*$
05$
0)
0(
#590000
b1 <$
1/$
12
b101 S"
1*$
15$
1)
1(
#600000
0/$
02
0*$
05$
0)
0(
#610000
b10 <$
1/$
12
b101 S"
1*$
15$
1)
1(
#620000
0/$
02
0*$
05$
0)
0(
#630000
b11 <$
1/$
12
b101 S"
1*$
15$
1)
1(
#640000
0/$
02
0*$
05$
0)
0(
#650000
b100 <$
1/$
12
b101 S"
1*$
15$
1)
1(
#660000
0/$
02
0*$
05$
0)
0(
#670000
b101 <$
1/$
12
b101 S"
1*$
15$
1)
1(
#680000
0/$
02
0*$
05$
0)
0(
#690000
b110 <$
1/$
12
b101 S"
1*$
15$
1)
1(
#700000
0/$
02
0*$
05$
0)
0(
#710000
b111 <$
1/$
12
b101 S"
1*$
15$
1)
1(
#720000
0/$
02
0*$
05$
0)
0(
#730000
b1000 <$
1/$
12
b101 S"
1*$
15$
1)
1(
#740000
0/$
02
0*$
05$
0)
0(
#750000
b1001 <$
1/$
12
b101 S"
1*$
15$
1)
1(
#760000
0/$
02
0*$
05$
0)
0(
#770000
b1010 <$
1/$
12
b101 S"
1*$
15$
1)
1(
#780000
0/$
02
0*$
05$
0)
0(
#790000
b1011 <$
1/$
12
b101 S"
1*$
15$
1)
1(
#800000
0/$
02
0*$
05$
0)
0(
#810000
b1100 <$
1/$
12
b101 S"
1*$
15$
1)
1(
#820000
0/$
02
0*$
05$
0)
0(
#830000
b1101 <$
1/$
12
b101 S"
1*$
15$
1)
1(
#840000
0/$
02
0*$
05$
0)
0(
#850000
b1110 <$
1/$
12
b101 S"
1*$
15$
1)
1(
#860000
0/$
02
0*$
05$
0)
0(
#870000
b1111 <$
1/$
12
b101 S"
1*$
15$
1)
1(
#880000
0/$
02
0*$
05$
0)
0(
#890000
0:$
01
0;$
b0 <$
1/$
12
b101 S"
1*$
15$
1)
1(
#900000
0/$
02
0*$
05$
0)
0(
#910000
b1 <$
1/$
12
b101 S"
1*$
15$
1)
1(
#920000
0/$
02
0*$
05$
0)
0(
#930000
b10 <$
1/$
12
b101 S"
1*$
15$
1)
1(
#940000
0/$
02
0*$
05$
0)
0(
#950000
b11 <$
1/$
12
b101 S"
1*$
15$
1)
1(
#960000
0/$
02
0*$
05$
0)
0(
#970000
b100 <$
1/$
12
b101 S"
1*$
15$
1)
1(
#980000
0/$
02
0*$
05$
0)
0(
#990000
b101 <$
1/$
12
b101 S"
1*$
15$
1)
1(
#1000000
0/$
02
b10 [#
0*$
05$
0)
0(
0'
b10101010 @$
#1010000
1I#
1L#
1D#
0F#
b10 Z#
b110 <$
1/$
12
b101 S"
1*$
15$
1)
1(
#1020000
0/$
02
0*$
05$
0)
0(
