Temsah/Final_System/Folder to be delivered (with temsahs fifo in case yours has  hard latches or whatever)/UART_RX.vcd
$date
	Thu Sep 18 22:47:14 2025
$end
$version
	Icarus Verilog
$end
$timescale
	1ns
$end
$scope module UART_RX_tb $end
$var wire 1 ! RX_data_valid_tb $end
$var wire 8 " RX_P_DATA_tb [7:0] $end
$var parameter 32 # Data_width $end
$var reg 1 $ CLK_tb $end
$var reg 1 % PAR_EN_tb $end
$var reg 1 & PAR_TYP_tb $end
$var reg 1 ' RST_tb $end
$var reg 1 ( RX_IN_tb $end
$var reg 6 ) prescale_tb [5:0] $end
$var real 1 * Clock_period $end
$var real 1 + RX_frequnecy $end
$var real 1 , TX_frequency $end
$var integer 32 - i [31:0] $end
$scope module UART1 $end
$var wire 1 $ CLK $end
$var wire 1 % PAR_EN $end
$var wire 1 & PAR_TYP $end
$var wire 1 ' RST $end
$var wire 1 ( RX_IN $end
$var wire 1 . parity_checker_enable $end
$var wire 6 / prescale [5:0] $end
$var wire 1 0 stop_error_internal $end
$var wire 1 1 stop_checker_enable_internal $end
$var wire 1 2 start_glitch_internal $end
$var wire 1 3 start_checker_enable_internal $end
$var wire 1 4 sampled_bit_internal $end
$var wire 1 5 reset_counters_internal $end
$var wire 1 6 parity_error_internal $end
$var wire 1 7 parity_checker_enable_internal $end
$var wire 1 8 enable_internal $end
$var wire 6 9 edge_cnt_counter_internal [5:0] $end
$var wire 1 : deserializer_enable_internal $end
$var wire 1 ; data_sample_enable_internal $end
$var wire 4 < bit_cnt_internal [3:0] $end
$var wire 1 ! RX_data_valid $end
$var wire 8 = RX_P_DATA [7:0] $end
$var parameter 32 > Data_width $end
$scope module FSM1 $end
$var wire 1 $ CLK $end
$var wire 1 % PAR_EN $end
$var wire 1 ' RST $end
$var wire 1 ( RX_IN $end
$var wire 6 ? prescale [5:0] $end
$var wire 1 0 stop_error $end
$var wire 1 2 start_glitch $end
$var wire 1 6 parity_error $end
$var wire 6 @ edge_cnt [5:0] $end
$var wire 4 A bit_cnt [3:0] $end
$var parameter 6 B Data_bits $end
$var parameter 6 C Data_valid $end
$var parameter 32 D Data_width $end
$var parameter 6 E Idle $end
$var parameter 6 F Parity_bit_check $end
$var parameter 6 G Start_bit_check $end
$var parameter 6 H Stop_bit_check $end
$var reg 6 I Current_state [5:0] $end
$var reg 6 J Next_state [5:0] $end
$var reg 1 ; data_sample_enable $end
$var reg 1 ! data_valid $end
$var reg 1 : deserializer_enable $end
$var reg 1 8 enable $end
$var reg 1 7 parity_checker_enable $end
$var reg 1 5 reset_counters $end
$var reg 1 3 start_checker_enable $end
$var reg 1 1 stop_checker_enable $end
$upscope $end
$scope module d $end
$var wire 1 $ CLK $end
$var wire 1 ' RST $end
$var wire 1 : deserializer_enable $end
$var wire 1 4 sampled_bit $end
$var wire 4 K bit_cnt [3:0] $end
$var parameter 32 L Data_width $end
$var reg 8 M P_DATA [7:0] $end
$upscope $end
$scope module ds $end
$var wire 1 $ CLK $end
$var wire 1 ' RST $end
$var wire 1 ( RX_IN $end
$var wire 1 ; data_sample_enable $end
$var wire 6 N prescale [5:0] $end
$var wire 6 O edge_cnt [5:0] $end
$var reg 1 P sample1 $end
$var reg 1 Q sample2 $end
$var reg 1 R sample3 $end
$var reg 1 4 sampled_bit $end
$upscope $end
$scope module ebc $end
$var wire 1 $ CLK $end
$var wire 1 ' RST $end
$var wire 1 8 enable $end
$var wire 6 S prescale [5:0] $end
$var wire 1 5 reset_counters $end
$var reg 4 T bit_cnt [3:0] $end
$var reg 6 U edge_cnt [5:0] $end
$upscope $end
$scope module pc $end
$var wire 1 $ CLK $end
$var wire 1 & PAR_TYP $end
$var wire 1 ' RST $end
$var wire 4 V bit_cnt [3:0] $end
$var wire 1 . parity_checker_enable $end
$var wire 1 4 sampled_bit $end
$var parameter 32 W Data_width $end
$var reg 1 X P_flag $end
$var reg 8 Y data [7:0] $end
$var reg 1 6 parity_error $end
$upscope $end
$scope module start $end
$var wire 1 $ CLK $end
$var wire 1 ' RST $end
$var wire 1 4 sampled_bit $end
$var wire 1 3 start_checker_enable $end
$var reg 1 2 start_glitch $end
$upscope $end
$scope module stop $end
$var wire 1 $ CLK $end
$var wire 1 ' RST $end
$var wire 1 4 sampled_bit $end
$var wire 1 1 stop_checker_enable $end
$var reg 1 0 stop_error $end
$upscope $end
$upscope $end
$scope task check_output $end
$var reg 8 Z data [7:0] $end
$var reg 1 [ parity_bit $end
$var reg 1 \ parity_enable $end
$upscope $end
$scope task frame $end
$var reg 8 ] data [7:0] $end
$var reg 1 ^ parity_bit $end
$var reg 1 _ parity_enable $end
$var reg 1 ` parity_type $end
$upscope $end
$scope task initialize $end
$upscope $end
$scope task reset $end
$upscope $end
$scope task set_prescale $end
$var reg 6 a ps [5:0] $end
$upscope $end
$upscope $end
$enddefinitions $end
$comment Show the parameter values. $end
$dumpall
b1000 W
b1000 L
b10000 H
b10 G
b1000 F
b1 E
b1000 D
b100000 C
b100 B
b1000 >
b1000 #
$end
#0
$dumpvars
b1000 a
0`
0_
x^
b10101011 ]
x\
x[
bx Z
b0 Y
0X
b0 V
b0 U
b0 T
b1000 S
1R
1Q
1P
b0 O
b1000 N
b0 M
b0 K
b1 J
b1 I
b0 A
b0 @
b1000 ?
b0 =
b0 <
0;
0:
b0 9
08
07
06
15
14
03
02
01
00
b1000 /
z.
bx -
r115200 ,
r921600 +
r1.085069444444444 *
b1000 )
1(
1'
0&
0%
1$
b0 "
0!
$end
#543
0$
#1086
1$
#1629
0$
#2172
1$
#2715
0$
#3258
1$
#3801
0$
#4344
1$
#4887
0$
#5430
1$
#5973
0$
#6516
1$
#7059
0$
#7602
1$
#8145
0$
#8680
b10 J
0(
#8688
18
1;
13
05
b10 I
1$
#9231
0$
#9774
12
b1 9
b1 @
b1 O
b1 U
1$
#10317
0$
#10860
b10 9
b10 @
b10 O
b10 U
1$
#11403
0$
#11946
b11 9
b11 @
b11 O
b11 U
1$
#12489
0$
#13032
b100 9
b100 @
b100 O
b100 U
0P
1$
#13575
0$
#14118
0Q
b101 9
b101 @
b101 O
b101 U
1$
#14661
0$
#15204
b110 9
b110 @
b110 O
b110 U
04
0R
1$
#15747
0$
#16290
b100 J
02
b111 9
b111 @
b111 O
b111 U
1$
#16833
0$
#17360
1(
b0 -
#17376
1:
03
18
1;
b0 9
b0 @
b0 O
b0 U
b1 <
b1 A
b1 K
b1 T
b1 V
b100 I
1$
#17919
0$
#18462
b1 9
b1 @
b1 O
b1 U
1$
#19005
0$
#19548
b10 9
b10 @
b10 O
b10 U
1$
#20091
0$
#20634
b11 9
b11 @
b11 O
b11 U
1$
#21177
0$
#21720
b100 9
b100 @
b100 O
b100 U
1P
1$
#22263
0$
#22806
1Q
b101 9
b101 @
b101 O
b101 U
1$
#23349
0$
#23892
b110 9
b110 @
b110 O
b110 U
14
1R
1$
#24435
0$
#24978
b1 "
b1 =
b1 M
b111 9
b111 @
b111 O
b111 U
1$
#25521
0$
#26040
b1 -
#26064
b0 9
b0 @
b0 O
b0 U
b10 <
b10 A
b10 K
b10 T
b10 V
1$
#26607
0$
#27150
b11 "
b11 =
b11 M
b1 9
b1 @
b1 O
b1 U
1$
#27693
0$
#28236
b10 9
b10 @
b10 O
b10 U
1$
#28779
0$
#29322
b11 9
b11 @
b11 O
b11 U
1$
#29865
0$
#30408
b100 9
b100 @
b100 O
b100 U
1$
#30951
0$
#31494
b101 9
b101 @
b101 O
b101 U
1$
#32037
0$
#32580
b110 9
b110 @
b110 O
b110 U
1$
#33123
0$
#33666
b111 9
b111 @
b111 O
b111 U
1$
#34209
0$
#34720
0(
b10 -
#34752
b0 9
b0 @
b0 O
b0 U
b11 <
b11 A
b11 K
b11 T
b11 V
1$
#35295
0$
#35838
b111 "
b111 =
b111 M
b1 9
b1 @
b1 O
b1 U
1$
#36381
0$
#36924
b10 9
b10 @
b10 O
b10 U
1$
#37467
0$
#38010
b11 9
b11 @
b11 O
b11 U
1$
#38553
0$
#39096
b100 9
b100 @
b100 O
b100 U
0P
1$
#39639
0$
#40182
0Q
b101 9
b101 @
b101 O
b101 U
1$
#40725
0$
#41268
b110 9
b110 @
b110 O
b110 U
04
0R
1$
#41811
0$
#42354
b11 "
b11 =
b11 M
b111 9
b111 @
b111 O
b111 U
1$
#42897
0$
#43400
1(
b11 -
#43440
b0 9
b0 @
b0 O
b0 U
b100 <
b100 A
b100 K
b100 T
b100 V
1$
#43983
0$
#44526
b1 9
b1 @
b1 O
b1 U
1$
#45069
0$
#45612
b10 9
b10 @
b10 O
b10 U
1$
#46155
0$
#46698
b11 9
b11 @
b11 O
b11 U
1$
#47241
0$
#47784
b100 9
b100 @
b100 O
b100 U
1P
1$
#48327
0$
#48870
1Q
b101 9
b101 @
b101 O
b101 U
1$
#49413
0$
#49956
b110 9
b110 @
b110 O
b110 U
14
1R
1$
#50499
0$
#51042
b1011 "
b1011 =
b1011 M
b111 9
b111 @
b111 O
b111 U
1$
#51585
0$
#52080
0(
b100 -
#52128
b0 9
b0 @
b0 O
b0 U
b101 <
b101 A
b101 K
b101 T
b101 V
1$
#52671
0$
#53214
b11011 "
b11011 =
b11011 M
b1 9
b1 @
b1 O
b1 U
1$
#53757
0$
#54300
b10 9
b10 @
b10 O
b10 U
1$
#54843
0$
#55386
b11 9
b11 @
b11 O
b11 U
1$
#55929
0$
#56472
b100 9
b100 @
b100 O
b100 U
0P
1$
#57015
0$
#57558
0Q
b101 9
b101 @
b101 O
b101 U
1$
#58101
0$
#58644
b110 9
b110 @
b110 O
b110 U
04
0R
1$
#59187
0$
#59730
b1011 "
b1011 =
b1011 M
b111 9
b111 @
b111 O
b111 U
1$
#60273
0$
#60760
1(
b101 -
#60816
b0 9
b0 @
b0 O
b0 U
b110 <
b110 A
b110 K
b110 T
b110 V
1$
#61359
0$
#61902
b1 9
b1 @
b1 O
b1 U
1$
#62445
0$
#62988
b10 9
b10 @
b10 O
b10 U
1$
#63531
0$
#64074
b11 9
b11 @
b11 O
b11 U
1$
#64617
0$
#65160
b100 9
b100 @
b100 O
b100 U
1P
1$
#65703
0$
#66246
1Q
b101 9
b101 @
b101 O
b101 U
1$
#66789
0$
#67332
b110 9
b110 @
b110 O
b110 U
14
1R
1$
#67875
0$
#68418
b101011 "
b101011 =
b101011 M
b111 9
b111 @
b111 O
b111 U
1$
#68961
0$
#69440
0(
b110 -
#69504
b0 9
b0 @
b0 O
b0 U
b111 <
b111 A
b111 K
b111 T
b111 V
1$
#70047
0$
#70590
b1101011 "
b1101011 =
b1101011 M
b1 9
b1 @
b1 O
b1 U
1$
#71133
0$
#71676
b10 9
b10 @
b10 O
b10 U
1$
#72219
0$
#72762
b11 9
b11 @
b11 O
b11 U
1$
#73305
0$
#73848
b100 9
b100 @
b100 O
b100 U
0P
1$
#74391
0$
#74934
0Q
b101 9
b101 @
b101 O
b101 U
1$
#75477
0$
#76020
b110 9
b110 @
b110 O
b110 U
04
0R
1$
#76563
0$
#77106
b101011 "
b101011 =
b101011 M
b111 9
b111 @
b111 O
b111 U
1$
#77649
0$
#78120
1(
b111 -
#78192
b0 9
b0 @
b0 O
b0 U
b1000 <
b1000 A
b1000 K
b1000 T
b1000 V
1$
#78735
0$
#79278
b1 9
b1 @
b1 O
b1 U
1$
#79821
0$
#80364
b10 9
b10 @
b10 O
b10 U
1$
#80907
0$
#81450
b11 9
b11 @
b11 O
b11 U
1$
#81993
0$
#82536
b100 9
b100 @
b100 O
b100 U
1P
1$
#83079
0$
#83622
1Q
b101 9
b101 @
b101 O
b101 U
1$
#84165
0$
#84708
b110 9
b110 @
b110 O
b110 U
14
1R
1$
#85251
0$
#85794
b10101011 "
b10101011 =
b10101011 M
b111 9
b111 @
b111 O
b111 U
1$
#86337
0$
#86800
b1000 -
#86880
b10000 J
b0 9
b0 @
b0 O
b0 U
b1001 <
b1001 A
b1001 K
b1001 T
b1001 V
1$
#87423
0$
#87966
11
0:
18
1;
b10000 I
b1 9
b1 @
b1 O
b1 U
1$
#88509
0$
#89052
b10 9
b10 @
b10 O
b10 U
1$
#89595
0$
#90138
b11 9
b11 @
b11 O
b11 U
1$
#90681
0$
#91224
b100 9
b100 @
b100 O
b100 U
1$
#91767
0$
#92310
b101 9
b101 @
b101 O
b101 U
1$
#92853
0$
#93396
b110 9
b110 @
b110 O
b110 U
1$
#93939
0$
#94482
b100000 J
b111 9
b111 @
b111 O
b111 U
1$
#95025
0$
#95480
0[
0\
b10101011 Z
#95568
1!
01
18
0;
b1 J
b0 9
b0 @
b0 O
b0 U
b1010 <
b1010 A
b1010 K
b1010 T
b1010 V
b100000 I
1$
#96111
0$
#96654
15
0!
08
b1 I
b1 9
b1 @
b1 O
b1 U
1$
#97197
0$
#97740
b0 9
b0 @
b0 O
b0 U
b0 <
b0 A
b0 K
b0 T
b0 V
1$
#98283
0$
#98826
1$
#99369
0$
#99912
1$
#100455
0$
#100998
1$
#101541
0$
#102084
1$
#102627
0$
#103170
1$
#103713
0$
#104256
1$
#104799
0$
#105342
1$
#105885
0$
#106428
1$
#106971
0$
#107514
1$
#108057
0$
#108600
1$
#109143
0$
#109686
1$
#110229
0$
#110772
1$
#111315
0$
#111858
1$
#112401
0$
#112840
1%
1_
#112944
1$
#113487
0$
#114030
1$
#114573
0$
#115116
1$
#115659
0$
#116202
1$
#116745
0$
#117288
1$
#117831
0$
#118374
1$
#118917
0$
#119460
1$
#120003
0$
#120546
1$
#121089
0$
#121520
b10 J
0(
#121632
18
1;
13
05
b10 I
1$
#122175
0$
#122718
12
b1 9
b1 @
b1 O
b1 U
1$
#123261
0$
#123804
b10 9
b10 @
b10 O
b10 U
1$
#124347
0$
#124890
b11 9
b11 @
b11 O
b11 U
1$
#125433
0$
#125976
b100 9
b100 @
b100 O
b100 U
0P
1$
#126519
0$
#127062
0Q
b101 9
b101 @
b101 O
b101 U
1$
#127605
0$
#128148
b110 9
b110 @
b110 O
b110 U
04
0R
1$
#128691
0$
#129234
b100 J
02
b111 9
b111 @
b111 O
b111 U
1$
#129777
0$
#130200
1(
b0 -
#130320
1:
03
18
1;
b0 9
b0 @
b0 O
b0 U
b1 <
b1 A
b1 K
b1 T
b1 V
b100 I
1$
#130863
0$
#131406
b10101010 "
b10101010 =
b10101010 M
b1 9
b1 @
b1 O
b1 U
1$
#131949
0$
#132492
b10 9
b10 @
b10 O
b10 U
1$
#133035
0$
#133578
b11 9
b11 @
b11 O
b11 U
1$
#134121
0$
#134664
b100 9
b100 @
b100 O
b100 U
1P
1$
#135207
0$
#135750
1Q
b101 9
b101 @
b101 O
b101 U
1$
#136293
0$
#136836
b110 9
b110 @
b110 O
b110 U
14
1R
1$
#137379
0$
#137922
b10101011 "
b10101011 =
b10101011 M
b111 9
b111 @
b111 O
b111 U
1$
#138465
0$
#138880
b1 -
#139008
b0 9
b0 @
b0 O
b0 U
b10 <
b10 A
b10 K
b10 T
b10 V
1$
#139551
0$
#140094
b1 9
b1 @
b1 O
b1 U
1$
#140637
0$
#141180
b10 9
b10 @
b10 O
b10 U
1$
#141723
0$
#142266
b11 9
b11 @
b11 O
b11 U
1$
#142809
0$
#143352
b100 9
b100 @
b100 O
b100 U
1$
#143895
0$
#144438
b101 9
b101 @
b101 O
b101 U
1$
#144981
0$
#145524
b110 9
b110 @
b110 O
b110 U
1$
#146067
0$
#146610
b111 9
b111 @
b111 O
b111 U
1$
#147153
0$
#147560
0(
b10 -
#147696
b0 9
b0 @
b0 O
b0 U
b11 <
b11 A
b11 K
b11 T
b11 V
1$
#148239
0$
#148782
b10101111 "
b10101111 =
b10101111 M
b1 9
b1 @
b1 O
b1 U
1$
#149325
0$
#149868
b10 9
b10 @
b10 O
b10 U
1$
#150411
0$
#150954
b11 9
b11 @
b11 O
b11 U
1$
#151497
0$
#152040
b100 9
b100 @
b100 O
b100 U
0P
1$
#152583
0$
#153126
0Q
b101 9
b101 @
b101 O
b101 U
1$
#153669
0$
#154212
b110 9
b110 @
b110 O
b110 U
04
0R
1$
#154755
0$
#155298
b10101011 "
b10101011 =
b10101011 M
b111 9
b111 @
b111 O
b111 U
1$
#155841
0$
#156240
1(
b11 -
#156384
b0 9
b0 @
b0 O
b0 U
b100 <
b100 A
b100 K
b100 T
b100 V
1$
#156927
0$
#157470
b10100011 "
b10100011 =
b10100011 M
b1 9
b1 @
b1 O
b1 U
1$
#158013
0$
#158556
b10 9
b10 @
b10 O
b10 U
1$
#159099
0$
#159642
b11 9
b11 @
b11 O
b11 U
1$
#160185
0$
#160728
b100 9
b100 @
b100 O
b100 U
1P
1$
#161271
0$
#161814
1Q
b101 9
b101 @
b101 O
b101 U
1$
#162357
0$
#162900
b110 9
b110 @
b110 O
b110 U
14
1R
1$
#163443
0$
#163986
b10101011 "
b10101011 =
b10101011 M
b111 9
b111 @
b111 O
b111 U
1$
#164529
0$
#164920
0(
b100 -
#165072
b0 9
b0 @
b0 O
b0 U
b101 <
b101 A
b101 K
b101 T
b101 V
1$
#165615
0$
#166158
b10111011 "
b10111011 =
b10111011 M
b1 9
b1 @
b1 O
b1 U
1$
#166701
0$
#167244
b10 9
b10 @
b10 O
b10 U
1$
#167787
0$
#168330
b11 9
b11 @
b11 O
b11 U
1$
#168873
0$
#169416
b100 9
b100 @
b100 O
b100 U
0P
1$
#169959
0$
#170502
0Q
b101 9
b101 @
b101 O
b101 U
1$
#171045
0$
#171588
b110 9
b110 @
b110 O
b110 U
04
0R
1$
#172131
0$
#172674
b10101011 "
b10101011 =
b10101011 M
b111 9
b111 @
b111 O
b111 U
1$
#173217
0$
#173600
1(
b101 -
#173760
b0 9
b0 @
b0 O
b0 U
b110 <
b110 A
b110 K
b110 T
b110 V
1$
#174303
0$
#174846
b10001011 "
b10001011 =
b10001011 M
b1 9
b1 @
b1 O
b1 U
1$
#175389
0$
#175932
b10 9
b10 @
b10 O
b10 U
1$
#176475
0$
#177018
b11 9
b11 @
b11 O
b11 U
1$
#177561
0$
#178104
b100 9
b100 @
b100 O
b100 U
1P
1$
#178647
0$
#179190
1Q
b101 9
b101 @
b101 O
b101 U
1$
#179733
0$
#180276
b110 9
b110 @
b110 O
b110 U
14
1R
1$
#180819
0$
#181362
b10101011 "
b10101011 =
b10101011 M
b111 9
b111 @
b111 O
b111 U
1$
#181905
0$
#182280
0(
b110 -
#182448
b0 9
b0 @
b0 O
b0 U
b111 <
b111 A
b111 K
b111 T
b111 V
1$
#182991
0$
#183534
b11101011 "
b11101011 =
b11101011 M
b1 9
b1 @
b1 O
b1 U
1$
#184077
0$
#184620
b10 9
b10 @
b10 O
b10 U
1$
#185163
0$
#185706
b11 9
b11 @
b11 O
b11 U
1$
#186249
0$
#186792
b100 9
b100 @
b100 O
b100 U
0P
1$
#187335
0$
#187878
0Q
b101 9
b101 @
b101 O
b101 U
1$
#188421
0$
#188964
b110 9
b110 @
b110 O
b110 U
04
0R
1$
#189507
0$
#190050
b10101011 "
b10101011 =
b10101011 M
b111 9
b111 @
b111 O
b111 U
1$
#190593
0$
#190960
1(
b111 -
#191136
b0 9
b0 @
b0 O
b0 U
b1000 <
b1000 A
b1000 K
b1000 T
b1000 V
1$
#191679
0$
#192222
b101011 "
b101011 =
b101011 M
b1 9
b1 @
b1 O
b1 U
1$
#192765
0$
#193308
b10 9
b10 @
b10 O
b10 U
1$
#193851
0$
#194394
b11 9
b11 @
b11 O
b11 U
1$
#194937
0$
#195480
b100 9
b100 @
b100 O
b100 U
1P
1$
#196023
0$
#196566
1Q
b101 9
b101 @
b101 O
b101 U
1$
#197109
0$
#197652
b110 9
b110 @
b110 O
b110 U
14
1R
1$
#198195
0$
#198738
b10101011 "
b10101011 =
b10101011 M
b111 9
b111 @
b111 O
b111 U
1$
#199281
0$
#199640
1^
b1000 -
#199824
b1000 J
b0 9
b0 @
b0 O
b0 U
b1001 <
b1001 A
b1001 K
b1001 T
b1001 V
1$
#200367
0$
#200910
17
0:
18
1;
b1000 I
b1 9
b1 @
b1 O
b1 U
1$
#201453
0$
#201996
b10 9
b10 @
b10 O
b10 U
1$
#202539
0$
#203082
b11 9
b11 @
b11 O
b11 U
1$
#203625
0$
#204168
b100 9
b100 @
b100 O
b100 U
1$
#204711
0$
#205254
b101 9
b101 @
b101 O
b101 U
1$
#205797
0$
#206340
b110 9
b110 @
b110 O
b110 U
1$
#206883
0$
#207426
b10000 J
b111 9
b111 @
b111 O
b111 U
1$
#207969
0$
#208512
11
07
18
1;
b0 9
b0 @
b0 O
b0 U
b1010 <
b1010 A
b1010 K
b1010 T
b1010 V
b10000 I
1$
#209055
0$
#209598
b1 9
b1 @
b1 O
b1 U
1$
#210141
0$
#210684
b10 9
b10 @
b10 O
b10 U
1$
#211227
0$
#211770
b11 9
b11 @
b11 O
b11 U
1$
#212313
0$
#212856
b100 9
b100 @
b100 O
b100 U
1$
#213399
0$
#213942
b101 9
b101 @
b101 O
b101 U
1$
#214485
0$
#215028
b110 9
b110 @
b110 O
b110 U
1$
#215571
0$
#216114
b100000 J
b111 9
b111 @
b111 O
b111 U
1$
#216657
0$
#217000
1\
#217200
1!
01
18
0;
b1 J
b0 9
b0 @
b0 O
b0 U
b1011 <
b1011 A
b1011 K
b1011 T
b1011 V
b100000 I
1$
#217743
0$
#218286
15
0!
08
b1 I
b1 9
b1 @
b1 O
b1 U
1$
#218829
0$
#219372
b0 9
b0 @
b0 O
b0 U
b0 <
b0 A
b0 K
b0 T
b0 V
1$
#219915
0$
#220458
1$
#221001
0$
#221544
1$
#222087
0$
#222630
1$
#223173
0$
#223716
1$
#224259
0$
#224802
1$
#225345
0$
#225888
1$
#226431
0$
#226974
1$
#227517
0$
#228060
1$
#228603
0$
#229146
1$
#229689
0$
#230232
1$
#230775
0$
#231318
1$
#231861
0$
#232404
1$
#232947
0$
#233490
1$
#234033
0$
#234360
1&
1`
#234576
1$
#235119
0$
#235662
1$
#236205
0$
#236748
1$
#237291
0$
#237834
1$
#238377
0$
#238920
1$
#239463
0$
#240006
1$
#240549
0$
#241092
1$
#241635
0$
#242178
1$
#242721
0$
#243040
b10 J
0(
#243264
18
1;
13
05
b10 I
1$
#243807
0$
#244350
12
b1 9
b1 @
b1 O
b1 U
1$
#244893
0$
#245436
b10 9
b10 @
b10 O
b10 U
1$
#245979
0$
#246522
b11 9
b11 @
b11 O
b11 U
1$
#247065
0$
#247608
b100 9
b100 @
b100 O
b100 U
0P
1$
#248151
0$
#248694
0Q
b101 9
b101 @
b101 O
b101 U
1$
#249237
0$
#249780
b110 9
b110 @
b110 O
b110 U
04
0R
1$
#250323
0$
#250866
b100 J
02
b111 9
b111 @
b111 O
b111 U
1$
#251409
0$
#251720
1(
b0 -
#251952
1:
03
18
1;
b0 9
b0 @
b0 O
b0 U
b1 <
b1 A
b1 K
b1 T
b1 V
b100 I
1$
#252495
0$
#253038
b10101010 "
b10101010 =
b10101010 M
b1 9
b1 @
b1 O
b1 U
1$
#253581
0$
#254124
b10 9
b10 @
b10 O
b10 U
1$
#254667
0$
#255210
b11 9
b11 @
b11 O
b11 U
1$
#255753
0$
#256296
b100 9
b100 @
b100 O
b100 U
1P
1$
#256839
0$
#257382
1Q
b101 9
b101 @
b101 O
b101 U
1$
#257925
0$
#258468
b110 9
b110 @
b110 O
b110 U
14
1R
1$
#259011
0$
#259554
b10101011 "
b10101011 =
b10101011 M
b111 9
b111 @
b111 O
b111 U
1$
#260097
0$
#260400
b1 -
#260640
b0 9
b0 @
b0 O
b0 U
b10 <
b10 A
b10 K
b10 T
b10 V
1$
#261183
0$
#261726
b1 9
b1 @
b1 O
b1 U
1$
#262269
0$
#262812
b10 9
b10 @
b10 O
b10 U
1$
#263355
0$
#263898
b11 9
b11 @
b11 O
b11 U
1$
#264441
0$
#264984
b100 9
b100 @
b100 O
b100 U
1$
#265527
0$
#266070
b101 9
b101 @
b101 O
b101 U
1$
#266613
0$
#267156
b110 9
b110 @
b110 O
b110 U
1$
#267699
0$
#268242
b111 9
b111 @
b111 O
b111 U
1$
#268785
0$
#269080
0(
b10 -
#269328
b0 9
b0 @
b0 O
b0 U
b11 <
b11 A
b11 K
b11 T
b11 V
1$
#269871
0$
#270414
b10101111 "
b10101111 =
b10101111 M
b1 9
b1 @
b1 O
b1 U
1$
#270957
0$
#271500
b10 9
b10 @
b10 O
b10 U
1$
#272043
0$
#272586
b11 9
b11 @
b11 O
b11 U
1$
#273129
0$
#273672
b100 9
b100 @
b100 O
b100 U
0P
1$
#274215
0$
#274758
0Q
b101 9
b101 @
b101 O
b101 U
1$
#275301
0$
#275844
b110 9
b110 @
b110 O
b110 U
04
0R
1$
#276387
0$
#276930
b10101011 "
b10101011 =
b10101011 M
b111 9
b111 @
b111 O
b111 U
1$
#277473
0$
#277760
1(
b11 -
#278016
b0 9
b0 @
b0 O
b0 U
b100 <
b100 A
b100 K
b100 T
b100 V
1$
#278559
0$
#279102
b10100011 "
b10100011 =
b10100011 M
b1 9
b1 @
b1 O
b1 U
1$
#279645
0$
#280188
b10 9
b10 @
b10 O
b10 U
1$
#280731
0$
#281274
b11 9
b11 @
b11 O
b11 U
1$
#281817
0$
#282360
b100 9
b100 @
b100 O
b100 U
1P
1$
#282903
0$
#283446
1Q
b101 9
b101 @
b101 O
b101 U
1$
#283989
0$
#284532
b110 9
b110 @
b110 O
b110 U
14
1R
1$
#285075
0$
#285618
b10101011 "
b10101011 =
b10101011 M
b111 9
b111 @
b111 O
b111 U
1$
#286161
0$
#286440
0(
b100 -
#286704
b0 9
b0 @
b0 O
b0 U
b101 <
b101 A
b101 K
b101 T
b101 V
1$
#287247
0$
#287790
b10111011 "
b10111011 =
b10111011 M
b1 9
b1 @
b1 O
b1 U
1$
#288333
0$
#288876
b10 9
b10 @
b10 O
b10 U
1$
#289419
0$
#289962
b11 9
b11 @
b11 O
b11 U
1$
#290505
0$
#291048
b100 9
b100 @
b100 O
b100 U
0P
1$
#291591
0$
#292134
0Q
b101 9
b101 @
b101 O
b101 U
1$
#292677
0$
#293220
b110 9
b110 @
b110 O
b110 U
04
0R
1$
#293763
0$
#294306
b10101011 "
b10101011 =
b10101011 M
b111 9
b111 @
b111 O
b111 U
1$
#294849
0$
#295120
1(
b101 -
#295392
b0 9
b0 @
b0 O
b0 U
b110 <
b110 A
b110 K
b110 T
b110 V
1$
#295935
0$
#296478
b10001011 "
b10001011 =
b10001011 M
b1 9
b1 @
b1 O
b1 U
1$
#297021
0$
#297564
b10 9
b10 @
b10 O
b10 U
1$
#298107
0$
#298650
b11 9
b11 @
b11 O
b11 U
1$
#299193
0$
#299736
b100 9
b100 @
b100 O
b100 U
1P
1$
#300279
0$
#300822
1Q
b101 9
b101 @
b101 O
b101 U
1$
#301365
0$
#301908
b110 9
b110 @
b110 O
b110 U
14
1R
1$
#302451
0$
#302994
b10101011 "
b10101011 =
b10101011 M
b111 9
b111 @
b111 O
b111 U
1$
#303537
0$
#303800
0(
b110 -
#304080
b0 9
b0 @
b0 O
b0 U
b111 <
b111 A
b111 K
b111 T
b111 V
1$
#304623
0$
#305166
b11101011 "
b11101011 =
b11101011 M
b1 9
b1 @
b1 O
b1 U
1$
#305709
0$
#306252
b10 9
b10 @
b10 O
b10 U
1$
#306795
0$
#307338
b11 9
b11 @
b11 O
b11 U
1$
#307881
0$
#308424
b100 9
b100 @
b100 O
b100 U
0P
1$
#308967
0$
#309510
0Q
b101 9
b101 @
b101 O
b101 U
1$
#310053
0$
#310596
b110 9
b110 @
b110 O
b110 U
04
0R
1$
#311139
0$
#311682
b10101011 "
b10101011 =
b10101011 M
b111 9
b111 @
b111 O
b111 U
1$
#312225
0$
#312480
1(
b111 -
#312768
b0 9
b0 @
b0 O
b0 U
b1000 <
b1000 A
b1000 K
b1000 T
b1000 V
1$
#313311
0$
#313854
b101011 "
b101011 =
b101011 M
b1 9
b1 @
b1 O
b1 U
1$
#314397
0$
#314940
b10 9
b10 @
b10 O
b10 U
1$
#315483
0$
#316026
b11 9
b11 @
b11 O
b11 U
1$
#316569
0$
#317112
b100 9
b100 @
b100 O
b100 U
1P
1$
#317655
0$
#318198
1Q
b101 9
b101 @
b101 O
b101 U
1$
#318741
0$
#319284
b110 9
b110 @
b110 O
b110 U
14
1R
1$
#319827
0$
#320370
b10101011 "
b10101011 =
b10101011 M
b111 9
b111 @
b111 O
b111 U
1$
#320913
0$
#321160
0(
0^
b1000 -
#321456
b1000 J
b0 9
b0 @
b0 O
b0 U
b1001 <
b1001 A
b1001 K
b1001 T
b1001 V
1$
#321999
0$
#322542
17
0:
18
1;
b1000 I
b1 9
b1 @
b1 O
b1 U
1$
#323085
0$
#323628
b10 9
b10 @
b10 O
b10 U
1$
#324171
0$
#324714
b11 9
b11 @
b11 O
b11 U
1$
#325257
0$
#325800
b100 9
b100 @
b100 O
b100 U
0P
1$
#326343
0$
#326886
0Q
b101 9
b101 @
b101 O
b101 U
1$
#327429
0$
#327972
b110 9
b110 @
b110 O
b110 U
04
0R
1$
#328515
0$
#329058
b10000 J
b111 9
b111 @
b111 O
b111 U
1$
#329601
0$
#329840
1(
#330144
11
07
18
1;
b0 9
b0 @
b0 O
b0 U
b1010 <
b1010 A
b1010 K
b1010 T
b1010 V
b10000 I
1$
#330687
0$
#331230
10
b1 9
b1 @
b1 O
b1 U
1$
#331773
0$
#332316
b10 9
b10 @
b10 O
b10 U
1$
#332859
0$
#333402
b11 9
b11 @
b11 O
b11 U
1$
#333945
0$
#334488
b100 9
b100 @
b100 O
b100 U
1P
1$
#335031
0$
#335574
1Q
b101 9
b101 @
b101 O
b101 U
1$
#336117
0$
#336660
b110 9
b110 @
b110 O
b110 U
14
1R
1$
#337203
0$
#337746
b100000 J
00
b111 9
b111 @
b111 O
b111 U
1$
#338289
0$
#338520
1[
