Temsah/Assigments/CRC/CRC.vcd
$date
	Wed Aug 06 00:37:06 2025
$end
$version
	Icarus Verilog
$end
$timescale
	1ps
$end
$scope module CRC_tbb $end
$var wire 1 ! Valid_tb $end
$var wire 1 " CRC_tb $end
$var parameter 32 # Clock_period $end
$var parameter 32 $ LFSR_width $end
$var parameter 32 % Number_of_test_cases $end
$var reg 1 & ACTIVE_tb $end
$var reg 1 ' CLK_tb $end
$var reg 1 ( DATA_tb $end
$var reg 1 ) RST_tb $end
$var integer 32 * i [31:0] $end
$var integer 32 + oper [31:0] $end
$scope module DUT $end
$var wire 1 & ACTIVE $end
$var wire 1 ' CLK $end
$var wire 1 ( DATA $end
$var wire 1 , Feedback $end
$var wire 1 ) RST $end
$var parameter 8 - SEED $end
$var parameter 8 . taps $end
$var reg 1 " CRC $end
$var reg 3 / CRC_counter [2:0] $end
$var reg 5 0 DATA_counter [4:0] $end
$var reg 8 1 LFSR [7:0] $end
$var reg 1 ! Valid $end
$var integer 32 2 i [31:0] $end
$upscope $end
$scope task Initialization $end
$upscope $end
$scope task Operation $end
$var reg 8 3 IN_Seed [7:0] $end
$upscope $end
$scope task Reset $end
$upscope $end
$scope task check_CRC $end
$var reg 8 4 OP_result [7:0] $end
$var reg 8 5 expected_output [7:0] $end
$var integer 32 6 Test_case_number [31:0] $end
$upscope $end
$upscope $end
$enddefinitions $end
$comment Show the parameter values. $end
$dumpall
b1000100 .
b11011000 -
b1010 %
b1000 $
b1100100 #
$end
#0
$dumpvars
bx 6
bx 5
bx 4
bx 3
bx 2
bx 1
bx 0
bx /
x,
bx +
bx *
1)
0(
0'
0&
x"
0!
$end
#50000
0,
b0 /
b0 0
0"
b11011000 1
0)
1'
#100000
b10010011 3
b0 +
1)
0'
#150000
0)
1'
#200000
1,
1(
b111 *
1&
1)
0'
#250000
b10101000 1
b11111111111111111111111111111111 2
1'
#300000
0'
b110 *
#350000
b10010000 1
b11111111111111111111111111111111 2
1'
#400000
0,
0'
0(
b101 *
#450000
b1001000 1
b11111111111111111111111111111111 2
1'
#500000
0'
b100 *
#550000
b100100 1
b11111111111111111111111111111111 2
1'
#600000
1,
0'
1(
b11 *
#650000
b11010110 1
b11111111111111111111111111111111 2
1'
#700000
0,
0'
0(
b10 *
#750000
1,
b1101011 1
b11111111111111111111111111111111 2
1'
#800000
0'
b1 *
#850000
b11110001 1
b11111111111111111111111111111111 2
1'
#900000
0,
0'
1(
b0 *
#950000
1,
b1111000 1
b11111111111111111111111111111111 2
1'
#1000000
0'
0&
b11111111111111111111111111111111 *
#1050000
b1 /
1!
b111100 1
1'
#1100000
bx0 4
0'
b1 *
b0 6
b1111000 5
#1150000
b10 /
b11110 1
1'
#1200000
b10 *
bx00 4
0'
#1250000
0,
b11 /
b1111 1
1'
#1300000
b11 *
bx000 4
0'
#1350000
b100 /
b111 1
1"
1'
#1400000
b100 *
bx1000 4
0'
#1450000
b101 /
b11 1
1'
#1500000
b101 *
bx11000 4
0'
#1550000
b110 /
b1 1
1'
#1600000
b110 *
bx111000 4
0'
#1650000
1,
b111 /
b0 1
1'
#1700000
b111 *
bx1111000 4
0'
#1750000
b0 /
0"
1'
#1800000
b1110010 3
b1 +
b1000 *
b1111000 4
0'
#1850000
0!
b11011000 1
0)
1'
#1900000
0,
0(
b111 *
1&
1)
0'
#1950000
b1101100 1
b11111111111111111111111111111111 2
1'
#2000000
1,
0'
1(
b110 *
#2050000
b11110010 1
b11111111111111111111111111111111 2
1'
#2100000
0,
0'
0(
b101 *
#2150000
1,
b1111001 1
b11111111111111111111111111111111 2
1'
#2200000
0'
b100 *
#2250000
0,
b11111000 1
b11111111111111111111111111111111 2
1'
#2300000
1,
0'
1(
b11 *
#2350000
b10111000 1
b11111111111111111111111111111111 2
1'
#2400000
0'
b10 *
#2450000
b10011000 1
b11111111111111111111111111111111 2
1'
#2500000
0'
b1 *
#2550000
b10001000 1
b11111111111111111111111111111111 2
1'
#2600000
0,
0'
0(
b0 *
#2650000
b1000100 1
b11111111111111111111111111111111 2
1'
#2700000
0'
0&
b11111111111111111111111111111111 *
#2750000
b1 /
1!
b100010 1
1'
#2800000
0'
b1 *
b1 6
b1000100 5
#2850000
1,
b10 /
b10001 1
1'
#2900000
b10 *
0'
#2950000
0,
b11 /
b1000 1
1"
1'
#3000000
b11 *
b1111100 4
0'
#3050000
b100 /
b100 1
0"
1'
#3100000
b100 *
b1110100 4
0'
#3150000
b101 /
b10 1
1'
#3200000
b101 *
b1100100 4
0'
#3250000
1,
b110 /
b1 1
1'
#3300000
b110 *
b1000100 4
0'
#3350000
0,
b111 /
b0 1
1"
1'
#3400000
b111 *
0'
#3450000
b0 /
0"
1'
#3500000
b110110 3
b10 +
b1000 *
0'
#3550000
0!
b11011000 1
0)
1'
#3600000
b111 *
1&
1)
0'
#3650000
b1101100 1
b11111111111111111111111111111111 2
1'
#3700000
1,
0'
1(
b110 *
#3750000
b11110010 1
b11111111111111111111111111111111 2
1'
#3800000
0'
b101 *
#3850000
0,
b10111101 1
b11111111111111111111111111111111 2
1'
#3900000
1,
0'
0(
b100 *
#3950000
0,
b10011010 1
b11111111111111111111111111111111 2
1'
#4000000
1,
0'
1(
b11 *
#4050000
0,
b10001001 1
b11111111111111111111111111111111 2
1'
#4100000
0'
b10 *
#4150000
1,
b1000100 1
b11111111111111111111111111111111 2
1'
#4200000
0,
0'
0(
b1 *
#4250000
b100010 1
b11111111111111111111111111111111 2
1'
#4300000
0'
b0 *
#4350000
1,
b10001 1
b11111111111111111111111111111111 2
1'
#4400000
0'
0&
b11111111111111111111111111111111 *
#4450000
0,
b1 /
1!
b1000 1
1"
1'
#4500000
b1000101 4
0'
b1 *
b10 6
b10001 5
#4550000
b10 /
b100 1
0"
1'
#4600000
b10 *
0'
#4650000
b11 /
b10 1
1'
#4700000
b11 *
b1000001 4
0'
#4750000
1,
b100 /
b1 1
1'
#4800000
b100 *
0'
#4850000
0,
b101 /
b0 1
1"
1'
#4900000
b101 *
b1010001 4
0'
#4950000
b110 /
0"
1'
#5000000
b110 *
0'
#5050000
b111 /
1'
#5100000
b111 *
b10001 4
0'
#5150000
b0 /
1'
#5200000
b11011 3
b11 +
b1000 *
0'
#5250000
0!
b11011000 1
0)
1'
#5300000
1,
1(
b111 *
1&
1)
0'
#5350000
b10101000 1
b11111111111111111111111111111111 2
1'
#5400000
0'
b110 *
#5450000
b10010000 1
b11111111111111111111111111111111 2
1'
#5500000
0,
0'
0(
b101 *
#5550000
b1001000 1
b11111111111111111111111111111111 2
1'
#5600000
1,
0'
1(
b100 *
#5650000
b11100000 1
b11111111111111111111111111111111 2
1'
#5700000
0'
b11 *
#5750000
b10110100 1
b11111111111111111111111111111111 2
1'
#5800000
0,
0'
0(
b10 *
#5850000
b1011010 1
b11111111111111111111111111111111 2
1'
#5900000
0'
b1 *
#5950000
1,
b101101 1
b11111111111111111111111111111111 2
1'
#6000000
0'
b0 *
#6050000
0,
b11010010 1
b11111111111111111111111111111111 2
1'
#6100000
0'
0&
b11111111111111111111111111111111 *
#6150000
1,
b1 /
1!
b11101001 1
1'
#6200000
b10000 4
0'
b1 *
b11 6
b11010010 5
#6250000
0,
b10 /
b11110100 1
1"
1'
#6300000
b10 *
b10010 4
0'
#6350000
b11 /
b11111010 1
0"
1'
#6400000
b11 *
0'
#6450000
1,
b100 /
b11111101 1
1'
#6500000
b100 *
0'
#6550000
0,
b101 /
b11111110 1
1"
1'
#6600000
b101 *
0'
#6650000
1,
b110 /
b11111111 1
0"
1'
#6700000
b110 *
0'
#6750000
b111 /
1"
1'
#6800000
b111 *
b1010010 4
0'
#6850000
b0 /
1'
#6900000
b10100110 3
b100 +
b1000 *
b11010010 4
0'
#6950000
0,
0!
0"
b11011000 1
0)
1'
#7000000
b111 *
1&
1)
0'
#7050000
b1101100 1
b11111111111111111111111111111111 2
1'
#7100000
1,
0'
1(
b110 *
#7150000
b11110010 1
b11111111111111111111111111111111 2
1'
#7200000
0'
b101 *
#7250000
0,
b10111101 1
b11111111111111111111111111111111 2
1'
#7300000
1,
0'
0(
b100 *
#7350000
0,
b10011010 1
b11111111111111111111111111111111 2
1'
#7400000
0'
b11 *
#7450000
1,
b1001101 1
b11111111111111111111111111111111 2
1'
#7500000
0,
0'
1(
b10 *
#7550000
1,
b100110 1
b11111111111111111111111111111111 2
1'
#7600000
0,
0'
0(
b1 *
#7650000
1,
b10011 1
b11111111111111111111111111111111 2
1'
#7700000
0,
0'
1(
b0 *
#7750000
b1001 1
b11111111111111111111111111111111 2
1'
#7800000
0'
0&
b11111111111111111111111111111111 *
#7850000
1,
b1 /
1!
b100 1
1"
1'
#7900000
b11010011 4
0'
b1 *
b100 6
b1001 5
#7950000
b10 /
b10 1
0"
1'
#8000000
b10 *
b11010001 4
0'
#8050000
0,
b11 /
b1 1
1'
#8100000
b11 *
0'
#8150000
1,
b100 /
b0 1
1"
1'
#8200000
b100 *
b11011001 4
0'
#8250000
b101 /
0"
1'
#8300000
b101 *
b11001001 4
0'
#8350000
b110 /
1'
#8400000
b110 *
0'
#8450000
b111 /
1'
#8500000
b111 *
b10001001 4
0'
#8550000
b0 /
1'
#8600000
b11000000 3
b101 +
b1000 *
b1001 4
0'
#8650000
0!
b11011000 1
0)
1'
#8700000
0,
0(
b111 *
1&
1)
0'
#8750000
b1101100 1
b11111111111111111111111111111111 2
1'
#8800000
0'
b110 *
#8850000
b110110 1
b11111111111111111111111111111111 2
1'
#8900000
0'
b101 *
#8950000
1,
b11011 1
b11111111111111111111111111111111 2
1'
#9000000
0'
b100 *
#9050000
b11001001 1
b11111111111111111111111111111111 2
1'
#9100000
0'
b11 *
#9150000
0,
b10100000 1
b11111111111111111111111111111111 2
1'
#9200000
0'
b10 *
#9250000
b1010000 1
b11111111111111111111111111111111 2
1'
#9300000
1,
0'
1(
b1 *
#9350000
b11101100 1
b11111111111111111111111111111111 2
1'
#9400000
0'
b0 *
#9450000
b10110010 1
b11111111111111111111111111111111 2
1'
#9500000
0'
0&
b11111111111111111111111111111111 *
#9550000
0,
b1 /
1!
b11011001 1
1'
#9600000
b1000 4
0'
b1 *
b101 6
b10110010 5
#9650000
1,
b10 /
b11101100 1
1"
1'
#9700000
b10 *
b1010 4
0'
#9750000
b11 /
b11110110 1
0"
1'
#9800000
b11 *
0'
#9850000
0,
b100 /
b11111011 1
1'
#9900000
b100 *
b10 4
0'
#9950000
b101 /
b11111101 1
1"
1'
#10000000
b101 *
b10010 4
0'
#10050000
1,
b110 /
b11111110 1
1'
#10100000
b110 *
b110010 4
0'
#10150000
0,
b111 /
b11111111 1
0"
1'
#10200000
b111 *
0'
#10250000
b0 /
1"
1'
#10300000
b1010101 3
b110 +
b1000 *
b10110010 4
0'
#10350000
1,
0!
0"
b11011000 1
0)
1'
#10400000
b111 *
1&
1)
0'
#10450000
b10101000 1
b11111111111111111111111111111111 2
1'
#10500000
0,
0'
0(
b110 *
#10550000
b1010100 1
b11111111111111111111111111111111 2
1'
#10600000
1,
0'
1(
b101 *
#10650000
b11101110 1
b11111111111111111111111111111111 2
1'
#10700000
0,
0'
0(
b100 *
#10750000
1,
b1110111 1
b11111111111111111111111111111111 2
1'
#10800000
0,
0'
1(
b11 *
#10850000
b111011 1
b11111111111111111111111111111111 2
1'
#10900000
1,
0'
0(
b10 *
#10950000
b11011001 1
b11111111111111111111111111111111 2
1'
#11000000
0,
0'
1(
b1 *
#11050000
1,
b1101100 1
b11111111111111111111111111111111 2
1'
#11100000
0,
0'
0(
b0 *
#11150000
b110110 1
b11111111111111111111111111111111 2
1'
#11200000
0'
0&
b11111111111111111111111111111111 *
#11250000
1,
b1 /
1!
b11011 1
1'
#11300000
0'
b1 *
b110 6
b110110 5
#11350000
b10 /
b1101 1
1"
1'
#11400000
b10 *
0'
#11450000
0,
b11 /
b110 1
1'
#11500000
b11 *
b10110110 4
0'
#11550000
1,
b100 /
b11 1
0"
1'
#11600000
b100 *
0'
#11650000
b101 /
b1 1
1"
1'
#11700000
b101 *
0'
#11750000
0,
b110 /
b0 1
1'
#11800000
b110 *
0'
#11850000
b111 /
0"
1'
#11900000
b111 *
0'
#11950000
b0 /
1'
#12000000
b11110010 3
b111 +
b1000 *
b110110 4
0'
#12050000
0!
b11011000 1
0)
1'
#12100000
b111 *
1&
1)
0'
#12150000
b1101100 1
b11111111111111111111111111111111 2
1'
#12200000
1,
0'
1(
b110 *
#12250000
b11110010 1
b11111111111111111111111111111111 2
1'
#12300000
0,
0'
0(
b101 *
#12350000
1,
b1111001 1
b11111111111111111111111111111111 2
1'
#12400000
0'
b100 *
#12450000
0,
b11111000 1
b11111111111111111111111111111111 2
1'
#12500000
1,
0'
1(
b11 *
#12550000
b10111000 1
b11111111111111111111111111111111 2
1'
#12600000
0'
b10 *
#12650000
b10011000 1
b11111111111111111111111111111111 2
1'
#12700000
0'
b1 *
#12750000
b10001000 1
b11111111111111111111111111111111 2
1'
#12800000
0'
b0 *
#12850000
b10000000 1
b11111111111111111111111111111111 2
1'
#12900000
0'
0&
b11111111111111111111111111111111 *
#12950000
b1 /
1!
b11000000 1
1'
#13000000
0'
b1 *
b111 6
b10000000 5
#13050000
b10 /
b11100000 1
1'
#13100000
b10 *
b110100 4
0'
#13150000
b11 /
b11110000 1
1'
#13200000
b11 *
b110000 4
0'
#13250000
b100 /
b11111000 1
1'
#13300000
b100 *
0'
#13350000
b101 /
b11111100 1
1'
#13400000
b101 *
b100000 4
0'
#13450000
b110 /
b11111110 1
1'
#13500000
b110 *
b0 4
0'
#13550000
0,
b111 /
b11111111 1
1'
#13600000
b111 *
0'
#13650000
b0 /
1"
1'
#13700000
b1011110 3
b1000 +
b1000 *
b10000000 4
0'
#13750000
1,
0!
0"
b11011000 1
0)
1'
#13800000
0,
0(
b111 *
1&
1)
0'
#13850000
b1101100 1
b11111111111111111111111111111111 2
1'
#13900000
1,
0'
1(
b110 *
#13950000
b11110010 1
b11111111111111111111111111111111 2
1'
#14000000
0'
b101 *
#14050000
0,
b10111101 1
b11111111111111111111111111111111 2
1'
#14100000
0'
b100 *
#14150000
1,
b1011110 1
b11111111111111111111111111111111 2
1'
#14200000
0'
b11 *
#14250000
0,
b11101011 1
b11111111111111111111111111111111 2
1'
#14300000
1,
0'
0(
b10 *
#14350000
b10110001 1
b11111111111111111111111111111111 2
1'
#14400000
0,
0'
1(
b1 *
#14450000
1,
b1011000 1
b11111111111111111111111111111111 2
1'
#14500000
0,
0'
0(
b0 *
#14550000
b101100 1
b11111111111111111111111111111111 2
1'
#14600000
0'
0&
b11111111111111111111111111111111 *
#14650000
b1 /
1!
b10110 1
1'
#14700000
0'
b1 *
b1000 6
b101100 5
#14750000
1,
b10 /
b1011 1
1'
#14800000
b10 *
0'
#14850000
b11 /
b101 1
1"
1'
#14900000
b11 *
b10000100 4
0'
#14950000
0,
b100 /
b10 1
1'
#15000000
b100 *
b10001100 4
0'
#15050000
1,
b101 /
b1 1
0"
1'
#15100000
b101 *
0'
#15150000
0,
b110 /
b0 1
1"
1'
#15200000
b110 *
b10101100 4
0'
#15250000
b111 /
0"
1'
#15300000
b111 *
0'
#15350000
b0 /
1'
#15400000
b10001 3
b1001 +
b1000 *
b101100 4
0'
#15450000
0!
b11011000 1
0)
1'
#15500000
1,
1(
b111 *
1&
1)
0'
#15550000
b10101000 1
b11111111111111111111111111111111 2
1'
#15600000
0,
0'
0(
b110 *
#15650000
b1010100 1
b11111111111111111111111111111111 2
1'
#15700000
0'
b101 *
#15750000
b101010 1
b11111111111111111111111111111111 2
1'
#15800000
0'
b100 *
#15850000
1,
b10101 1
b11111111111111111111111111111111 2
1'
#15900000
0,
0'
1(
b11 *
#15950000
1,
b1010 1
b11111111111111111111111111111111 2
1'
#16000000
0,
0'
0(
b10 *
#16050000
1,
b101 1
b11111111111111111111111111111111 2
1'
#16100000
0'
b1 *
#16150000
0,
b11000110 1
b11111111111111111111111111111111 2
1'
#16200000
0'
b0 *
#16250000
1,
b1100011 1
b11111111111111111111111111111111 2
1'
#16300000
0'
0&
b11111111111111111111111111111111 *
#16350000
b1 /
1!
b110001 1
1"
1'
#16400000
b101101 4
0'
b1 *
b1001 6
b1100011 5
#16450000
0,
b10 /
b11000 1
1'
#16500000
b10 *
b101111 4
0'
#16550000
b11 /
b1100 1
0"
1'
#16600000
b11 *
b101011 4
0'
#16650000
b100 /
b110 1
1'
#16700000
b100 *
b100011 4
0'
#16750000
1,
b101 /
b11 1
1'
#16800000
b101 *
0'
#16850000
b110 /
b1 1
1"
1'
#16900000
b110 *
0'
#16950000
0,
b111 /
b0 1
1'
#17000000
b111 *
b1100011 4
0'
#17050000
b0 /
0"
1'
#17100000
b1010 +
b1000 *
0'
#17150000
b1 /
1'
#17200000
0'
#17250000
b10 /
1'
#17300000
0'
#17350000
b11 /
1'
#17400000
0'
#17450000
b100 /
1'
#17500000
0'
#17550000
b101 /
1'
#17600000
0'
#17650000
b110 /
1'
#17700000
0'
#17750000
b111 /
1'
#17800000
0'
#17850000
b0 /
1'
#17900000
0'
#17950000
b1 /
1'
#18000000
0'
#18050000
b10 /
1'
