Temsah/Assigments/Data synchronizer/DATA_SYNC.vcd
$date
	Thu Sep 04 19:39:50 2025
$end
$version
	Icarus Verilog
$end
$timescale
	1ps
$end
$scope module DATA_SYNC_tb $end
$var wire 8 ! sync_bus_tb [7:0] $end
$var wire 1 " enable_pulse_tb $end
$var parameter 32 # BUS_WIDTH $end
$var parameter 32 $ Clock_period $end
$var parameter 32 % NUM_STAGES $end
$var reg 1 & CLK_tb $end
$var reg 1 ' RST_tb $end
$var reg 1 ( bus_enable_tb $end
$var reg 8 ) unsync_bus_tb [7:0] $end
$scope module DSYNC $end
$var wire 1 & CLK $end
$var wire 1 ' RST $end
$var wire 1 ( bus_enable $end
$var wire 1 * pulse_gen $end
$var wire 8 + unsync_bus [7:0] $end
$var wire 8 , mux [7:0] $end
$var parameter 32 - BUS_WIDTH $end
$var parameter 32 . NUM_STAGES $end
$var reg 1 " enable_pulse $end
$var reg 2 / syn_reg [1:0] $end
$var reg 8 0 sync_bus [7:0] $end
$var reg 8 1 unsync_reg [7:0] $end
$upscope $end
$scope task do_operation $end
$var reg 8 2 data [7:0] $end
$var reg 1 3 enable $end
$upscope $end
$scope task initialize $end
$upscope $end
$scope task reset $end
$upscope $end
$upscope $end
$enddefinitions $end
$comment Show the parameter values. $end
$dumpall
b10 .
b1000 -
b10 %
b1010 $
b1000 #
$end
#0
$dumpvars
x3
bx 2
b0 1
b0 0
b0 /
b0 ,
b0 +
0*
b0 )
0(
0'
0&
0"
b0 !
$end
#5000
1&
#10000
0&
1(
b10101011 )
b10101011 +
13
b10101011 2
1'
#15000
b10101011 1
1&
#20000
0&
#25000
b10101011 ,
1*
b1 /
1&
#30000
0&
#35000
0*
b11 /
1"
b10101011 !
b10101011 0
1&
#40000
0&
#45000
0"
1&
#50000
0&
#55000
1&
#60000
0&
#65000
1&
#70000
0&
#75000
1&
#80000
0&
#85000
1&
#90000
0&
#95000
1&
#100000
0&
#105000
1&
#110000
0&
b11001101 )
b11001101 +
b11001101 2
#115000
b11001101 1
b0 /
1&
#120000
0&
#125000
b11001101 ,
1*
b1 /
1&
#130000
0&
#135000
0*
b11 /
1"
b11001101 !
b11001101 0
1&
#140000
0&
#145000
0"
1&
#150000
0&
#155000
1&
#160000
0&
#165000
1&
#170000
0&
#175000
1&
#180000
0&
#185000
1&
#190000
0&
#195000
1&
#200000
0&
#205000
1&
#210000
0&
b11101111 )
b11101111 +
b11101111 2
#215000
b11101111 1
b0 /
1&
#220000
0&
#225000
b11101111 ,
1*
b1 /
1&
#230000
0&
#235000
0*
b11 /
1"
b11101111 !
b11101111 0
1&
#240000
0&
#245000
0"
1&
#250000
0&
#255000
1&
#260000
0&
#265000
1&
#270000
0&
#275000
1&
#280000
0&
#285000
1&
#290000
0&
#295000
1&
#300000
0&
#305000
1&
#310000
0&
0(
b11111111 )
b11111111 +
03
b11111111 2
#315000
b11111111 1
b0 /
1&
#320000
0&
#325000
1&
#330000
0&
#335000
1&
#340000
0&
#345000
1&
#350000
0&
#355000
1&
#360000
0&
#365000
1&
#370000
0&
#375000
1&
#380000
0&
#385000
1&
#390000
0&
#395000
1&
#400000
0&
#405000
1&
#410000
0&
1(
13
#412000
0(
03
#415000
1&
#420000
0&
#425000
1&
#430000
0&
#435000
1&
#440000
0&
#445000
1&
#450000
0&
#455000
1&
#460000
0&
#465000
1&
#470000
0&
#475000
1&
#480000
0&
#485000
1&
#490000
0&
#495000
1&
#500000
0&
#505000
1&
#510000
0&
#512000
1(
b10101011 )
b10101011 +
13
b10101011 2
#515000
b10101011 1
1&
#520000
0&
#525000
b10101011 ,
1*
b1 /
1&
#530000
0&
#535000
0*
b11 /
1"
b10101011 !
b10101011 0
1&
#540000
0&
#545000
0"
1&
